<svg xmlns="http://www.w3.org/2000/svg" width="24" height="24" version="1.1">
 <defs>
  <style id="current-color-scheme" type="text/css">
   .ColorScheme-Text { color:#c9ebf4; } .ColorScheme-Highlight { color:#4285f4; } .ColorScheme-NeutralText { color:#ff9800; } .ColorScheme-PositiveText { color:#4caf50; } .ColorScheme-NegativeText { color:#f44336; }
  </style>
 </defs>
 <g transform="translate(4,-2)">
  <path style="fill:currentColor" class="ColorScheme-Text" d="M 5,18 8,22 11,18 Z"/>
  <rect style="fill:currentColor" class="ColorScheme-Text" width="4" height="4" x="1" y="8" rx="1" ry="1"/>
  <rect style="fill:currentColor" class="ColorScheme-Text" width="4" height="4" x="6" y="8" rx="1" ry="1"/>
  <rect style="fill:currentColor" class="ColorScheme-Text" width="4" height="4" x="11" y="8" rx="1" ry="1"/>
  <rect style="fill:currentColor" class="ColorScheme-Text" width="4" height="4" x="10" y="13" rx="1" ry="1"/>
  <rect style="fill:currentColor" class="ColorScheme-Text" width="7" height="4" x="2" y="13" rx="1" ry="1"/>
 </g>
</svg>
