<svg xmlns="http://www.w3.org/2000/svg" width="24" height="24" version="1.1">
 <defs>
  <style id="current-color-scheme" type="text/css">
   .ColorScheme-Text { color:#c9ebf4; } .ColorScheme-Highlight { color:#4285f4; } .ColorScheme-NeutralText { color:#ff9800; } .ColorScheme-PositiveText { color:#4caf50; } .ColorScheme-NegativeText { color:#f44336; }
  </style>
 </defs>
 <path style="fill:currentColor" class="ColorScheme-Text" d="M 12.5,3 C 8,3 5.5,5.5 5.5,9 H 10.5 V 8 C 10.5,6.5 12,6.5 12,6.5 12,6.5 13.5,6.5 13.5,8 13.5,9.5 9,10.5 9,14 V 15 H 14 V 14 C 14,12 18.5,11 18.5,7.5 18.5,6 17,3 12.5,3 Z M 9,16 V 21 H 14 V 16 Z"/>
</svg>
