<svg xmlns="http://www.w3.org/2000/svg" width="16" height="16" version="1.1">
 <path style="fill:#c9ebf4" d="M 2,2 C 1,2 1,3 1,3 V 13 C 1,14 2,14 2,14 H 14 C 14,14 15,14 15,13 V 3 C 15,2 14,2 14,2 Z M 5.5,6.56 8.81,10.31 10.94,8.25 13,10.31 V 12 H 3 V 9.5 Z"/>
</svg>
