<svg xmlns="http://www.w3.org/2000/svg" width="16" height="16" version="1.1">
 <defs>
  <style id="current-color-scheme" type="text/css">
   .ColorScheme-Text { color:#b15155; } .ColorScheme-Highlight { color:#4285f4; } .ColorScheme-NeutralText { color:#ff9800; } .ColorScheme-PositiveText { color:#4caf50; } .ColorScheme-NegativeText { color:#f44336; }
  </style>
 </defs>
 <path style="fill:currentColor" class="ColorScheme-Text" d="M 3.4980469 2 A 2.5 2.5 0 0 1 4 3.5 A 2.5 2.5 0 0 1 1.6542969 5.9941406 L 2.0019531 6.5175781 L 2.0019531 10.410156 C 2.0019531 11.844039 3.1568292 13 4.5917969 13 L 13.410156 13 C 14.845124 13 16 11.844039 16 10.410156 L 16 4.5898438 C 16 3.1559615 14.845124 2 13.410156 2 L 8.390625 2 L 4.5917969 2 L 4.2128906 2 L 3.4980469 2 z M 5.3300781 4 L 12.603516 4 C 12.804971 4 12.966797 4.2229998 12.966797 4.5 C 12.966797 4.7770003 12.804971 5 12.603516 5 L 5.3300781 5 C 5.1286235 5 4.9667969 4.7770003 4.9667969 4.5 C 4.9667969 4.2229998 5.1286235 4 5.3300781 4 z M 5.3300781 7 L 12.603516 7 C 12.804971 7 12.966797 7.2229998 12.966797 7.5 C 12.966797 7.7770003 12.804971 8 12.603516 8 L 5.3300781 8 C 5.1286235 8 4.9667969 7.7770003 4.9667969 7.5 C 4.9667969 7.2229998 5.1286235 7 5.3300781 7 z M 5.4296875 10 L 10.572266 10 C 10.809694 10 11 10.223 11 10.5 C 11 10.777 10.809694 11 10.572266 11 L 5.4296875 11 C 5.1922589 11 5 10.777 5 10.5 C 5 10.223 5.1922589 10 5.4296875 10 z"/>
 <circle style="fill:currentColor" class="ColorScheme-Highlight" cx="1.5" cy="3.5" r="1.5"/>
</svg>
