<svg xmlns="http://www.w3.org/2000/svg" width="16" height="16" version="1.1">
 <defs>
  <style id="current-color-scheme" type="text/css">
   .ColorScheme-Text { color:#b15155; } .ColorScheme-Highlight { color:#4285f4; } .ColorScheme-NeutralText { color:#ff9800; } .ColorScheme-PositiveText { color:#4caf50; } .ColorScheme-NegativeText { color:#f44336; }
  </style>
 </defs>
 <path style="fill:currentColor" class="ColorScheme-PositiveText" d="M 6 1 C 2.85 1.78 0.5 4.6 0.5 8 C 0.5 11.4 2.85 14.22 6 15 L 6 13.5 C 3.68 12.76 2 10.57 2 8 C 2 5.43 3.68 3.24 6 2.5 L 6 1 z M 8 1 L 8 15 L 12 11 L 15 11 L 15 5 L 12 5 L 8 1 z M 6 5 C 4.93 5.58 4.2109375 6.7 4.2109375 8 C 4.2109375 9.3 4.94 10.42 6 11 L 6 5 z"/>
</svg>
