<svg xmlns="http://www.w3.org/2000/svg" width="16" height="16" version="1.1">
 <defs>
  <style id="current-color-scheme" type="text/css">
   .ColorScheme-Text { color:#b15155; } .ColorScheme-Highlight { color:#4285f4; } .ColorScheme-NeutralText { color:#ff9800; } .ColorScheme-PositiveText { color:#4caf50; } .ColorScheme-NegativeText { color:#f44336; }
  </style>
 </defs>
 <path style="fill:currentColor" class="ColorScheme-Text" d="m 2,1 0,9 2,0 0,-9 z M 5,3 5,15 7,15 7,3 Z m 3,0 0,12 2,0 0,-12 z m 3,0 0,7 2,0 0,-7 z"/>
 <circle style="fill:currentColor" class="ColorScheme-Highlight" cx="13.5" cy="13.5" r="1.5"/>
</svg>
