<svg xmlns="http://www.w3.org/2000/svg" width="16" height="16" version="1.1">
 <defs>
  <style id="current-color-scheme" type="text/css">
   .ColorScheme-Text { color:#b15155; } .ColorScheme-Highlight { color:#4285f4; } .ColorScheme-NeutralText { color:#ff9800; } .ColorScheme-PositiveText { color:#4caf50; } .ColorScheme-NegativeText { color:#f44336; }
  </style>
 </defs>
 <path style="opacity:.35;fill:currentColor" class="ColorScheme-Text" d="M 15,1.01 1,15.01 H 9 V 11.01 H 10.014 C 10.033,9.37 11.356,8.01 13,8.01 13.774,8.01 14.471,8.32 15,8.81 Z"/>
 <path style="fill:currentColor" class="ColorScheme-Text" d="M 9,7.01 1,15.01 H 9 Z"/>
 <path style="fill:currentColor" class="ColorScheme-Text" d="M 13,9 C 11.892,9 11,9.91 11,11.03 V 12 H 10 V 16 H 16 V 12 H 15 V 11.03 C 15,9.91 14.108,9 13,9 Z M 13,10 C 13.554,10 14,10.44 14,11 V 12 H 12 V 11 C 12,10.44 12.446,10 13,10 Z"/>
</svg>
