<svg xmlns="http://www.w3.org/2000/svg" width="16" height="16" version="1.1">
 <defs>
  <style id="current-color-scheme" type="text/css">
   .ColorScheme-Text { color:#b15155; } .ColorScheme-Highlight { color:#4285f4; } .ColorScheme-NeutralText { color:#ff9800; } .ColorScheme-PositiveText { color:#4caf50; } .ColorScheme-NegativeText { color:#f44336; }
  </style>
 </defs>
 <path style="fill:currentColor" class="ColorScheme-Text" d="M 0,2 V 14 H 2 V 2 Z M 4,2 V 14 L 8.253,13.968 C 11.184,13.935 11.461,13.895 12.7,13.291 15.402,11.974 16.678,8.787 15.64,5.9475 14.954,4.0722 13.394,2.6838 11.405,2.1789 10.78,2.0203 10.383,1.9997 7.955,1.9997 Z"/>
</svg>
