<svg xmlns="http://www.w3.org/2000/svg" width="16" height="16" version="1.1">
 <defs>
  <style id="current-color-scheme" type="text/css">
   .ColorScheme-Text { color:#b15155; } .ColorScheme-Highlight { color:#4285f4; } .ColorScheme-NeutralText { color:#ff9800; } .ColorScheme-PositiveText { color:#4caf50; } .ColorScheme-NegativeText { color:#f44336; }
  </style>
 </defs>
 <path style="fill:currentColor;opacity:.35" class="ColorScheme-Text" d="M 4 2 C 1.784 2 0 3.8111038 0 6.0605469 L 0.0078125 8 C 0.0069725 8.0308589 1.4456029e-18 8.0586803 0 8.0898438 C 0 8.1163377 0.0073125 8.1415757 0.0078125 8.1679688 L 0.029296875 13.326172 C -0.22244315 14.830537 1.2158281 15.782184 2.4238281 14.136719 L 4.5527344 11 L 11.447266 11 L 13.576172 14.136719 C 14.784172 15.782184 16.221703 14.830537 15.970703 13.326172 L 15.992188 8.1679688 C 15.993169 8.141576 16 8.1163374 16 8.0898438 C 16 8.0653796 15.993186 8.0438943 15.992188 8.0195312 L 16 6.0605469 C 16 3.8111038 14.216 2 12 2 L 8 2 A 4 4 0 0 1 12 6 A 4 4 0 0 1 8 10 A 4 4 0 0 1 4 6 A 4 4 0 0 1 8 2 L 4 2 z"/>
 <path style="fill:currentColor" class="ColorScheme-Text" d="m 10.12132,3.8786797 a 3,3 0 0 0 -4.2426403,0 3,3 0 0 0 0,4.2426406 3,3 0 0 0 4.2426403,0 3,3 0 0 0 0,-4.2426406 z M 9.4142136,4.5857864 A 2,2 0 0 1 9.7221917,7.0150849 L 6.9862961,4.2791893 A 2,2 0 0 1 9.4142136,4.5857864 Z M 6.2778083,4.9849151 9.0137039,7.7208107 A 2,2 0 0 1 6.5857864,7.4142136 2,2 0 0 1 6.2778083,4.9849151 Z"/>
</svg>
