<svg xmlns="http://www.w3.org/2000/svg" width="16" height="16" version="1.1">
 <defs>
  <style id="current-color-scheme" type="text/css">
   .ColorScheme-Text { color:#b15155; } .ColorScheme-Highlight { color:#4285f4; } .ColorScheme-NeutralText { color:#ff9800; } .ColorScheme-PositiveText { color:#4caf50; } .ColorScheme-NegativeText { color:#f44336; }
  </style>
 </defs>
 <path style="opacity:.35;fill:currentColor" class="ColorScheme-Text" d="m 8.0000002,0.999939 c -0.366683,0 -0.734196,0.1360582 -1.0083002,0.4101563 L 1.4101569,6.9933469 c -0.2742665,0.274259 -0.41051535,0.639974 -0.4101562,1.006592 h 5.9999994 v -2.625 L 10.5,7.9999389 H 15 c 0,-0.366597 -0.137761,-0.732494 -0.411865,-1.006592 L 9.0083012,1.4100953 C 8.7341972,1.1359973 8.3666842,0.999939 8.0000002,0.999939 Z"/>
 <path style="fill:currentColor" class="ColorScheme-Text" d="m 1.0000004,7.9999389 c 3.599e-4,0.366186 0.1379108,0.732655 0.4118652,1.006592 l 5.5815428,5.5815431 c 0.5482094,0.548196 1.4666824,0.549867 2.0148925,0.0017 L 14.588135,9.0064809 C 14.862239,8.7324329 15,8.3665369 15,7.9999389 H 10.5 L 6.9999998,10.624939 V 7.9999389 Z"/>
</svg>
