<svg xmlns="http://www.w3.org/2000/svg" width="16" height="16" version="1.1">
 <defs>
  <style id="current-color-scheme" type="text/css">
   .ColorScheme-Text { color:#b15155; } .ColorScheme-Highlight { color:#4285f4; } .ColorScheme-NeutralText { color:#ff9800; } .ColorScheme-PositiveText { color:#4caf50; } .ColorScheme-NegativeText { color:#f44336; }
  </style>
 </defs>
 <path style="fill:currentColor" class="ColorScheme-Text" d="m 6.7489322,4.9994401 a 0.73085587,0.79027464 0 0 0 -0.748047,0.792969 v 4.4160159 a 0.73085587,0.79027464 0 0 0 1.095703,0.685547 L 10.635651,8.6849876 a 0.73085587,0.79027464 0 0 0 0,-1.369141 L 7.0965882,5.1049091 a 0.73085587,0.79027464 0 0 0 -0.347656,-0.105469 z"/>
 <path style="opacity:.35;fill:currentColor" class="ColorScheme-Text" d="m 8.0008852,-5.5992058e-4 c -4.4064335,0 -8.000000052,3.59356662058 -8.000000052,8.00000052058 0,4.4064334 3.593566552,8.0000004 8.000000052,8.0000004 4.4064328,0 7.9999998,-3.593567 7.9999998,-8.0000004 0,-4.4064339 -3.593567,-8.00000052058 -7.9999998,-8.00000052058 z m 0,2.00000002058 c 3.3255528,0 5.9999998,2.6744469 5.9999998,6.0000005 0,3.3255534 -2.674447,6.0000004 -5.9999998,6.0000004 -3.3255532,0 -6.0000001,-2.674447 -6.0000001,-6.0000004 0,-3.3255536 2.6744469,-6.0000005 6.0000001,-6.0000005 z"/>
 <path style="fill:currentColor" class="ColorScheme-Text" d="M 8.0008852,-5.5992058e-4 V 1.9994401 A 6,6 0 0 1 14.000885,7.9994406 6,6 0 0 1 8.0008852,13.999441 6,6 0 0 1 2.0008851,7.9994406 6,6 0 0 1 3.5477601,3.9896745 L 2.0555726,2.6459245 A 8,8 0 0 0 1.5282289,12.702566 8,8 0 0 0 11.254791,15.308035 8,8 0 0 0 15.825104,6.3353786 8,8 0 0 0 8.0008852,-5.5992058e-4 Z"/>
</svg>
