<svg xmlns="http://www.w3.org/2000/svg" width="16" height="16" version="1.1">
 <defs>
  <style id="current-color-scheme" type="text/css">
   .ColorScheme-Text { color:#b15155; } .ColorScheme-Highlight { color:#4285f4; } .ColorScheme-NeutralText { color:#ff9800; } .ColorScheme-PositiveText { color:#4caf50; } .ColorScheme-NegativeText { color:#f44336; }
  </style>
 </defs>
 <path style="fill:currentColor" class="ColorScheme-Text" d="m 7.5005361,12.958267 h 0.9563607 c 0,0 0.2888065,-0.03471 0.436472,-0.207904 0.1357229,-0.159193 0.1313883,-0.457928 0.1313883,-0.457928 0,0 -0.018713,-1.398885 0.5767702,-1.60486 0.5872557,-0.203051 1.6689667,1.351887 2.4680187,1.949912 0.604246,0.452348 1.063416,0.353333 1.063416,0.353333 l 2.136721,-0.03254 c 0,0 1.117671,-0.07517 0.587694,-1.033242 -0.04338,-0.07825 -0.308749,-0.708646 -1.588724,-2.0038703 C 12.928293,8.5663757 13.107929,7.989999 14.721743,5.645209 15.705013,4.217162 16.097739,3.6518298 15.974831,3.278457 15.85774,2.9226849 15.134833,3.0166785 15.134833,3.0166785 l -2.405812,0.016219 c 0,0 -0.178487,-0.026474 -0.310661,0.059764 -0.129302,0.084323 -0.212291,0.2813578 -0.212291,0.2813578 0,0 -0.380915,0.798556 -0.888579,1.7384945 C 10.24622,7.0954849 9.4899782,7.9957113 9.3148509,7.8724009 8.9074488,7.5853979 9,6.7196775 9,6.104432 9,4.1826111 9.276648,3.3381463 8.4885549,3.130717 8.2270793,3.0619291 8.0344473,3.0074323 7.3656488,3 6.5071791,2.9904709 5.8256356,3.0118165 5.4142184,3.2315615 5.1405174,3.3776726 4.9293471,3.7031989 5.0580303,3.7219289 5.2170844,3.7450139 5.577098,3.8278785 5.7679849,4.1110155 6.0145879,4.4767569 6,5.3410233 6,5.3410233 c 0,0 0.1476711,2.2622025 -0.3248658,2.5431877 C 5.350895,8.0769446 5.1889972,6.8878668 4.2338725,5.0887678 3.7446084,4.167277 3.3750385,3.4548821 3.3750385,3.4548821 c 0,0 -0.071163,-0.1903375 -0.1982685,-0.2922305 C 3.0231704,3.0391893 2.8077527,2.9999998 2.8077527,2.9999998 L 0.52150436,3.016272 c 0,0 -0.34311177,0.010451 -0.46921329,0.1731385 -0.11217418,0.1448253 -0.0089673,0.4439901 -0.0089673,0.4439901 0,0 1.78974063,5.0539894 3.81642613,7.3544634 1.8585405,2.109349 3.6407644,1.970885 3.6407644,1.970885"/>
</svg>
