<svg xmlns="http://www.w3.org/2000/svg" width="16" height="16" version="1.1">
 <defs>
  <style id="current-color-scheme" type="text/css">
   .ColorScheme-Text { color:#b15155; } .ColorScheme-Highlight { color:#4285f4; } .ColorScheme-NeutralText { color:#ff9800; } .ColorScheme-PositiveText { color:#4caf50; } .ColorScheme-NegativeText { color:#f44336; }
  </style>
 </defs>
 <path style="fill:currentColor" class="ColorScheme-Text" d="m 7.000281,0 v 2.0859375 c 0.330348,-0.056525 0.664852,-0.085271 1,-0.085937 0.335258,0.00196 0.669762,0.03201 1,0.089844 V 0 Z M 3.0510624,1.6367188 1.637,3.0507812 3.1135624,4.5273438 C 3.5032497,3.9807419 3.9819018,3.5034102 4.5295781,3.1152344 Z m 9.8984376,0 -1.476563,1.4765624 c 0.546602,0.3896873 1.023934,0.8683393 1.41211,1.4160157 L 14.363562,3.0507812 Z M 8.000281,3 A 5,5 0 0 0 3.0002812,8 H 7.029578 L 7.146765,7.666016 C 7.497909,6.672818 8.444851,6.00282 9.498328,6 h 0.002 c 1.252866,0 2.205409,0.991056 2.375,2.201172 C 12.088313,8.141462 12.270296,8.000611 12.498328,8 h 0.002 c 0.16978,0 0.335332,0.01768 0.496094,0.05078 A 5,5 0 0 0 13.000281,8 a 5,5 0 0 0 -5,-5 z m 1.5,4 C 8.866096,7.0017 8.301518,7.402082 8.090125,8 h 1.910156 v 1 h -0.5 -1.410156 -6.0898438 v 1 H 9.500281 c 0.828427,0 1.5,-0.671573 1.5,-1.5 0,-0.828427 -0.671573,-1.5 -1.5,-1.5 z m 3,2 c -0.634185,0.0017 -1.198763,0.402082 -1.410156,1 h 1.910156 v 1 h -0.5 -1.410156 -6.0898438 v 1 h 7.4999998 c 0.828427,0 1.5,-0.671573 1.5,-1.5 0,-0.828427 -0.671573,-1.5 -1.5,-1.5 z M 2.0002812,13 v 1 h 6.0898438 1.410156 0.5 v 1 H 8.090125 c 0.211393,0.597918 0.775971,0.998284 1.410156,1 0.828427,0 1.5,-0.671573 1.5,-1.5 0,-0.828427 -0.671573,-1.5 -1.5,-1.5 z"/>
</svg>
