<svg xmlns="http://www.w3.org/2000/svg" width="16" height="16" version="1.1">
 <defs>
  <style id="current-color-scheme" type="text/css">
   .ColorScheme-Text { color:#b15155; } .ColorScheme-Highlight { color:#4285f4; } .ColorScheme-NeutralText { color:#ff9800; } .ColorScheme-PositiveText { color:#4caf50; } .ColorScheme-NegativeText { color:#f44336; }
  </style>
 </defs>
 <path style="fill:currentColor" class="ColorScheme-Text" d="M 8.642584,1 C 5.9200552,1.10157 3.411057,2.8069694 2.421881,5.568359 2.1347598,6.369888 1.9985205,7.191987 2.000006,8 h 3.8125 C 5.5298761,6.797512 5.5767391,5.50093 6.023444,4.2539062 6.530113,2.8394762 7.477992,1.74257 8.642584,1 Z M 9.500006,7 C 8.865821,7.0017 8.301243,7.402082 8.08985,8 h 1.910156 v 1 h -0.5 H 8.08985 2.000006 v 1 h 7.5 c 0.828427,0 1.5,-0.671573 1.5,-1.5 0,-0.828427 -0.671573,-1.5 -1.5,-1.5 z m 3,2 c -0.634185,0.0017 -1.198763,0.402082 -1.410156,1 h 1.910156 v 1 h -0.5 -1.410156 -6.089844 v 1 h 7.5 c 0.828427,0 1.5,-0.671573 1.5,-1.5 0,-0.828427 -0.671573,-1.5 -1.5,-1.5 z m -10.5,4 v 1 h 6.089844 1.410156 0.5 v 1 H 8.08985 c 0.211393,0.597918 0.775971,0.998284 1.410156,1 0.828427,0 1.5,-0.671573 1.5,-1.5 0,-0.828427 -0.671573,-1.5 -1.5,-1.5 z"/>
</svg>
