<svg xmlns="http://www.w3.org/2000/svg" width="16" height="16" version="1.1">
 <defs>
  <style id="current-color-scheme" type="text/css">
   .ColorScheme-Text { color:#b15155; } .ColorScheme-Highlight { color:#4285f4; } .ColorScheme-NeutralText { color:#ff9800; } .ColorScheme-PositiveText { color:#4caf50; } .ColorScheme-NegativeText { color:#f44336; }
  </style>
 </defs>
 <path style="fill:currentColor" class="ColorScheme-PositiveText" d="m 7.6929382,1.0012504 c -1.867437,0.03078 -3.341375,0.7188856 -4.708985,2.0761718 -1.478179,1.467022 -2.00972402,2.8140456 -2.00390602,5.0703125 0.0038,1.4727692 0.21476302,2.4640923 0.69531302,3.2753893 l 0.255859,0.435547 -0.93164102,3.140625 2.52929702,-1.230469 0.841797,0.392578 c 0.462991,0.215814 1.343512,0.501315 1.957031,0.634766 0.827154,0.179938 1.142456,0.230556 2.083985,0.191406 1.9796668,-0.08232 3.3209318,-0.638363 4.5859368,-1.898437 1.274949,-1.269979 1.911534,-2.796955 2.035156,-4.8789053 0.221314,-3.7272389 -1.770649,-6.3511723 -5.3300778,-7.0214843 -0.72073,-0.135728 -1.387286,-0.19776009 -2.009765,-0.1875 z m -1.158203,1.9980468 c 0.265696,0 0.741434,0.5671789 1.097656,1.3066406 0.388228,0.805914 0.384273,1.0499639 -0.01758,1.3144532 -0.531221,0.3496382 -0.96875,0.8229788 -0.96875,1.046875 0,0.115608 0.335826,0.5622974 0.746094,0.9921874 0.670613,0.7026876 0.779875,0.8895558 1.085937,1.859375 0.191128,0.6056246 0.4318,1.1356936 0.548828,1.2089836 0.164935,0.103292 0.370848,0.04254 0.9824218,-0.294921 l 0.246093,-0.136719 c 0.484731,-0.267468 0.538122,-0.3649672 0.871094,0.136719 0.189608,0.234578 0.48431,0.720578 0.654297,1.080077 0.368609,0.779548 0.304588,0.95806 -0.449219,1.259766 C 9.6506032,13.445546 8.6967232,12.723314 6.7046552,9.2746878 5.0352532,6.3846535 4.7117902,5.2873648 5.2202802,4.2532034 5.4860932,3.7125927 6.2341212,2.9992972 6.5347332,2.9992972 Z"/>
</svg>
