<svg xmlns="http://www.w3.org/2000/svg" width="24" height="24" version="1.1">
 <defs>
  <style id="current-color-scheme" type="text/css">
   .ColorScheme-Text { color:#b15155; } .ColorScheme-Highlight { color:#4285f4; } .ColorScheme-NeutralText { color:#ff9800; } .ColorScheme-PositiveText { color:#4caf50; } .ColorScheme-NegativeText { color:#f44336; }
  </style>
 </defs>
 <path style="fill:currentColor" class="ColorScheme-Text" d="m 7,4 v 16 h 11 c 0.554,0 1,-0.446 1,-1 V 5 C 19,4.446 18.554,4 18,4 h -1 v 7 c 0,0.554 -0.446,1 -1,1 h -2 c -0.554,0 -1,-0.446 -1,-1 V 4 Z m 7,0 v 7 h 2 V 4 Z"/>
 <path style="opacity:.35;fill:currentColor" class="ColorScheme-Text" d="M 6,4 C 5.446,4 5,4.446 5,5 v 14 c 0,0.554 0.446,1 1,1 H 7 V 4 Z"/>
</svg>
