<svg xmlns="http://www.w3.org/2000/svg" width="24" height="24" version="1.1">
 <defs>
  <style id="current-color-scheme" type="text/css">
   .ColorScheme-Text { color:#b15155; } .ColorScheme-Highlight { color:#4285f4; } .ColorScheme-NeutralText { color:#ff9800; } .ColorScheme-PositiveText { color:#4caf50; } .ColorScheme-NegativeText { color:#f44336; }
  </style>
 </defs>
 <path style="fill:currentColor" class="ColorScheme-Text" d="M 17.999817,4 C 13.095154,4 8.9290699,7.2299795 7.5154415,11.673828 A 5,5 0 0 1 9.929504,11.005859 C 11.397635,8.036477 14.453903,6 17.999817,6 Z m 0,4 c -2.546131,0 -4.782678,1.372955 -6.007813,3.416016 A 5,5 0 0 1 13.628723,12.5625 C 14.480561,11.030668 16.113357,10 17.999817,10 Z M 9.9900509,12 C 9.3135615,12.001344 8.6274785,12.174748 7.9998165,12.537109 6.0868405,13.641449 5.4325559,16.087251 6.5369259,18 c 1.104371,1.912649 3.5500151,2.567231 5.4628911,1.462891 1.912976,-1.104339 2.567262,-3.548188 1.46289,-5.460938 -0.690232,-1.195406 -1.902854,-1.901671 -3.183594,-1.992187 -0.09605,-0.0068 -0.192421,-0.01 -0.2890621,-0.0098 z m 6.5097661,0 a 1.5,1.5 0 0 0 -1.5,1.5 1.5,1.5 0 0 0 1.5,1.5 1.5,1.5 0 0 0 1.5,-1.5 1.5,1.5 0 0 0 -1.5,-1.5 z m -6.5000005,0.400391 0.5000005,0.5 0.5,0.5 -0.5,0.5 -0.5000005,0.5 V 14 a 2,2 0 0 0 -2,2 v 2.230469 a 3,3 0 0 1 -1,-2.230469 3,3 0 0 1 3,-3 z m 2.0000005,1.36914 a 3,3 0 0 1 1,2.230469 3,3 0 0 1 -3.0000005,3 v 0.5 l -0.5,-0.5 -0.5,-0.5 0.5,-0.5 0.5,-0.5 V 18 a 2,2 0 0 0 2.0000005,-2 z m 3,2.230469 v 4 h 3 v -4 z"/>
</svg>
