<svg xmlns="http://www.w3.org/2000/svg" width="24" height="24" version="1.1">
 <defs>
  <style id="current-color-scheme" type="text/css">
   .ColorScheme-Text { color:#b15155; } .ColorScheme-Highlight { color:#4285f4; } .ColorScheme-NeutralText { color:#ff9800; } .ColorScheme-PositiveText { color:#4caf50; } .ColorScheme-NegativeText { color:#f44336; }
  </style>
 </defs>
 <path style="fill:currentColor" class="ColorScheme-Text" d="m12 4a5 5 0 0 0 -5 5 5 5 0 0 0 3 4.576172v5.423828l2 2 2-2v-0.699219l1-0.75-1-0.75v-0.75l1-1-1-1v-0.470703a5 5 0 0 0 3 -4.580078 5 5 0 0 0 -5 -5zm0 1a2.0000002 2.0000002 0 0 1 2 2 2.0000002 2.0000002 0 0 1 -2 2 2.0000002 2.0000002 0 0 1 -2 -2 2.0000002 2.0000002 0 0 1 2 -2zm-1 9h1v4h-1z"/>
</svg>
