<svg xmlns="http://www.w3.org/2000/svg" width="24" height="24" version="1.1">
 <defs>
  <style id="current-color-scheme" type="text/css">
   .ColorScheme-Text { color:#b15155; } .ColorScheme-Highlight { color:#4285f4; } .ColorScheme-NeutralText { color:#ff9800; } .ColorScheme-PositiveText { color:#4caf50; } .ColorScheme-NegativeText { color:#f44336; }
  </style>
 </defs>
 <path style="fill:currentColor" class="ColorScheme-Text" d="M 11.746479,3.9999985 C 7.5616814,3.9962485 4.1127093,7.442649 4.0027025,11.791015 c -0.1118848,4.417388 3.2642355,8.09349 7.5387085,8.208984 3.458659,0.002 6.458713,-1.99765 7.185207,-5.257812 -1.072556,1.781235 -3.082126,2.333415 -4.876723,2.328124 C 12.372924,17.058071 10.733426,16.713606 9.4731478,16.021483 7.8266714,15.110482 7.9467545,13.97097 8.000561,13.173827 8.03165,12.714641 8.2558433,11.937414 8.8501303,11.185546 c 0.192502,0.07091 0.378927,0.155046 0.5448962,0.271484 0.4095877,0.276586 0.7794755,0.690649 1.3046255,0.503907 0.35903,-0.125944 0.377847,-0.340719 0.240224,-0.691407 -0.116219,-0.285137 -0.307338,-0.776064 -0.544896,-0.964843 -0.09453,-0.07482 -0.232689,-0.121424 -0.380842,-0.16211 0.251304,-0.1602215 0.524671,-0.3114185 0.837851,-0.4433595 0.873897,-0.308642 1.842775,-0.484277 2.781119,-0.472656 0.191785,0.292441 0.36378,0.593543 0.667938,0.710937 0.50806,0.2064305 0.718608,-0.130712 0.699186,-0.541016 0.04719,0.01344 0.09601,0.02211 0.142571,0.03711 1.004669,0.226741 1.728071,0.518036 2.683467,0.8554695 0,0 -0.0082,0.01661 0.255847,0.08203 0.773302,0.122512 1.224281,-0.09362 1.49993,-0.3828125 0.06638,-0.0038 0.129729,-0.02793 0.187491,-0.09961 0.104435,-0.129517 0.302868,-0.318479 0.189444,-0.59961 C 19.99511,9.1365345 20,9.0292955 20,9.0292955 L 19.947268,8.7304673 19.785166,8.3261704 19.709,8.1542954 19.69337,8.1230454 C 19.771737,8.0585534 19.831488,7.9496866 19.841801,7.8144516 19.858291,7.6000194 19.751006,7.4140245 19.601578,7.3886704 19.601253,7.1509979 19.587078,6.879364 19.542991,6.5097641 19.482193,5.9998618 19.147579,5.7980061 19.039103,5.7187485 18.930385,5.6396335 18.422942,5.2569431 17.937593,5.0664047 17.451946,4.8758645 16.962172,4.7350858 16.35759,4.820311 c -0.06713,0.00949 -0.131072,0.019368 -0.197257,0.029297 -0.01172,-0.00372 -0.02052,-0.00796 -0.0332,-0.011719 -0.230545,-0.068484 -0.393663,-0.4420136 -0.582004,-0.4375 -0.01441,3.457e-4 -0.03017,0.00236 -0.04492,0.00391 -0.01452,0.00152 -0.02803,0.00307 -0.04297,0.00586 h -0.002 c -0.01522,0.00284 -0.02919,0.00745 -0.04492,0.011719 -0.01718,0.00466 -0.03528,0.010376 -0.05078,0.017578 -0.11022,0.051252 -0.176991,0.2445701 -0.21874,0.3710938 -0.966908,-0.4889243 -2.048474,-0.7757377 -3.195122,-0.8066451 -0.06679,-0.00181 -0.132784,-0.00385 -0.199209,-0.00391 z m 5.693091,3.0039062 c 0.126994,-0.015117 0.260372,0.018183 0.369123,0.1035157 0.217747,0.1710387 0.255482,0.4841558 0.08594,0.7011719 -0.170042,0.2170151 -0.483516,0.2543995 -0.701139,0.083984 -0.217624,-0.1712882 -0.258047,-0.484031 -0.08789,-0.7011719 0.08484,-0.1083204 0.206975,-0.1723825 0.333969,-0.1875 z"/>
 <path style="opacity:.35;fill:currentColor" class="ColorScheme-Text" d="m 13.323331,10.27811 c -0.538112,0.01954 -1.077175,0.130022 -1.605394,0.273471 0.05261,0.121099 0.116987,0.264696 0.148431,0.341838 a 1.0000531,1.0002218 0 0 1 0.0059,0.01172 c 0.09985,0.254434 0.232915,0.590319 0.0957,1.070444 -0.136932,0.47912 -0.593782,0.807271 -0.935505,0.927847 -0.551091,0.194101 -1.1579736,0.04918 -1.5077416,-0.142596 -0.121435,-0.06658 -0.148347,-0.101499 -0.238271,-0.164082 -0.07932,0.223321 -0.280519,0.547281 -0.287095,0.642656 -0.02812,0.416524 -0.04214,0.731782 0.04687,0.994263 0.08873,0.261637 0.253777,0.547005 0.90816,0.910267 l 0.0039,0.002 c 1.0622416,0.582278 2.5739146,0.912946 3.9002086,0.92394 1.586006,0.0039 3.177237,-0.458495 4.011531,-1.843974 a 1.0000531,1.0002218 0 0 1 1.074164,-0.462994 5.9995838,6.0008577 0 0 0 0.05664,-0.761812 5.9995838,6.0008577 0 0 0 -0.230458,-1.631058 c -0.267672,0.03008 -0.547817,0.03711 -0.843711,-0.0098 a 1.0000531,1.0002218 0 0 1 -0.08398,-0.01758 c -0.153558,-0.03804 -0.240601,-0.0609 -0.357405,-0.107431 -0.0047,-0.0019 -0.01668,-0.0099 -0.02148,-0.01172 -0.721985,-0.255562 -1.294497,-0.437154 -1.915926,-0.615309 -0.0032,0.0032 -6.06e-4,0.0066 -0.0039,0.0098 -0.418004,0.403551 -1.132705,0.436325 -1.607358,0.248072 -0.384494,-0.150937 -0.437946,-0.367199 -0.613252,-0.587932 z"/>
</svg>
