<svg xmlns="http://www.w3.org/2000/svg" width="24" height="24" version="1.1">
 <defs>
  <style id="current-color-scheme" type="text/css">
   .ColorScheme-Text { color:#b15155; } .ColorScheme-Highlight { color:#4285f4; } .ColorScheme-NeutralText { color:#ff9800; } .ColorScheme-PositiveText { color:#4caf50; } .ColorScheme-NegativeText { color:#f44336; }
  </style>
 </defs>
 <path style="fill:currentColor" class="ColorScheme-Text" d="M 11.818359,4.0097658 C 7.4749692,4.1084064 4.0041833,7.6554925 4,12 c -10e-8,4.418278 3.581722,8 8,8 4.418278,0 8,-3.581722 8,-8 C 19.9919,9.3848512 18.706144,6.9387504 16.556641,5.449219 V 7.0996096 C 17.487375,8.1860862 17.999267,9.5693722 18,11 c 0,3.313708 -2.686292,6 -6,6 -3.3137085,0 -6,-2.686292 -6,-6 0.00601,-2.8826738 2.0612002,-5.3536528 4.894531,-5.8847654 0.289336,-0.3459007 0.616676,-0.7368711 0.759766,-0.9121094 0.05699,-0.069799 0.109009,-0.1283463 0.164062,-0.1933594 z m 1.859375,0.9902344 c -0.01468,0.00179 -0.02668,0.00645 -0.03711,0.011719 -0.03696,0.018692 -0.21388,0.2412063 -0.394531,0.4941406 -0.18065,0.2529337 -0.575452,0.7935873 -0.876953,1.203125 -0.3015,0.4095372 -0.87451,1.1946183 -1.271485,1.7421875 -0.779889,1.0757379 -0.90473,1.2918089 -1.033203,1.8027337 -0.080235,0.319106 -0.087296,0.835403 -0.01563,1.134766 0.196497,0.820672 0.854092,1.435708 1.701172,1.59375 0.0385,0.0072 0.171727,0.01564 0.294922,0.01758 0.513279,0.0085 0.95029,-0.190875 1.320312,-0.601562 0.195018,-0.216451 0.249267,-0.301596 0.369141,-0.578126 0.07724,-0.17817 0.161159,-0.414292 0.1875,-0.52539 0.06758,-0.284957 0.09959,-0.873431 0.06445,-2.2207028 V 5.1484377 C 13.970226,5.0556432 13.780522,4.9874571 13.677734,5.0000002 Z"/>
</svg>
