<svg xmlns="http://www.w3.org/2000/svg" width="24" height="24" version="1.1">
 <defs>
  <style id="current-color-scheme" type="text/css">
   .ColorScheme-Text { color:#b15155; } .ColorScheme-Highlight { color:#4285f4; } .ColorScheme-NeutralText { color:#ff9800; } .ColorScheme-PositiveText { color:#4caf50; } .ColorScheme-NegativeText { color:#f44336; }
  </style>
 </defs>
 <path style="fill:none;stroke:currentColor;stroke-width:1.9997071;stroke-linecap:round;stroke-linejoin:round" class="ColorScheme-Text" d="M 11.999815,9.3572149 5.9998145,10.864055 m 6.0000005,2.53984 -0.9,-4.4038401 -6.1000005,-3 1,4.8640001 v 0 m 12.0000005,1.033 -7,-2.8970001 2.400655,-4 6.599345,2.5 z m -5.999999,7.09935 5.999999,-1.599113 v -5.500237 l -6,1.50684 m 0,5.59251 v -5.59251 l -6.0000005,-2.53984 v 5.400781 z"/>
</svg>
