<svg xmlns="http://www.w3.org/2000/svg" width="24" height="24" version="1.1">
 <defs>
  <style id="current-color-scheme" type="text/css">
   .ColorScheme-Text { color:#b15155; } .ColorScheme-Highlight { color:#4285f4; } .ColorScheme-NeutralText { color:#ff9800; } .ColorScheme-PositiveText { color:#4caf50; } .ColorScheme-NegativeText { color:#f44336; }
  </style>
 </defs>
 <path style="opacity:.35;fill:currentColor" class="ColorScheme-Text" d="m 4,8 c 2.0806,-1.9268 4.9494,-3 8,-3 3.051,0 5.919,1.0731 8,3 l -8,11 z"/>
 <path style="fill:currentColor" class="ColorScheme-Text" d="M 12,10 A 7.5,7.5 0 0 0 6.9101562,12.001953 L 12,19 17.087891,12.003906 A 7.5,7.5 0 0 0 12,10 Z"/>
</svg>
