<svg xmlns="http://www.w3.org/2000/svg" width="24" height="24" version="1.1">
 <defs>
  <style id="current-color-scheme" type="text/css">
   .ColorScheme-Text { color:#b15155; } .ColorScheme-Highlight { color:#4285f4; } .ColorScheme-NeutralText { color:#ff9800; } .ColorScheme-PositiveText { color:#4caf50; } .ColorScheme-NegativeText { color:#f44336; }
  </style>
 </defs>
 <g transform="translate(-104 -596.36)">
  <path opacity=".35" style="fill:currentColor" class="ColorScheme-Text" d="m109 615.37 14-14v14z"/>
  <path style="fill:currentColor" class="ColorScheme-Text" d="m113 611.37-4 4h4v-4z"/>
 </g>
</svg>
