<svg xmlns="http://www.w3.org/2000/svg" width="24" height="24" version="1.1">
 <defs>
  <style id="current-color-scheme" type="text/css">
   .ColorScheme-Text { color:#b15155; } .ColorScheme-Highlight { color:#4285f4; } .ColorScheme-NeutralText { color:#ff9800; } .ColorScheme-PositiveText { color:#4caf50; } .ColorScheme-NegativeText { color:#f44336; }
  </style>
 </defs>
 <g transform="translate(-296 -524.36)">
  <path style="fill:currentColor" class="ColorScheme-Text" d="m302 529.36s-1.9999 0-2 2.0625v9.9375c-0.00008 2 2 2 2 2h12c2 0 2-2 2-2v-10s0-2-2-2zm0.0002 2h2v4h1v-4h2v10h-2v-4h-1c-2 0-2-2-2-2zm8 0h2c2 0 2 2 2 2v1h-2v-1h-2v6h2v-2h-1v-1.9688l2-0.0312 1 0.0312v3.9375c0 0.00005 0 2.0312-2 2.0312h-2s-2 0-2-2v-6c0-2 2-2 2-2z"/>
 </g>
</svg>
