<svg xmlns="http://www.w3.org/2000/svg" width="24" height="24" version="1.1">
 <defs>
  <style id="current-color-scheme" type="text/css">
   .ColorScheme-Text { color:#b15155; } .ColorScheme-Highlight { color:#4285f4; } .ColorScheme-NeutralText { color:#ff9800; } .ColorScheme-PositiveText { color:#4caf50; } .ColorScheme-NegativeText { color:#f44336; }
  </style>
 </defs>
 <path style="fill:currentColor" class="ColorScheme-Text" d="m 14.320312,4.9996504 c -0.09429,-0.00112 -0.188675,0.00111 -0.285156,0.00586 C 13.166297,5.0487254 12.43156,5.3992241 11.708984,5.900041 11.401663,6.1130068 10.93871,6.6473593 10.734375,6.915666 10.631711,7.050724 10.632389,7.051123 10.474609,7.009416 10.385539,6.986267 10.056566,6.969489 9.71875,6.970353 9.1892611,6.971543 9.0804699,6.982653 8.7792969,7.066056 7.0780889,7.5366276 5.8982875,8.9187541 5.8046875,10.700822 l -0.021484,0.40625 -0.1367187,0.04102 C 5.16237,11.298406 4.5600286,11.590233 4.1347656,12.0309 3.6275626,12.556441 3.2847199,13.180758 3.0917969,13.927384 3.0101469,14.243225 3,14.345981 3,14.917619 c 0,0.571652 0.010187,0.6763 0.091797,0.992187 0.41968,1.62416 1.690229,2.817034 3.25,3.052735 0.114532,0.01736 2.5207743,0.03216 5.347656,0.03516 5.50744,0.0046 5.426675,0.007 6.072266,-0.177735 0.609734,-0.174378 1.4444,-0.686878 1.921875,-1.18164 0.499741,-0.517795 0.982485,-1.375024 1.15625,-2.054688 0.425983,-1.666324 -0.006,-3.336762 -1.171875,-4.535156 -0.205999,-0.211756 -0.5031,-0.472931 -0.660157,-0.580082 l -0.285156,-0.193359 0.01758,-0.4121096 C 18.773863,9.0733274 18.628182,8.3488109 18.292969,7.6383223 17.826779,6.6502231 17.150843,5.9494853 16.197266,5.4664473 15.59078,5.1593485 14.980381,5.0074576 14.320312,4.9996504 Z m -0.1875,2.0039062 c 0.456785,-0.022487 0.746366,0.03852 1.160157,0.2480469 0.598225,0.3030333 0.8879,0.5969482 1.191406,1.2402344 0.206707,0.4381173 0.278777,0.7948105 0.257813,1.2871095 l -0.01758,0.4101556 c -0.02905,0.690388 0.300302,1.346873 0.871094,1.736328 l 0.261719,0.179688 c -0.01008,0.002 0.281858,0.240142 0.376953,0.33789 0.690256,0.709536 0.934322,1.602632 0.667969,2.644532 -0.05384,0.210593 -0.478117,0.975517 -0.658203,1.162109 -0.14928,0.154685 -0.955701,0.626829 -1.03125,0.648438 -0.341761,0.09777 -0.04731,0.06421 -0.722657,0.08398 -0.675345,0.01978 -2.044822,0.01789 -4.798828,0.01563 -1.410374,-0.0015 -2.7159214,-0.0053 -3.6796872,-0.01172 -0.481883,-0.0032 -0.8790004,-0.0079 -1.15625,-0.01172 -0.1069685,-0.0015 -0.1774075,-0.0025 -0.2441407,-0.0039 -0.7180798,-0.12213 -1.3530978,-0.66897 -1.5839843,-1.5625 C 4.9627815,15.157935 5,15.467019 5,14.917619 5,14.36814 4.9628075,14.677025 5.0273438,14.427384 5.1441121,13.975482 5.3007499,13.702857 5.5722656,13.421525 v -0.002 c 0.1802908,-0.186821 0.6753853,-0.463241 0.6679688,-0.460938 l 0.1308594,-0.04101 C 7.1729896,12.670456 7.735333,12.048571 7.7792969,11.210588 l 0.021484,-0.40625 C 7.8512248,9.8439354 8.4218815,9.2401454 9.3125,8.993791 V 8.991841 C 9.5390247,8.92911 9.220579,8.971487 9.7226562,8.970357 c 0.1200099,-3.07e-4 0.2385407,0.00371 0.3281248,0.00781 0.162165,0.066528 0.539454,0.1882124 1.25,-0.066406 0.868611,-0.3112596 0.973813,-0.813089 1.025391,-0.8828125 -0.04573,0.060042 0.490498,-0.562512 0.521484,-0.5839844 h 0.002 C 13.307552,7.1275632 13.593134,7.0306233 14.132812,7.0035566 Z M 13,9.9996504 V 10.99965 H 10.980469 9 v 0.416016 0.583984 H 10.980469 13 v 1 l 2.5,-1.5 z m -2,2.9999996 -2.5,1.5 2.5,1.5 v -1 H 13.019531 15 V 14.415666 13.99965 H 13.019531 11 Z"/>
</svg>
