<svg xmlns="http://www.w3.org/2000/svg" width="24" height="24" version="1.1">
 <defs>
  <style id="current-color-scheme" type="text/css">
   .ColorScheme-Text { color:#b15155; } .ColorScheme-Highlight { color:#4285f4; } .ColorScheme-NeutralText { color:#ff9800; } .ColorScheme-PositiveText { color:#4caf50; } .ColorScheme-NegativeText { color:#f44336; }
  </style>
 </defs>
 <path style="fill:currentColor" class="ColorScheme-Text" d="M 12.228516 4 C 11.589516 4.0783 9.770275 4.8525719 9.484375 7.2636719 C 8.837505 6.6547719 8.984375 5.1621094 8.984375 5.1621094 C 8.251575 5.8735094 5.7842262 12.005694 5.0664062 14.746094 C 4.2562063 17.852794 11.163925 19.539521 12.703125 19.869141 C 14.694125 20.295421 15.653881 19.539455 16.025391 19.578125 C 17.137191 19.714425 18.251551 19.177281 18.644531 17.613281 C 19.192461 17.375481 18.992552 16.63344 18.789062 16.21875 C 18.525863 15.68325 18.279183 15.595678 17.283203 14.455078 C 17.286013 13.921458 17.284743 13.498846 17.064453 13.291016 C 16.843253 13.083186 16.401542 13.090196 15.982422 13.410156 C 15.834002 13.405326 15.651756 13.111187 15.660156 12.716797 C 15.674156 12.039177 16.094628 12.330076 16.367188 11.759766 C 16.639728 11.189436 16.255888 10.344281 15.580078 10.300781 C 15.035178 10.264994 14.791919 8.8210624 12.929688 8.7929688 L 12.927734 8.7929688 C 12.921105 8.7796436 11.632327 6.1747868 16.367188 5.3359375 C 15.266187 4.7569375 12.88875 4.5775906 11.46875 6.3378906 C 11.28575 5.5983906 11.602516 4.7443 12.228516 4 z M 18 6 A 2 2 0 0 0 16 8 A 2 2 0 0 0 18 10 A 2 2 0 0 0 20 8 A 2 2 0 0 0 18 6 z"/>
</svg>
