<svg xmlns="http://www.w3.org/2000/svg" width="24" height="24" version="1.1">
 <defs>
  <style id="current-color-scheme" type="text/css">
   .ColorScheme-Text { color:#b15155; } .ColorScheme-Highlight { color:#4285f4; } .ColorScheme-NeutralText { color:#ff9800; } .ColorScheme-PositiveText { color:#4caf50; } .ColorScheme-NegativeText { color:#f44336; }
  </style>
 </defs>
 <circle style="fill:currentColor" class="ColorScheme-Highlight" cx="20" cy="19" r="2"/>
 <path style="fill:currentColor" class="ColorScheme-Text" d="m 10.443936,4.0031044 c -0.109495,0.0091 -0.222934,0.038263 -0.331055,0.089844 -1.1607082,0.491539 -1.0886682,1.2636123 -1.0205102,2.320884 0.06455,0.248707 0.01122,0.6083985 0.04821,0.6083985 0,0 0.833282,-0.075253 1.0719052,-0.078696 0.24326,-0.087199 0.246894,-0.091848 0.209961,-0.2714845 -0.01765,-0.085855 -0.0327,-0.3040995 -0.03321,-0.4853515 -0.0011,-0.4117655 0.092,-0.7100935 0.353516,-1.1289065 0.254492,-0.4075627 0.322265,-0.5503715 0.322265,-0.6787108 0,-0.2523905 -0.292606,-0.4032811 -0.621093,-0.3759765 z m 4.035254,0.1289062 c -0.05521,0.00256 -0.09315,0.01775 -0.104492,0.046875 -0.01117,0.028684 0.02097,0.2656498 0.07129,0.5263672 0.184773,0.9574289 0.07108,1.5733634 -0.426758,2.3046874 -0.102158,0.150072 -0.144732,0.239372 -0.123046,0.2607425 0.05367,0.052887 1.014683,0.5386716 1.074218,0.5429686 0.03004,0.00215 0.105663,-0.052148 0.167969,-0.120117 0.267462,-0.2917736 0.563683,-0.7622216 0.70996,-1.1279301 C 16.229585,5.6124277 16.017239,4.8423471 15.248722,4.3907997 14.97168,4.2280221 14.644814,4.1243465 14.47919,4.1320106 Z M 5.8014558,6.061293 c -0.918695,0.00985 -1.574138,0.3679266 -1.75293,0.9785156 -0.06297,0.2150536 -0.06506,0.6957626 -0.0039,0.9287111 0.140175,0.533932 0.526186,0.9084435 1.078125,1.0439453 0.26327,0.06463 0.905592,0.06563 1.265625,0.0019 0.404698,-0.071573 1.045837,-0.2904215 1.441406,-0.4902344 0.182253,-0.092061 0.350321,-0.179568 0.374024,-0.196289 0.03735,-0.02635 0.240877,-0.5256705 0.241211,-0.591797 6.7e-5,-0.01322 -0.07373,0.012585 -0.164063,0.058594 -0.206259,0.105066 -1.118497,0.37294 -1.521484,0.446289 -0.425906,0.077521 -0.963792,0.076362 -1.166016,-0.00195 -0.205076,-0.079429 -0.299306,-0.2125579 -0.298828,-0.421875 5.5e-4,-0.2312844 0.09105,-0.4259199 0.27832,-0.59668 0.242929,-0.2215086 0.392851,-0.2659035 0.982422,-0.283203 0.532551,-0.015625 0.918059,0.027315 1.488282,0.1630859 0.331962,0.07904 0.505961,0.1773101 0.535156,0.3027346 l 0.01953,0.083007 0.05371,-0.077148 C 8.7023958,7.3360321 9.0006718,7.3176311 8.9228118,7.12184 8.8770218,7.006706 8.5073608,6.8763629 8.4684488,6.8337539 8.3822988,6.7394199 7.7409618,6.4198304 7.4420818,6.3220349 7.0916488,6.207371 6.6428218,6.1188689 6.2106358,6.078871 6.0693078,6.065791 5.9326988,6.059881 5.8014568,6.061291 Z M 17.334659,7.5050577 c -0.321386,0.012665 -0.64926,0.051178 -0.914062,0.1132811 -0.420722,0.098669 -0.823964,0.2438884 -1.017578,0.366211 l -0.114258,0.072266 0.18164,0.167969 c 0.09984,0.092223 0.206452,0.176455 0.237305,0.1875 0.03146,0.011265 0.181784,-0.041075 0.341797,-0.1201175 0.440779,-0.2177415 0.847526,-0.3141125 1.428711,-0.3359375 0.43491,-0.016335 0.515915,-0.010305 0.723633,0.054687 0.356594,0.111576 0.547387,0.3560395 0.496093,0.6376955 -0.0512,0.281148 -0.258793,0.4478287 -0.632812,0.5078127 -0.22639,0.03631 -0.863525,-0.01689 -1.444336,-0.121094 -0.146963,-0.02637 -0.278754,-0.041215 -0.292969,-0.03222 -0.01422,0.009 0.009,0.07939 0.05078,0.15625 0.34981,0.643144 1.752685,1.023662 2.780274,0.75293 0.782778,-0.206234 1.025171,-0.663671 0.702148,-1.3261722 -0.26644,-0.546454 -0.81257,-0.8895765 -1.651367,-1.038086 -0.238713,-0.042265 -0.553614,-0.05563 -0.875,-0.04297 z M 6.4225498,7.3767227 c -0.655589,0.01868 -0.886806,0.107179 -0.785156,0.2998049 0.117704,0.2230495 0.615793,0.2449276 1.506835,0.06543 0.550471,-0.1108916 0.691564,-0.155426 0.644532,-0.2031255 -0.01743,-0.017675 -0.219051,-0.064037 -0.448242,-0.1035155 -0.336714,-0.057999 -0.512552,-0.070144 -0.917969,-0.058594 z M 17.584659,8.3995888 c -0.492506,-0.01611 -1.085881,0.070088 -1.011719,0.1464845 0.0089,0.0092 0.18076,0.04018 0.382813,0.069336 0.202052,0.029155 0.405191,0.058938 0.451172,0.066406 0.04598,0.00747 0.269441,0.015975 0.496094,0.018555 0.370499,0.00425 0.411163,-0.0023 0.401367,-0.054687 -0.006,-0.032055 -0.08631,-0.097043 -0.177735,-0.145508 -0.143098,-0.075861 -0.21812,-0.089996 -0.541992,-0.1005865 z m -1.618164,0.4726564 c -0.06304,0 -0.08661,0.02152 -0.101562,0.09082 C 15.815763,9.190966 15.730726,9.359598 15.603214,9.482597 15.288008,9.786644 14.811318,9.767966 14.148136,9.424977 L 13.824894,9.257987 13.61005,9.487479 c -0.452216,0.484448 -1.071047,0.647502 -1.545899,0.407226 -0.15985,-0.08088 -0.287071,-0.281991 -0.333984,-0.527343 -0.0184,-0.09626 -0.0332,-0.179935 -0.0332,-0.186524 0,-0.0419 -0.09568,0.0029 -0.18164,0.08496 C 11.2293,9.539044 10.727468,9.740763 10.334663,9.740408 9.9477748,9.740058 9.7528898,9.616101 9.6149358,9.283376 c -0.03365,-0.08115 -0.07217,-0.147393 -0.08496,-0.147461 -0.01279,-6.6e-5 -0.09138,0.04572 -0.174804,0.101563 -0.411588,0.275509 -0.97784,0.307292 -1.19336,0.06738 -0.126486,-0.140801 -0.186416,-0.07627 -0.1875,0.204101 -0.0011,0.285189 -0.05825,0.596454 -0.264648,1.439454 -0.108723,0.444067 -0.273022,1.170191 -0.366211,1.614258 -0.09319,0.444067 -0.272995,1.238042 -0.398438,1.763671 -0.377961,1.583725 -0.448959,2.028861 -0.445312,2.78418 0.0042,0.875263 0.145989,1.261944 0.640625,1.748047 0.249337,0.245036 0.336665,0.30621 0.668945,0.46875 0.43326,0.211937 0.789075,0.32234 1.412109,0.435547 1.2596442,0.22888 3.8810442,0.315919 4.6279302,0.154296 0.413054,-0.08938 0.702306,-0.185673 1.016602,-0.339843 0.811062,-0.397847 1.262591,-0.919297 1.499023,-1.728516 0.0879,-0.300844 0.152104,-0.871506 0.129883,-1.15039 -0.0072,-0.09063 -0.02919,-0.372224 -0.04883,-0.625977 -0.01964,-0.253752 -0.08685,-0.972336 -0.149414,-1.597655 -0.17741,-1.773064 -0.252034,-2.809374 -0.314453,-4.367188 -0.01598,-0.398755 -0.03839,-0.781928 -0.05078,-0.851563 -0.01792,-0.100627 -0.0081,-0.145594 0.04785,-0.220704 0.09184,-0.1232065 0.08821,-0.163085 -0.0127,-0.163085 z m -2.806641,1.8300788 c 0.358424,-0.002 0.620421,0.195739 0.780274,0.58789 0.05385,0.132117 0.07004,0.244772 0.07129,0.515625 0.0015,0.326797 -0.005,0.35942 -0.108398,0.566407 -0.126494,0.253215 -0.369521,0.489032 -0.625977,0.607421 -0.187756,0.08667 -0.320203,0.09504 -0.46875,0.03125 -0.148157,-0.06362 -0.306132,-0.258363 -0.370117,-0.456054 -0.0849,-0.262319 -0.101478,-0.821369 -0.03125,-1.082032 0.03141,-0.116578 0.07223,-0.271248 0.08984,-0.34375 0.06345,-0.26119 0.317978,-0.424807 0.663085,-0.426757 z m -2.351562,0.07519 c 0.185579,0.03431 0.512713,0.371206 0.610352,0.62793 0.163445,0.42975 0.0361,0.959725 -0.32129,1.33789 -0.236894,0.250663 -0.424299,0.312663 -0.628906,0.208008 -0.165055,-0.08442 -0.272464,-0.206699 -0.370117,-0.420898 -0.1454682,-0.319081 -0.1306702,-0.762046 0.04395,-1.31836 0.09784,-0.311707 0.369178,-0.489448 0.666016,-0.43457 z m 2.205078,0.337891 c -0.08253,-0.0044 -0.157307,0.0084 -0.201172,0.04004 -0.112135,0.0808 -0.203203,0.687027 -0.12207,0.813476 0.02639,0.04112 0.04626,0.03529 0.125,-0.03711 0.134394,-0.123583 0.232102,-0.165618 0.389648,-0.167968 0.182775,-0.0027 0.328335,0.07519 0.40625,0.217773 0.06725,0.123063 0.117188,0.128286 0.117188,0.0127 0,-0.283354 -0.239048,-0.699951 -0.466797,-0.814453 -0.07551,-0.03796 -0.165521,-0.06005 -0.248047,-0.06445 z m -2.498047,0.07519 c -0.112147,0 -0.157228,0.108652 -0.186523,0.450195 -0.02876,0.335308 -0.01699,0.351545 0.176758,0.254883 0.08717,-0.04349 0.205328,-0.0791 0.262695,-0.0791 0.05737,0 0.162769,0.02945 0.234375,0.06543 0.0716,0.03598 0.136471,0.0597 0.144531,0.05176 0.03604,-0.03552 -0.03709,-0.252627 -0.133789,-0.396484 -0.119331,-0.177543 -0.36193,-0.34668 -0.498047,-0.34668 z m -0.9050272,5.602441 c 0.03641,-0.006 0.06485,0.0015 0.108398,0.01953 0.05315,0.02202 0.132483,0.09422 0.176758,0.160156 0.1761852,0.262369 0.1248272,0.647795 -0.121094,0.904297 -0.127091,0.132562 -0.147733,0.141367 -0.329101,0.154297 -0.190795,0.0136 -0.194851,0.01233 -0.319336,-0.110351 -0.11867,-0.116947 -0.126266,-0.135189 -0.125977,-0.30664 2.21e-4,-0.128414 0.023,-0.230959 0.07813,-0.347656 0.111491,-0.236014 0.184689,-0.31507 0.375977,-0.410156 0.07595,-0.03775 0.119835,-0.05747 0.15625,-0.06348 z m 2.8243202,-0.292861 0.243164,0.01465 c 0.522838,0.03137 0.7232,0.291949 0.564453,0.735352 -0.151328,0.422683 -0.617547,0.795103 -0.933594,0.746094 -0.215999,-0.0335 -0.360556,-0.395781 -0.313476,-0.783204 0.02896,-0.238375 0.07251,-0.323496 0.27832,-0.541992 z m -3.0010782,0.675684 c -0.02189,0.0069 -0.06766,0.06278 -0.101563,0.124023 -0.05199,0.09392 -0.05551,0.124005 -0.02343,0.19336 0.02091,0.04523 0.08428,0.101841 0.140625,0.125976 0.127472,0.0546 0.15842,0.05573 0.206055,0.0088 0.07775,-0.07662 0.04512,-0.241723 -0.07129,-0.356445 -0.06047,-0.0596 -0.1285,-0.102623 -0.15039,-0.0957 z m 2.9151402,-0.192285 -0.01172,0.124023 c -0.0065,0.0678 0.0059,0.183168 0.02832,0.256836 0.06737,0.221721 0.259849,0.235111 0.47461,0.0332 0.218874,-0.205772 0.07324,-0.412036 -0.291992,-0.413086 z"/>
</svg>
