<svg xmlns="http://www.w3.org/2000/svg" width="24" height="24" version="1.1">
 <defs>
  <style id="current-color-scheme" type="text/css">
   .ColorScheme-Text { color:#b15155; } .ColorScheme-Highlight { color:#4285f4; } .ColorScheme-NeutralText { color:#ff9800; } .ColorScheme-PositiveText { color:#4caf50; } .ColorScheme-NegativeText { color:#f44336; }
  </style>
 </defs>
 <path style="fill:currentColor" class="ColorScheme-Text" d="M 12.09159,4.0008555 C 9.7698589,3.9761272 7.4797704,4.9620166 5.9001833,6.821168 c -2.40699,2.8329925 -2.5407542,6.96488 -0.3242187,9.949219 2.2165355,2.98434 6.2131114,4.04971 9.6210944,2.564453 3.407983,-1.485257 5.345451,-5.13593 4.667968,-8.791015 -0.18538,-1.3901335 -2.288867,-1.0012175 -1.964843,0.363281 0.509861,2.750751 -0.939121,5.475972 -3.503907,6.59375 C 11.831493,18.618633 8.8495575,17.824941 7.1814333,15.578981 5.5133088,13.333021 5.6141171,10.248149 7.4255739,8.1160899 9.237031,5.9840312 12.265564,5.3857076 14.751746,6.6688243 15.946595,7.3121261 16.886011,5.4932549 15.669715,4.8914805 14.843831,4.4652422 13.970238,4.1954273 13.087684,4.0750743 12.756725,4.0299418 12.423266,4.0043881 12.09159,4.0008555 Z m -1.34375,5 A 0.73085587,0.79027464 0 0 0 9.9997927,9.7938245 V 14.20984 a 0.73085587,0.79027464 0 0 0 1.0957033,0.685547 l 3.539063,-2.208984 a 0.73085587,0.79027464 0 0 0 0,-1.369141 L 11.095496,9.1063245 A 0.73085587,0.79027464 0 0 0 10.74784,9.0008555 Z"/>
</svg>
