<svg xmlns="http://www.w3.org/2000/svg" width="24" height="24" version="1.1">
 <defs>
  <style id="current-color-scheme" type="text/css">
   .ColorScheme-Text { color:#b15155; } .ColorScheme-Highlight { color:#4285f4; } .ColorScheme-NeutralText { color:#ff9800; } .ColorScheme-PositiveText { color:#4caf50; } .ColorScheme-NegativeText { color:#f44336; }
  </style>
 </defs>
 <path style="fill:currentColor" class="ColorScheme-Text" d="M 6.0234375,4 C 5.4566955,4 5,4.4566955 5,5.0234375 V 17.976562 C 5,18.543306 5.4566955,19 6.0234375,19 H 12.761719 C 12.266087,18.26037 12.000999,17.390338 12,16.5 12.0011,16.332882 12.01156,16.165957 12.03125,16 H 11 V 10 H 8 V 7 h 9 v 3 h -3 v 2.761719 C 14.73963,12.266087 15.609662,12.000999 16.5,12 c 1.359623,5.5e-4 2.646105,0.615793 3.5,1.673828 V 5.0234375 C 20,4.4566955 19.543309,4 18.976562,4 Z M 16.5,13 C 14.567003,13 13,14.567003 13,16.5 13,18.432997 14.567003,20 16.5,20 18.432997,20 20,18.432997 20,16.5 20,14.567003 18.432997,13 16.5,13 Z m 1.794922,2 H 19 v 0.708984 l -3,2.998047 -2,-2 V 16 h 0.707031 L 16,17.292969 Z"/>
</svg>
