<svg xmlns="http://www.w3.org/2000/svg" width="24" height="24" version="1.1">
 <defs>
  <style id="current-color-scheme" type="text/css">
   .ColorScheme-Text { color:#b15155; } .ColorScheme-Highlight { color:#4285f4; } .ColorScheme-NeutralText { color:#ff9800; } .ColorScheme-PositiveText { color:#4caf50; } .ColorScheme-NegativeText { color:#f44336; }
  </style>
 </defs>
 <path style="fill:currentColor" class="ColorScheme-Text" d="m10.027 6.0016c-0.39175 0.011183-0.78982 0.083986-1.1855 0.21875-1.6926 0.57493-2.9693 2.2417-3.3477 4.3125-1.111 0.26797-2.0486 1.2484-2.377 2.6562-0.46544 1.9998 0.50365 4.0611 2.1582 4.623 0.027025 0.008 0.034474 0.02425 0.0625 0.03125 0.22821 0.09898 0.49276 0.15625 0.75 0.15625h11.98c0.4294 0 0.82289-0.14728 1.1582-0.40625 1.3413-0.77391 2.0726-2.6175 1.6562-4.4043-0.30729-1.3208-1.1675-2.29-2.1895-2.625-0.009-0.044 0.01001-0.08101 0-0.125-0.46544-1.9998-2.1931-3.1557-3.8477-2.5937-0.3173 0.10799-0.60875 0.25477-0.875 0.46875-0.91147-1.4802-2.3947-2.3527-3.9414-2.3125h-0.0019zm1.9727 3.998 3 3h-2v3h-2v-3h-2l3-3z"/>
</svg>
