<svg xmlns="http://www.w3.org/2000/svg" width="24" height="24" version="1.1">
 <defs>
  <style id="current-color-scheme" type="text/css">
   .ColorScheme-Text { color:#b15155; } .ColorScheme-Highlight { color:#4285f4; } .ColorScheme-NeutralText { color:#ff9800; } .ColorScheme-PositiveText { color:#4caf50; } .ColorScheme-NegativeText { color:#f44336; }
  </style>
 </defs>
 <path style="fill:currentColor" class="ColorScheme-Text" d="m 12,4 a 8,8 0 0 0 -8,8 8,8 0 0 0 8,8 8,8 0 0 0 8,-8 8,8 0 0 0 -8,-8 z m 0,3 a 5,5 0 0 1 5,5 5,5 0 0 1 -5,5 5,5 0 0 1 -5,-5 5,5 0 0 1 5,-5 z M 11.93945,8 A 4,3.999999 0 0 0 8,12 4,3.999999 0 0 0 12,16 4,3.999999 0 0 0 16,12 4,3.999999 0 0 0 12,8 4,3.999999 0 0 0 11.9922,8 4,3.999999 0 0 0 11.93946,8 Z M 11,10 l 1.5,1 1.5,1 -1.5,1 -1.5,1 v -2 z"/>
</svg>
