<svg xmlns="http://www.w3.org/2000/svg" width="16" height="16" version="1.1">
 <defs>
  <style id="current-color-scheme" type="text/css">
   .ColorScheme-Text { color:#c9ebf4; } .ColorScheme-Highlight { color:#4285f4; } .ColorScheme-NeutralText { color:#ff9800; } .ColorScheme-PositiveText { color:#4caf50; } .ColorScheme-NegativeText { color:#f44336; }
  </style>
 </defs>
 <path style="fill:currentColor" class="ColorScheme-Text" d="M 3 1 C 1.892 1 1 1.892 1 3 L 1 13 C 1 14.108 1.892 15 3 15 L 13 15 C 14.108 15 15 14.108 15 13 L 15 3 C 15 1.892 14.108 1 13 1 L 3 1 z M 2.4863281 4 L 7 4 L 7 5 L 3.3164062 5 L 3.1289062 7.171875 C 3.2542752 7.149775 3.4228544 7.12322 3.6367188 7.09375 C 3.8505831 7.06428 4.087591 7.0488281 4.3457031 7.0488281 C 5.1495379 7.0488281 5.7901805 7.2530461 6.2695312 7.6582031 C 6.7562572 8.0633631 7 8.6344457 7 9.3710938 C 7 10.188773 6.7384417 10.833232 6.2148438 11.304688 C 5.6986193 11.768774 4.9760785 12 4.046875 12 C 3.6338956 12 3.2504667 11.962337 2.8964844 11.888672 C 2.5425021 11.815007 2.2433628 11.708322 2 11.568359 L 2 10.652344 C 2.2654867 10.814407 2.5867844 10.943301 2.9628906 11.039062 C 3.3463714 11.127463 3.7100329 11.171875 4.0566406 11.171875 C 4.6392365 11.171875 5.1089083 11.034279 5.4628906 10.761719 C 5.8242475 10.481793 6.0039062 10.050703 6.0039062 9.46875 C 6.0039062 8.953097 5.8464061 8.5596694 5.5292969 8.2871094 C 5.2121878 8.0071824 4.7092782 7.8671855 4.0234375 7.8671875 C 3.8169478 7.8671865 3.5818929 7.885045 3.3164062 7.921875 C 3.0509196 7.958705 2.83607 7.9963751 2.6738281 8.0332031 L 2.1875 7.7246094 L 2.4863281 4 z M 11.744141 4 C 12.148863 4 12.529215 4.039214 12.886719 4.1191406 C 13.250969 4.1990676 13.588151 4.3117089 13.898438 4.4570312 L 13.554688 5.3085938 C 13.298363 5.1923357 13.009324 5.0891471 12.685547 5.0019531 C 12.368515 4.9074931 12.037372 4.8613281 11.693359 4.8613281 C 10.829952 4.8613281 10.155588 5.1441795 9.6699219 5.7109375 C 9.1910009 6.2704285 8.9511719 7.033606 8.9511719 8 C 8.9511719 8.617621 9.0424824 9.1669204 9.2246094 9.6464844 C 9.4134794 10.118782 9.7074917 10.488967 10.105469 10.757812 C 10.503446 11.019395 11.02432 11.150391 11.671875 11.150391 C 11.988907 11.150391 12.259825 11.132033 12.482422 11.095703 C 12.705019 11.059373 12.817875 11.015703 13 10.964844 L 13 9 L 11 9 L 11 8 L 14 8 L 14 11.597656 C 13.608769 11.735713 13.214382 11.836949 12.816406 11.902344 C 12.418429 11.967739 11.966839 12 11.460938 12 C 10.712201 12 10.081006 11.83924 9.5683594 11.519531 C 9.0557114 11.192556 8.6643452 10.732541 8.3945312 10.136719 C 8.1314623 9.5336308 8 8.821072 8 8 C 8 7.193461 8.1454959 6.4923064 8.4355469 5.8964844 C 8.7323429 5.2933964 9.1608381 4.8289286 9.7207031 4.5019531 C 10.280568 4.1677115 10.954934 4 11.744141 4 z"/>
</svg>
