<svg xmlns="http://www.w3.org/2000/svg" width="16" height="16" version="1.1">
 <defs>
  <style id="current-color-scheme" type="text/css">
   .ColorScheme-Text { color:#c9ebf4; } .ColorScheme-Highlight { color:#4285f4; } .ColorScheme-NeutralText { color:#ff9800; } .ColorScheme-PositiveText { color:#4caf50; } .ColorScheme-NegativeText { color:#f44336; }
  </style>
 </defs>
 <path style="fill:currentColor" class="ColorScheme-Text" d="M 6 2 A 0.99987974 1 0 0 0 5 3 A 0.99987974 1 0 0 0 6 4 C 8.2804041 4 9.5798815 4.5655084 10.576172 5.4609375 C 11.092233 5.007196 11.66665 4.6420606 12.269531 4.3203125 C 12.174601 4.2235025 12.083425 4.1240987 11.982422 4.03125 C 10.615632 2.7748059 8.6805571 2 6 2 z M 0.97070312 3 A 0.99987974 1 0 0 0 0.9140625 3.0039062 A 0.99987974 1 0 0 0 0.005859375 4.0859375 C 0.20044077 6.3434036 0.81006634 8.0965689 1.8144531 9.4023438 C 2.81884 10.708118 4.1968405 11.517688 5.7207031 11.960938 A 0.99987974 1 0 0 0 6.9609375 11.279297 A 0.99987974 1 0 0 0 7 11.03125 A 0.99987974 1 0 0 0 7 11 A 0.99987974 1 0 0 0 6.2792969 10.039062 C 5.0571764 9.6835839 4.1176658 9.1161025 3.4003906 8.1835938 C 2.6831156 7.2510846 2.1676784 5.90473 1.9960938 3.9140625 A 0.99987974 1 0 0 0 0.97070312 3 z M 15.019531 4 A 0.99987974 1 0 0 0 14.634766 4.0683594 C 13.236393 4.6173955 11.974293 5.1967253 10.978516 6.1054688 A 5 5 0 0 1 12 6 A 5 5 0 0 1 14.115234 6.4707031 C 14.497842 6.2901949 14.907987 6.1111672 15.365234 5.9316406 A 0.99987974 1 0 0 0 15.931641 4.6347656 A 0.99987974 1 0 0 0 15.019531 4 z M 5.8085938 4.7304688 C 5.4143008 6.4437445 4.9940411 7.5533034 4.4707031 8.2480469 C 4.9464214 8.6905825 5.5262756 8.9974793 6.25 9.234375 C 6.9825634 8.1643287 7.4199234 6.7536768 7.8203125 4.9101562 C 7.3114604 4.8087501 6.7226096 4.75 6 4.75 C 5.934463 4.75 5.8723815 4.7376919 5.8085938 4.7304688 z M 11.765625 7.0058594 C 11.500313 7.0217894 11.231581 7.0652487 10.964844 7.1367188 C 8.8309439 7.7085184 7.5650188 9.9012567 8.1367188 12.035156 C 8.7084588 14.168956 10.901256 15.435081 13.035156 14.863281 C 15.169056 14.291481 16.434981 12.098743 15.863281 9.9648438 C 15.363009 8.0977688 13.622811 6.8943684 11.765625 7.0058594 z M 13.476562 8.9941406 A 0.50005 0.50005 0 0 1 13.947266 9.7226562 L 12.447266 12.722656 A 0.50005 0.50005 0 0 1 11.722656 12.916016 L 10.222656 11.916016 A 0.50005 0.50005 0 1 1 10.777344 11.083984 L 11.806641 11.769531 L 13.052734 9.2773438 A 0.50005 0.50005 0 0 1 13.476562 8.9941406 z M 1.265625 9.9121094 C 1.1083789 9.9467594 0.98073575 9.9839901 0.80859375 10.017578 A 0.99987974 1 0 0 0 0.01953125 11.191406 A 0.99987974 1 0 0 0 1.1914062 11.982422 C 1.8499841 11.853916 2.4496542 11.703701 3.0039062 11.521484 C 2.3597322 11.08755 1.7709177 10.55647 1.265625 9.9121094 z"/>
</svg>
