<svg xmlns="http://www.w3.org/2000/svg" width="16" height="16" version="1.1">
 <defs>
  <style id="current-color-scheme" type="text/css">
   .ColorScheme-Text { color:#c9ebf4; } .ColorScheme-Highlight { color:#4285f4; } .ColorScheme-NeutralText { color:#ff9800; } .ColorScheme-PositiveText { color:#4caf50; } .ColorScheme-NegativeText { color:#f44336; }
  </style>
 </defs>
 <path style="fill:currentColor" class="ColorScheme-Text" d="M 8 1 C 4.122 1 1 4.122 1 8 C 1 11.878 4.122 15 8 15 C 11.878 15 15 11.878 15 8 C 15 4.122 11.878 1 8 1 z M 8 2 C 9.6007971 2.00168 11.134206 2.6429757 12.259766 3.78125 L 11.755859 4.2734375 C 10.762753 3.271687 9.4105897 2.7081458 8 2.7070312 C 5.07614 2.7070312 2.7070312 5.0761398 2.7070312 8 C 2.7070312 10.92386 5.07614 13.292969 8 13.292969 C 9.4104496 13.291469 10.763035 12.728397 11.755859 11.726562 L 12.261719 12.220703 C 11.135594 13.358811 9.6010762 13.999057 8 14 C 4.6862917 14 2 11.313708 2 8 C 2 4.6862914 4.6862917 2 8 2 z M 8 4 C 9.0625001 4.00102 10.080415 4.4247994 10.830078 5.1777344 L 10.353516 5.6425781 C 9.7292168 5.0184901 8.8827414 4.6688026 8 4.6679688 C 6.159136 4.6679688 4.6679687 6.1591359 4.6679688 8 C 4.6679688 9.8408638 6.1591361 11.332031 8 11.332031 C 8.8827414 11.331221 9.7292168 10.98151 10.353516 10.357422 L 10.830078 10.822266 C 10.080308 11.574961 9.0624057 11.999191 8 12 C 5.7909639 12 4 10.209037 4 8 C 4 5.790964 5.7909639 4 8 4 z M 8 6 C 8.5254846 6.0002101 9.0302717 6.2090195 9.4042969 6.578125 L 8.9941406 6.9765625 C 8.7280559 6.7177208 8.3712145 6.5728658 8 6.5722656 C 7.2111472 6.5722656 6.5722656 7.2111472 6.5722656 8 C 6.5722656 8.7888528 7.2111472 9.4277344 8 9.4277344 C 8.3714445 9.4277368 8.7276009 9.2821404 8.9941406 9.0234375 L 9.4042969 9.421875 C 9.0305888 9.7912536 8.5254497 9.999343 8 10 C 6.8956061 10.000001 6 9.1043931 6 8 C 6 6.8956061 6.8956061 6 8 6 z"/>
</svg>
