<svg xmlns="http://www.w3.org/2000/svg" width="16" height="16" version="1">
 <defs>
  <style id="current-color-scheme" type="text/css">
   .ColorScheme-Text { color:#c9ebf4; } .ColorScheme-Highlight { color:#4285f4; } .ColorScheme-NeutralText { color:#ff9800; } .ColorScheme-PositiveText { color:#4caf50; } .ColorScheme-NegativeText { color:#f44336; }
  </style>
 </defs>
 <path style="fill:currentColor" class="ColorScheme-Text" d="M 8,1 C 4.134,1 1,4.134 1,8 V 9.361 C 0.35712,10.09 0.00164,10.778 0,11.75 0,13.959 1.7909,15 4,15 H 5 V 8 H 4 C 3.6624,8.002 3.3264,8.0466 3,8.133 V 8 C 3,5.23 5.23,3 8,3 10.77,3 13,5.23 13,8 V 8.131 C 12.674,8.0453 12.338,8.0013 12,8 H 11 V 15 H 12 C 14.209,15 16,13.959 16,11.75 15.998,10.778 15.643,10.09 15,9.361 V 8 C 15,4.1342 11.866,1.0002 8,1.0002 Z"/>
</svg>
