<svg xmlns="http://www.w3.org/2000/svg" width="16" height="16" version="1.1">
 <defs>
  <style id="current-color-scheme" type="text/css">
   .ColorScheme-Text { color:#c9ebf4; } .ColorScheme-Highlight { color:#4285f4; } .ColorScheme-NeutralText { color:#ff9800; } .ColorScheme-PositiveText { color:#4caf50; } .ColorScheme-NegativeText { color:#f44336; }
  </style>
 </defs>
 <path style="opacity:0.3;fill:currentColor" class="ColorScheme-Text" d="M 8 1 A 7 7 0 0 0 1 8 A 7 7 0 0 0 8 15 A 7 7 0 0 0 15 8 A 7 7 0 0 0 8 1 z M 9.5996 4 C 10.187 4 10.763 4.2812 11.215 4.7188 C 11.667 5.1562 12 5.7726 12 6.4746 C 12 7.0257 11.847 7.6464 11.512 8.1152 L 11.512 8.1172 C 11.513 8.1236 11.513 8.1305 11.518 8.1465 C 11.522 8.1617 11.535 8.157 11.541 8.2754 C 11.55 8.4522 11.409 8.6566 11.279 8.7246 C 11.217 8.7574 11.159 8.7748 11.104 8.7852 C 11.165 9.1468 11.239 9.5443 11.344 9.9531 C 11.489 10.523 11.695 11.067 11.916 11.355 C 12.119 11.619 11.93 12.002 11.598 12 L 6 12 C 5.7429 11.999 5.5513 11.76 5.6094 11.51 C 5.6782 11.212 6.2521 10.13 6.3281 9.9258 C 6.4041 9.7226 6.3778 9.6307 6.3906 9.6523 C 6.4042 9.6747 6.3615 9.5956 6.0039 9.5996 C 5.7773 9.6024 5.5941 9.4179 5.5996 9.1914 L 5.6035 8.9746 C 5.1663 8.5585 4.1878 8.0173 3.5059 7.4727 C 3.4218 7.4906 3.336 7.4997 3.25 7.5 C 2.5596 7.5 2 6.9404 2 6.25 C 2 5.5596 2.5596 5 3.25 5 C 3.8439 5.0001 4.3558 5.4181 4.4746 6 C 4.8281 5.9992 6.2368 6.0027 6.3984 6 L 6.3984 5.3984 C 6.3985 5.1775 6.5779 5 6.7988 5 L 7.3906 5 C 7.626 4.6059 7.5466 4.3263 8.1367 4.1992 C 8.5892 4.0512 9.1175 4 9.5996 4 z M 9.5996 4.8008 C 9.1807 4.8008 8.7071 4.8555 8.3848 4.9609 C 8.2236 5.0136 8.1046 5.08 8.0488 5.1289 C 7.9931 5.1777 8 5.1775 8 5.1992 C 8 5.4201 7.8205 6 7.5996 6 C 7.7603 5.9998 7.9059 6.0962 7.9688 6.2441 C 8.3355 6.7809 9.5625 7.5098 9.5625 7.5098 C 9.7886 7.6346 10.031 7.7553 10.305 7.8633 C 10.535 7.9369 10.641 7.9457 10.75 7.9609 C 10.758 7.9097 10.744 7.8716 10.766 7.8164 C 10.781 7.7782 10.802 7.7427 10.828 7.7109 C 11.019 7.4733 11.199 6.8753 11.199 6.4746 C 11.199 6.0277 10.981 5.6056 10.658 5.293 C 10.335 4.9803 9.913 4.8008 9.5996 4.8008 z M 4.3711 6.8008 C 4.3327 6.879 4.2862 6.953 4.2324 7.0215 C 4.9274 7.6292 6.291 8.5176 6.291 8.5176 C 6.3687 8.5949 6.4108 8.699 6.4082 8.8086 L 6.4062 8.9648 C 6.6558 9.0256 6.9506 9.0311 7.0762 9.2383 C 7.2778 9.5719 7.1861 9.9158 7.0781 10.205 C 6.9701 10.495 6.6339 11.138 6.6035 11.199 C 6.6035 11.199 10.457 11.198 11.01 11.199 C 10.852 10.854 10.666 10.535 10.568 10.152 C 10.43 9.6116 10.35 9.108 10.283 8.6992 L 9.8359 8.5234 C 8.9271 8.075 8.2308 7.6981 7.4785 7.0508 C 7.3672 6.9165 7.2801 6.8442 7.2109 6.8027 C 7.2109 6.8027 4.613 6.7996 4.3711 6.8008 z"/>
</svg>
