<svg xmlns="http://www.w3.org/2000/svg" width="16" height="16" version="1.1">
 <defs>
  <style id="current-color-scheme" type="text/css">
   .ColorScheme-Text { color:#c9ebf4; } .ColorScheme-Highlight { color:#4285f4; } .ColorScheme-NeutralText { color:#ff9800; } .ColorScheme-PositiveText { color:#4caf50; } .ColorScheme-NegativeText { color:#f44336; }
  </style>
 </defs>
 <path style="fill:currentColor" class="ColorScheme-Text" d="M 8,1 A 7,7 0 0 0 1,8 7,7 0 0 0 8,15 7,7 0 0 0 11.588,14 H 11 A 1.0001,1.0001 0 0 1 10,13 V 12 A 1.0001,1.0001 0 0 1 11,11 H 13 A 1.0001,1.0001 0 0 1 13.943,10.002 1.0001,1.0001 0 0 1 14.6,10.199 L 14.629,10.221 A 7,7 0 0 0 15,8 7,7 0 0 0 8,1 Z M 6,5 V 7 H 10 V 5 L 13,8 10,11 V 9 H 6 V 11 L 3,8 Z M 14,11 V 12 H 11 V 13 H 14 V 14 L 16,12.5 Z"/>
</svg>
