<svg xmlns="http://www.w3.org/2000/svg" width="16" height="16" version="1.1">
 <defs>
  <style id="current-color-scheme" type="text/css">
   .ColorScheme-Text { color:#c9ebf4; } .ColorScheme-Highlight { color:#4285f4; } .ColorScheme-NeutralText { color:#ff9800; } .ColorScheme-PositiveText { color:#4caf50; } .ColorScheme-NegativeText { color:#f44336; }
  </style>
 </defs>
 <path style="fill:currentColor" class="ColorScheme-Text" d="M 3,2 C 3,2 1,2 1,4 V 9.5 A 2.5,2.5 0 0 1 3.5,7 2.5,2.5 0 0 1 6,9.5 2.5,2.5 0 0 1 3.5,12 H 8 L 10,15 12,12 H 13 C 14.11,12 15,11.11 15,10 V 9 7 4 C 15,2 13.029,2 13.029,2 Z"/>
 <circle style="fill:currentColor" class="ColorScheme-Highlight" cx="3.5" cy="9.5" r="1.5"/>
</svg>
