<svg xmlns="http://www.w3.org/2000/svg" width="16" height="16" version="1.1">
 <defs>
  <style id="current-color-scheme" type="text/css">
   .ColorScheme-Text { color:#c9ebf4; } .ColorScheme-Highlight { color:#4285f4; } .ColorScheme-NeutralText { color:#ff9800; } .ColorScheme-PositiveText { color:#4caf50; } .ColorScheme-NegativeText { color:#f44336; }
  </style>
 </defs>
 <path style="fill:currentColor" class="ColorScheme-Text" d="M 13,2 C 13,2 15,2 15,4 V 10 C 15,12 13,12 13,12 H 12 L 10,15 8,12 H 3 C 1.89,12 1,11.11 1,10 V 4 C 1,2 2.97,2 2.97,2 Z M 3,4 V 10 H 13 V 4 Z"/>
</svg>
