<svg xmlns="http://www.w3.org/2000/svg" width="16" height="16" version="1.1">
 <defs>
  <style id="current-color-scheme" type="text/css">
   .ColorScheme-Text { color:#c9ebf4; } .ColorScheme-Highlight { color:#4285f4; } .ColorScheme-NeutralText { color:#ff9800; } .ColorScheme-PositiveText { color:#4caf50; } .ColorScheme-NegativeText { color:#f44336; }
  </style>
 </defs>
 <path style="fill:currentColor" class="ColorScheme-Text" d="M 8 1 A 7 7 0 0 0 1 8 A 7 7 0 0 0 8 15 A 7 7 0 0 0 15 8 A 7 7 0 0 0 8 1 z M 4.9160156 3.8417969 C 5.2064964 3.8279649 5.478476 3.9114015 5.734375 4.0566406 C 6.2323419 4.3332893 6.7225761 4.6290262 7.234375 4.8710938 C 7.649347 5.0716637 7.6366635 5.2577719 7.3046875 5.5136719 C 6.7859717 5.9148109 6.2324087 5.9937661 5.6445312 5.6894531 C 5.0843187 5.3989731 4.5445877 5.0667675 3.984375 4.7832031 C 3.6523974 4.6172141 3.6945366 4.4633454 3.9296875 4.2558594 C 4.2132514 3.9999597 4.5356251 3.8487131 4.9160156 3.8417969 z M 10.978516 4.0214844 C 11.278508 4.0439614 11.561115 4.1616556 11.806641 4.3691406 C 12.055623 4.5835425 12.143901 4.7427895 11.777344 4.9433594 C 10.802157 5.4897396 9.843268 6.0697499 8.875 6.6230469 C 8.404698 6.8996969 7.9061701 6.9151618 7.4082031 6.6523438 C 7.2283831 6.5140197 6.9442589 6.410357 6.9511719 6.140625 C 6.9580719 5.919306 7.2422151 5.8858885 7.4082031 5.7890625 C 8.2796451 5.2703475 9.1576954 4.7499201 10.042969 4.2519531 C 10.361115 4.0721315 10.678528 3.9990073 10.978516 4.0214844 z M 13.443359 5.9628906 C 13.553185 5.9737006 13.607585 6.0906383 13.640625 6.2851562 C 13.706705 6.6586315 13.674508 7.0126685 13.496094 7.3515625 C 13.363932 7.6005455 13.166374 7.7863996 12.921875 7.9316406 C 12.446094 8.2152046 11.969629 8.4826363 11.513672 8.8007812 C 11.143621 9.0566815 10.999375 8.9481751 10.953125 8.5332031 C 10.880435 7.8830801 11.083888 7.3623315 11.619141 7.0234375 C 12.134571 6.6914595 12.670866 6.4033481 13.179688 6.0644531 C 13.293676 5.9892336 13.377459 5.9564106 13.443359 5.9628906 z M 2.9765625 6.0859375 C 3.0489775 6.0722475 3.1496504 6.0992875 3.2871094 6.1796875 C 4.2553782 6.7398995 5.2416128 7.259204 6.2167969 7.8125 C 6.6940149 8.082232 6.956711 8.4973251 6.984375 9.0644531 C 6.956708 9.2926881 7.0133882 9.5892951 6.7851562 9.7207031 C 6.5915031 9.8313661 6.4170459 9.6046395 6.2441406 9.5078125 C 5.3519504 9.0236785 4.4545301 8.5380871 3.5761719 8.0332031 C 2.9398815 7.6666451 2.662778 7.0855087 2.7734375 6.4492188 C 2.8080175 6.2460547 2.8558641 6.1087645 2.9765625 6.0859375 z M 10.398438 8 C 10.465007 7.9989 10.531461 8.0118019 10.597656 8.0449219 C 10.814287 8.1565159 10.685359 8.4277569 10.693359 8.6230469 C 10.725449 9.6483179 10.75 10.673949 10.75 11.699219 C 10.7419 12.431555 10.317186 12.955385 9.6191406 13.185547 C 9.2661066 13.297141 9.0488281 13.302406 9.0488281 12.876953 C 9.0569281 11.747063 9.00802 10.619009 9 9.4960938 C 8.9919 8.9450965 9.2666905 8.5041496 9.8203125 8.1972656 C 10.000841 8.1292656 10.198726 8.00329 10.398438 8 z M 5.59375 9.6542969 C 5.673366 9.661897 5.767033 9.6849063 5.8769531 9.7226562 C 6.5600262 9.9590167 6.9530105 10.379473 6.9765625 11.009766 C 7.0001125 11.607231 6.9841879 12.211128 7.0234375 12.808594 C 7.0469875 13.163136 6.874721 13.201996 6.5371094 13.103516 C 6.1288401 12.985336 5.7980041 12.795616 5.5703125 12.480469 C 5.3897304 12.244109 5.3183594 11.987397 5.3183594 11.705078 C 5.3183594 11.1667 5.328359 10.620408 5.28125 10.082031 C 5.251806 9.7521118 5.3548908 9.6315219 5.59375 9.6542969 z"/>
</svg>
