<svg xmlns="http://www.w3.org/2000/svg" width="16" height="16" version="1">
 <defs>
  <style id="current-color-scheme" type="text/css">
   .ColorScheme-Text { color:#c9ebf4; } .ColorScheme-Highlight { color:#4285f4; } .ColorScheme-NeutralText { color:#ff9800; } .ColorScheme-PositiveText { color:#4caf50; } .ColorScheme-NegativeText { color:#f44336; }
  </style>
 </defs>
 <path style="fill:currentColor" class="ColorScheme-Text" d="M 7.092,2.0466 C 3.5364,2.0466 4.3636,5.2947 2.5432,6.2731 2.4804,6.3087 2.4451,6.3415 2.3889,6.3766 3.5894,5.6621 5.0692,5.0646 6.6408,4.6599 7.972,4.3175 9.322,4.1254 10.567,4.1013 10.599,4.1011 10.631,4.1011 10.662,4.1013 9.462,3.7601 9.33,2.0466 7.092,2.0466 Z"/>
 <path style="fill:currentColor" class="ColorScheme-Text" d="M 10.967,5.0016 C 9.722,5.0258 8.372,5.2179 7.041,5.5602 2.6547,6.689 -0.4714,9.144 0.0588,11.043 0.3643,12.128 1.8364,12.844 4.0295,12.974 4.0285,12.966 4.0265,12.959 4.0256,12.951 3.9072,11.924 4.5587,11.031 5.3225,10.425 6.0863,9.82 7.069,9.38 8.172,9.146 9.275,8.912 10.308,8.923 11.172,9.183 11.984,9.428 12.748,9.961 12.936,10.877 15.134,9.644 16.274,8.158 15.944,6.9567 15.594,5.6985 13.685,4.9487 10.967,5.0016 Z"/>
 <path style="opacity:0.3;fill:currentColor" class="ColorScheme-Text" d="M 9.662,10 A 1.8586,3.577 76.001 0 0 8.285,10.142 1.8586,3.577 76.001 0 0 5.0061,12.742 1.8586,3.577 76.001 0 0 8.715,13.857 1.8586,3.577 76.001 0 0 11.992,11.258 1.8586,3.577 76.001 0 0 9.662,10 Z"/>
</svg>
