<svg xmlns="http://www.w3.org/2000/svg" width="16" height="16" version="1.1">
 <defs>
  <style id="current-color-scheme" type="text/css">
   .ColorScheme-Text { color:#c9ebf4; } .ColorScheme-Highlight { color:#4285f4; } .ColorScheme-NeutralText { color:#ff9800; } .ColorScheme-PositiveText { color:#4caf50; } .ColorScheme-NegativeText { color:#f44336; }
  </style>
 </defs>
 <path style="opacity:0.3;fill:currentColor" class="ColorScheme-Text" d="M 8.001,0 C 3.569,0 0.001,3.568 0.001,8 0.001,8.837 0.1299,9.643 0.3662,10.4 L 0.376,10.348 C 0.5209,9.783 0.8003,9.197 1.2998,8.734 1.8872,8.19 2.5706,8.043 3.2783,8.031 3.3954,7.784 3.4894,7.52 3.7236,7.348 3.8216,7.275 3.9291,7.305 4.0342,7.258 L 4.0557,7.203 C 4.3391,6.666 4.7093,6.26 5.2275,5.6758 5.9345,4.8788 7.032,4.1397 8.05,3.4785 9.068,2.8169 12.099,1.1328 12.099,1.1328 10.9,0.4185 9.503,0 8.001,0 Z M 15.366,4.8652 C 15.366,4.8652 13.24,7.579 12.425,8.469 11.611,9.357 10.703,10.315 9.798,10.883 9.202,11.257 8.751,11.376 8.272,11.559 8.197,11.982 8.009,12.382 7.638,12.656 7.408,12.826 7.129,12.81 6.862,12.852 6.737,13.305 6.519,13.759 6.126,14.16 L 6.106,14.18 6.087,14.199 C 5.5446,14.696 4.8816,14.919 4.2646,14.99 L 4.1123,14.996 C 5.2624,15.634 6.587,16 8.001,16 12.433,16 16.001,12.432 16.001,8 16.001,6.886 15.774,5.8273 15.366,4.8652 Z"/>
 <path style="fill:currentColor" class="ColorScheme-Text" d="M 15.175,1.0078 C 14.866,0.9733 14.572,1.0905 14.29,1.1895 14.29,1.1895 13.322,1.6203 12.806,1.8867 12.289,2.1531 11.783,2.4304 11.388,2.6523 10.992,2.8742 9.588,3.6709 8.595,4.3164 7.602,4.9618 6.52,5.7265 5.9756,6.34 5.7062,6.643 5.4956,6.883 5.3232,7.102 5.6611,7.212 5.9697,7.419 6.192,7.721 L 8.011,10.188 C 8.111,10.324 8.182,10.474 8.237,10.627 8.527,10.481 8.841,10.302 9.267,10.035 9.966,9.596 10.894,8.66 11.688,7.793 12.483,6.926 13.483,5.6838 13.755,5.3359 14.027,4.9879 14.37,4.5406 14.706,4.082 15.042,3.6233 15.369,3.153 15.61,2.752 15.731,2.5514 15.831,2.3688 15.899,2.209 15.968,2.0493 16.016,1.9189 15.997,1.7754 15.965,1.5368 15.845,1.3966 15.774,1.3242 L 15.765,1.3125 C 15.681,1.2113 15.587,1.1475 15.489,1.0996 15.383,1.0483 15.278,1.0193 15.175,1.0078 Z M 4.8857,8.01 C 4.6921,7.98 4.4882,8.026 4.3174,8.152 3.9758,8.404 3.9035,8.881 4.1553,9.223 L 5.9717,11.689 C 6.223,12.031 6.702,12.103 7.044,11.852 7.386,11.6 7.458,11.123 7.206,10.781 L 5.3877,8.314 C 5.2618,8.144 5.0793,8.039 4.8857,8.01 Z M 3.0381,9.033 C 2.6221,9.095 2.2151,9.25 1.9795,9.469 1.6562,9.768 1.4531,10.173 1.3447,10.596 1.1667,11.289 1.1548,12.286 1.0185,13.023 0.9509,13.389 0.6417,13.959 0.0654,14.697 -0.0818,14.945 0.0654,14.977 0.0654,14.977 0.148,15.035 0.2986,14.976 0.374,14.943 1.7075,13.847 2.5884,14.003 4.1494,13.996 4.6086,13.943 5.0627,13.78 5.4111,13.461 5.6375,13.23 5.7625,13.027 5.8525,12.826 5.5884,12.707 5.3482,12.529 5.167,12.283 L 3.3486,9.816 C 3.1744,9.58 3.0779,9.309 3.0381,9.033 Z"/>
</svg>
