<svg xmlns="http://www.w3.org/2000/svg" width="16" height="16" version="1.1">
 <path style="fill:#cb8c8e" d="M 9,1.5 V 4 H 6.5 C 3.5,4 1.5,6.13 1.5,9.25 1.5,12.5 5.5,14 5.5,14 5.5,14 3.63,11.35 4.06,10 4.43,8.87 5.64,8 7,8 H 9 V 10.5 L 15.5,6 Z"/>
</svg>
