<svg xmlns="http://www.w3.org/2000/svg" width="16" height="16" version="1.1">
 <path style="fill:#cb8c8e" d="M 11,9 C 11,9 10,9 10,10 V 14 H 12 V 11 H 15 V 9 Z M 1,9 V 11 H 4 V 14 H 6 V 10 C 6,10 6,9 5,9 Z M 10,2 V 6 C 10,6 10,7 11,7 H 15 V 5 H 12 V 2 Z M 4,2 V 5 H 1 V 7 H 5 C 6,7 6,6 6,6 V 2 Z"/>
</svg>
