<svg xmlns="http://www.w3.org/2000/svg" width="16" height="16" version="1.1">
 <path style="fill:#c9ebf4" d="M 8 1 L 3.5 7 L 6 7 L 6 13 L 10 13 L 10 7 L 12.5 7 L 8 1 z M 1 14 L 1 16 L 15 16 L 15 14 L 1 14 z"/>
</svg>
