<svg xmlns="http://www.w3.org/2000/svg" width="16" height="16" version="1.1">
 <path style="fill:#c9ebf4" d="M 14.343089,1.0000257 H 1.6570149 c -0.5829162,0 -0.87705616,0.7072712 -0.4640212,1.1202975 L 6,7.1780943 v 5.6344207 c 0,0.21413 0.054523,0.414812 0.2299606,0.537636 l 2.4874555,1.530707 C 9.1489836,15.182951 10,14.876458 10,14.343223 V 7.1780943 L 14.807135,2.1203232 C 15.219322,1.7081194 14.927203,1.0000257 14.343089,1.0000257 Z"/>
</svg>
