<svg xmlns="http://www.w3.org/2000/svg" width="16" height="16">
 <defs>
  <style id="current-color-scheme" type="text/css">
   .ColorScheme-Text { color:#c9ebf4; } .ColorScheme-Highlight { color:#4285f4; } .ColorScheme-NeutralText { color:#ff9800; } .ColorScheme-PositiveText { color:#4caf50; } .ColorScheme-NegativeText { color:#f44336; }
  </style>
 </defs>
 <path style="fill:currentColor" class="ColorScheme-Text" d="M 8.0292969 1.9980469 L 8.0292969 2 C 4.9948969 2 2.2633469 3.0782 -0.001953125 4.75 L 8.0292969 13.5 L 15.998047 4.71875 C 13.738047 3.06875 11.039297 1.9980469 8.0292969 1.9980469 z"/>
</svg>
