<svg xmlns="http://www.w3.org/2000/svg" width="16" height="16" version="1.1">
 <defs>
  <style id="current-color-scheme" type="text/css">
   .ColorScheme-Text { color:#cb8c8e; } .ColorScheme-Highlight { color:#4285f4; } .ColorScheme-NeutralText { color:#ff9800; } .ColorScheme-PositiveText { color:#4caf50; } .ColorScheme-NegativeText { color:#f44336; }
  </style>
 </defs>
 <g style="opacity:.35">
  <rect style="fill:currentColor" class="ColorScheme-Text" width="16" height="2" x="0" y="3"/>
  <rect style="fill:currentColor" class="ColorScheme-Text" width="16" height="2" x="0" y="7"/>
  <rect style="fill:currentColor" class="ColorScheme-Text" width="16" height="2" x="0" y="11"/>
 </g>
 <rect style="fill:currentColor" class="ColorScheme-Text" width="12" height="14" x="2" y="1" rx=".8" ry=".8"/>
</svg>
