<svg xmlns="http://www.w3.org/2000/svg" width="16" height="16" version="1.1">
 <path style="fill:#cb8c8e" d="M 4.78,2 C 2.7,2 1,3.67 1,5.75 1,6.83 1.46,7.81 2.19,8.5 L 7.91,14 13.81,8.5 C 14.54,7.81 15,6.83 15,5.75 15,3.67 13.3,2 11.22,2 9.85,2 8.66,2.72 8,3.81 7.34,2.72 6.15,2 4.78,2 Z"/>
</svg>
