<svg xmlns="http://www.w3.org/2000/svg" width="16" height="16" version="1.1">
 <defs>
  <style id="current-color-scheme" type="text/css">
   .ColorScheme-Text { color:#c9ebf4; } .ColorScheme-Highlight { color:#4285f4; } .ColorScheme-NeutralText { color:#ff9800; } .ColorScheme-PositiveText { color:#4caf50; } .ColorScheme-NegativeText { color:#f44336; }
  </style>
 </defs>
 <path style="fill:currentColor" class="ColorScheme-Text" d="M 13,5 C 10,5 10,8 10,8 V 12 H 12 V 8 C 12,8 12,7 13,7 14,7 14,8 14,8 H 16 C 16,8 16,5 13,5 Z M 13,9 A 3,3 0 0 0 10,12 3,3 0 0 0 13,15 3,3 0 0 0 16,12 3,3 0 0 0 13,9 Z M 13,11 A 1,1 0 0 1 14,12 1,1 0 0 1 13,13 1,1 0 0 1 12,12 1,1 0 0 1 13,11 Z M 6,5 V 7 H 7 V 15 H 9 V 5 Z M 3,4 A 2,2 0 0 0 1,6 2,2 0 0 0 3,8 2,2 0 0 0 5,6 2,2 0 0 0 3,4 Z M 3,5 A 1,1 0 0 1 4,6 1,1 0 0 1 3,7 1,1 0 0 1 2,6 1,1 0 0 1 3,5 Z M 3,1 A 2,2 0 0 0 1,3 2,2 0 0 0 3,5 2,2 0 0 0 5,3 2,2 0 0 0 3,1 Z M 3,2 A 1,1 0 0 1 4,3 1,1 0 0 1 3,4 1,1 0 0 1 2,3 1,1 0 0 1 3,2 Z"/>
</svg>
