<svg xmlns="http://www.w3.org/2000/svg" width="16" height="16" version="1.1">
 <defs>
  <style id="current-color-scheme" type="text/css">
   .ColorScheme-Text { color:#c9ebf4; } .ColorScheme-Highlight { color:#4285f4; } .ColorScheme-NeutralText { color:#ff9800; } .ColorScheme-PositiveText { color:#4caf50; } .ColorScheme-NegativeText { color:#f44336; }
  </style>
 </defs>
 <path style="fill:currentColor" class="ColorScheme-Text" d="M 5,1 V 3 H 0 V 7 H 5 V 9 H 0 V 13 H 5 V 15 H 7 V 1 Z M 9,1 V 15 H 11 V 13 H 16 V 9 H 11 V 7 H 16 V 3 H 11 V 1 Z"/>
</svg>
