<svg xmlns="http://www.w3.org/2000/svg" width="16" height="16" version="1.1">
 <defs>
  <style id="current-color-scheme" type="text/css">
   .ColorScheme-Text { color:#c9ebf4; } .ColorScheme-Highlight { color:#4285f4; } .ColorScheme-NeutralText { color:#ff9800; } .ColorScheme-PositiveText { color:#4caf50; } .ColorScheme-NegativeText { color:#f44336; }
  </style>
 </defs>
 <path style="fill:currentColor" class="ColorScheme-Text" d="M 1,7 H 15 V 9 H 1 Z M 4,3 V 5 H 10 C 10,5 11,5 11,6 H 13 C 13,3 10,3 10,3 Z M 3,10 C 3,10 3,13 6,13 H 13 V 10 H 11 V 11 H 6 C 5,11 5,10 5,10 Z"/>
</svg>
