<svg xmlns="http://www.w3.org/2000/svg" width="16" height="16" version="1.1">
 <defs>
  <style id="current-color-scheme" type="text/css">
   .ColorScheme-Text { color:#c9ebf4; } .ColorScheme-Highlight { color:#4285f4; } .ColorScheme-NeutralText { color:#ff9800; } .ColorScheme-PositiveText { color:#4caf50; } .ColorScheme-NegativeText { color:#f44336; }
  </style>
 </defs>
 <path style="fill:currentColor" class="ColorScheme-Text" d="M 5,2 2,10 H 3 L 3.7695,8 H 7.2305 L 8,10 H 9 L 6,2 Z M 5.5,3.5 6.8457,7 H 4.1543 Z M 10,5 V 6 H 12.5 C 12.5,6 13,6 13,6.5 V 7 H 10.5 C 9,7 9,8.5 9,8.5 9,8.5 9,10 10.5,10 H 14 V 6.5 C 14,5 12.5,5 12.5,5 Z M 10.5,8 H 13 V 9 H 10.5 C 10,9 10,8.5 10,8.5 10,8.5 10,8 10.5,8 Z M 5,12 8,16 11,12 Z"/>
</svg>
