<svg xmlns="http://www.w3.org/2000/svg" width="16" height="16" version="1.1">
 <defs>
  <style id="current-color-scheme" type="text/css">
   .ColorScheme-Text { color:#c9ebf4; } .ColorScheme-Highlight { color:#4285f4; } .ColorScheme-NeutralText { color:#ff9800; } .ColorScheme-PositiveText { color:#4caf50; } .ColorScheme-NegativeText { color:#f44336; }
  </style>
 </defs>
 <path style="fill:currentColor" class="ColorScheme-Text" d="M 7,5 V 12 L 3.5,8.5 2,10 8,16 14,10 12.5,8.5 9,12 V 5 Z"/>
 <circle style="fill:currentColor" class="ColorScheme-Text" cx="8" cy="2" r="2"/>
</svg>
