<svg xmlns="http://www.w3.org/2000/svg" width="16" height="16" version="1.1">
 <defs>
  <style id="current-color-scheme" type="text/css">
   .ColorScheme-Text { color:#c9ebf4; } .ColorScheme-Highlight { color:#4285f4; } .ColorScheme-NeutralText { color:#ff9800; } .ColorScheme-PositiveText { color:#4caf50; } .ColorScheme-NegativeText { color:#f44336; }
  </style>
 </defs>
 <path style="fill:currentColor" class="ColorScheme-Text" d="M 2 2 C 0 2 0 4 0 4 L 0 12 C 0 12 0 14 2 14 L 14 14 C 16 14 16 12 16 12 L 16 4 C 16 4 16 2 14 2 L 2 2 z M 8 4 A 2 2 0 0 1 10 6 A 2 2 0 0 1 8 8 A 2 2 0 0 1 6 6 A 2 2 0 0 1 8 4 z M 8 9 C 12 9 12 11.5 12 11.5 L 12 12 L 4 12 L 4 11.5 C 4 11.5 4 9 8 9 z"/>
</svg>
