<svg xmlns="http://www.w3.org/2000/svg" width="16" height="16" version="1.1">
 <defs>
  <style id="current-color-scheme" type="text/css">
   .ColorScheme-Text { color:#c9ebf4; } .ColorScheme-Highlight { color:#4285f4; } .ColorScheme-NeutralText { color:#ff9800; } .ColorScheme-PositiveText { color:#4caf50; } .ColorScheme-NegativeText { color:#f44336; }
  </style>
 </defs>
 <path style="fill:currentColor" class="ColorScheme-Text" d="M 3,1 V 3 H 13 V 1 Z M 2,3 C 2,3 0,3 0,5 V 13 C 0,15 2,15 2,15 H 14 C 14,15 16,15 16,13 V 5 C 16,3 14,3 14,3 V 7 L 8,10 2,7 Z M 3,5 V 7 H 13 V 5 Z"/>
</svg>
