<svg xmlns="http://www.w3.org/2000/svg" width="16" height="16" version="1.1">
 <defs>
  <style id="current-color-scheme" type="text/css">
   .ColorScheme-Text { color:#c9ebf4; } .ColorScheme-Highlight { color:#4285f4; } .ColorScheme-NeutralText { color:#ff9800; } .ColorScheme-PositiveText { color:#4caf50; } .ColorScheme-NegativeText { color:#f44336; }
  </style>
 </defs>
 <path style="opacity:0.3;fill:currentColor" class="ColorScheme-Text" d="M 0,0 H 16 V 16 H 0 Z"/>
 <path style="opacity:0.3;fill:currentColor" class="ColorScheme-Text" d="M 2,2 H 14 V 14 H 2 Z"/>
 <path style="opacity:0.3;fill:currentColor" class="ColorScheme-Text" d="M 4,4 H 12 V 12 H 4 Z"/>
 <path style="opacity:0.3;fill:currentColor" class="ColorScheme-Text" d="M 6,6 H 10 V 10 H 6 Z"/>
 <path style="fill:currentColor" class="ColorScheme-Text" d="M 7,7 H 9 V 9 H 7 Z"/>
</svg>
