<svg xmlns="http://www.w3.org/2000/svg" width="16" height="16" version="1.1">
 <defs>
  <style id="current-color-scheme" type="text/css">
   .ColorScheme-Text { color:#c9ebf4; } .ColorScheme-Highlight { color:#4285f4; } .ColorScheme-NeutralText { color:#ff9800; } .ColorScheme-PositiveText { color:#4caf50; } .ColorScheme-NegativeText { color:#f44336; }
  </style>
 </defs>
 <path style="fill:currentColor" class="ColorScheme-Text" d="M 1.375 1 C 1.16725 1 1 1.16725 1 1.375 L 1 3.625 C 1 3.83275 1.16725 4 1.375 4 L 3.625 4 C 3.83275 4 4 3.83275 4 3.625 L 4 1.375 C 4 1.16725 3.83275 1 3.625 1 L 1.375 1 z M 5 2 L 5 4 L 15 4 L 15 2 L 5 2 z M 1.375 5 C 1.16725 5 1 5.16725 1 5.375 L 1 7.625 C 1 7.83275 1.16725 8 1.375 8 L 3.625 8 C 3.83275 8 4 7.83275 4 7.625 L 4 5.375 C 4 5.16725 3.83275 5 3.625 5 L 1.375 5 z M 5 6 L 5 8 L 15 8 L 15 6 L 5 6 z M 1.375 9 C 1.16725 9 1 9.16725 1 9.375 L 1 11.625 C 1 11.83275 1.16725 12 1.375 12 L 3.625 12 C 3.83275 12 4 11.83275 4 11.625 L 4 9.375 C 4 9.16725 3.83275 9 3.625 9 L 1.375 9 z M 5 10 L 5 12 L 10 12 L 10 10 L 5 10 z M 12 11 A 1 1 0 0 0 11 12 A 1 1 0 0 0 12 13 A 1 1 0 0 0 13 12 A 1 1 0 0 0 12 11 z M 16 11.054688 A 2.5 2.5 0 0 0 14 13.5 A 2.5 2.5 0 0 0 16 15.949219 L 16 14.912109 A 1.5 1.5 0 0 1 15 13.5 A 1.5 1.5 0 0 1 16 12.087891 L 16 11.054688 z M 1.375 13 C 1.16725 13 1 13.16725 1 13.375 L 1 15.625 C 1 15.83275 1.16725 16 1.375 16 L 3.625 16 C 3.83275 16 4 15.83275 4 15.625 L 4 13.375 C 4 13.16725 3.83275 13 3.625 13 L 1.375 13 z M 5 14 L 5 16 L 10 16 L 10 14 L 5 14 z M 12 14 A 1 1 0 0 0 11 15 A 1 1 0 0 0 12 16 A 1 1 0 0 0 13 15 A 1 1 0 0 0 12 14 z"/>
</svg>
