<svg xmlns="http://www.w3.org/2000/svg" width="22" height="22" version="1.1">
 <defs>
  <style id="current-color-scheme" type="text/css">
   .ColorScheme-Text { color:#c9ebf4; } .ColorScheme-Highlight { color:#4285f4; } .ColorScheme-NeutralText { color:#ff9800; } .ColorScheme-PositiveText { color:#4caf50; } .ColorScheme-NegativeText { color:#f44336; }
  </style>
 </defs>
 <g>
  <path style="fill:currentColor" class="ColorScheme-Text" d="m 2.9995243,16.203 0,0.547 c 0,1.212 1.0381,2.25 2.25,2.25 l 11.4999997,0 c 1.212,0 2.25,-1.038 2.25,-2.25 l 0,-0.547 c -0.532,0.485 -1.225,0.797 -2,0.797 L 4.9995243,17 c -0.7746,0 -1.4684,-0.312 -2,-0.797 z m 3,-13.203 a 2.0002,2.0002 0 0 0 -1.9883,1.7793 l -1,8.9997 a 2.0002,2.0002 0 0 0 1.9883,2.221 l 11.9999997,0 a 2.0002,2.0002 0 0 0 1.988,-2.221 l -1,-8.9997 A 2.0002,2.0002 0 0 0 15.999524,3 L 5.9995243,3 Z m 4.9859997,2 a 0.50005,0.50005 0 0 1 0.496,0.3477 l 0.87,2.7148 2.851,0 a 0.50005,0.50005 0 0 1 0.293,0.9063 l -2.314,1.6662 0.88,2.711 a 0.50005,0.50005 0 0 1 -0.769,0.556 l -2.301,-1.683 -2.3044997,1.676 a 0.50005,0.50005 0 0 1 -0.7695,-0.563 l 0.8906,-2.707 -2.3047,-1.6758 a 0.50005,0.50005 0 0 1 0.2949,-0.9043 l 2.8512,0.0137 0.8809997,-2.7129 A 0.50005,0.50005 0 0 1 10.985524,5 Z"/>
 </g>
</svg>
