<svg xmlns="http://www.w3.org/2000/svg" width="22" height="22" version="1.1">
 <defs>
  <style id="current-color-scheme" type="text/css">
   .ColorScheme-Text { color:#c9ebf4; } .ColorScheme-Highlight { color:#4285f4; } .ColorScheme-NeutralText { color:#ff9800; } .ColorScheme-PositiveText { color:#4caf50; } .ColorScheme-NegativeText { color:#f44336; }
  </style>
 </defs>
 <path style="fill:currentColor" class="ColorScheme-Text" d="M 10.693256,3.0094433 C 6.2883576,3.2267165 2.7359596,7.0807532 3.0155216,11.589521 3.2427026,15.25348 5.8905676,18.218756 9.5194282,18.872724 11.054064,19.149286 12.59068,18.975347 14.107319,18.357099 15.580028,17.756755 16.215148,17.762464 17.855366,18.384443 18.294364,18.550914 18.671989,18.667328 18.695209,18.644208 18.718438,18.62109 18.583009,18.29766 18.394428,17.925458 17.811497,16.77493 17.660187,15.842466 17.9081,14.937177 17.972605,14.701634 18.185293,14.108021 18.382709,13.618818 18.863149,12.428275 19.002097,11.78369 18.999897,10.745771 18.995397,8.5810574 18.14459,6.6454835 16.529194,5.1246777 15.1966,3.8701149 13.468516,3.1326912 11.585834,3.0153027 11.285486,2.9965754 10.986916,2.9949584 10.693256,3.0094433 Z M 10.822162,4.9996777 C 11.631464,4.9929299 12.345824,5.0772342 12.847553,5.2360058 13.887143,5.5649886 14.350706,6.2680486 13.837788,6.7360058 13.387146,7.1471474 12.958216,7.0515915 12.056537,6.3375683 11.749628,6.0945331 11.30434,5.8076088 11.068256,5.6988965 10.05883,5.2340733 8.8182566,5.6484396 8.8182566,6.3883496 8.8182566,6.4958972 8.9359796,6.7180627 9.0819282,6.8805371 9.3590592,7.1890467 9.6452392,7.2942272 11.9081,8.5953808 13.512265,9.517782 14.339208,10.235616 14.749897,11.062178 15.255416,12.144007 14.984098,13.713252 14.007709,14.653974 13.486465,15.165247 12.816028,15.58757 12.156147,15.786786 11.859618,15.876307 11.336388,15.967471 10.992084,15.989911 9.3384922,16.097657 7.9340846,15.388066 7.2967716,14.122724 6.9062886,13.342282 6.8962076,12.447278 7.2987256,11.50749 7.7766776,10.558548 8.8986086,9.768688 10.249897,9.433272 10.591891,9.348381 10.885892,9.240982 10.90224,9.193037 10.918591,9.145092 10.406953,8.7221051 9.7655222,8.2535839 8.4707116,7.3078136 8.1943976,7.0411925 8.1815376,6.4781933 8.1667376,5.8301693 8.6753856,5.3632297 9.6698182,5.1149121 9.9668952,5.0407297 10.336581,5.0037257 10.822162,4.9996777 Z M 11.435443,9.698897 C 11.371117,9.698729 11.297602,9.70855 11.199115,9.722334 10.51617,9.817926 9.7664932,10.166437 9.3319282,10.589521 8.7649876,11.141483 8.5943146,11.624081 8.5995066,12.66374 8.6077166,13.877714 9.6149482,15.212921 11.048725,15.200849 12.427554,15.170262 13.242205,14.246212 13.384663,13.066083 13.488875,12.026281 13.047399,11.004834 12.128803,10.159834 11.730944,9.793849 11.628421,9.699376 11.435443,9.698897 Z"/>
</svg>
