<svg xmlns="http://www.w3.org/2000/svg" width="22" height="22" version="1.1">
 <defs>
  <style id="current-color-scheme" type="text/css">
   .ColorScheme-Text { color:#c9ebf4; } .ColorScheme-Highlight { color:#4285f4; } .ColorScheme-NeutralText { color:#ff9800; } .ColorScheme-PositiveText { color:#4caf50; } .ColorScheme-NegativeText { color:#f44336; }
  </style>
 </defs>
 <path style="fill:currentColor" class="ColorScheme-Text" d="m 7.7067697,5.0001657 c -1.1427389,0.1936685 -2.2354613,0.533086 -3.2558593,0.9941405 -0.0088,0.00378 -0.016464,0.00946 -0.021484,0.017578 -2.0742259,3.0493219 -2.6420289,7.0249388 -2.3632809,9.9624338 0.0013,0.01437 0.0082,0.02642 0.01953,0.03516 1.3685139,0.988944 2.6950711,1.590334 3.9960936,1.988281 0.02082,0.0062 0.043391,-7.19e-4 0.056641,-0.01758 0.307757,-0.413557 0.5811882,-0.471117 0.8164062,-0.929688 0.01388,-0.02685 0.00103,-0.05774 -0.027344,-0.06836 -0.435145,-0.162429 -0.8494743,-0.361043 -1.2480469,-0.585938 -0.03153,-0.01812 -0.034859,-0.06274 -0.00586,-0.08398 0.08388,-0.06185 0.169912,-0.126433 0.25,-0.191406 0.01449,-0.01187 0.033741,-0.01339 0.050781,-0.0059 2.6184512,1.176386 6.4539166,1.176386 9.0414746,0 0.01703,-0.0081 0.03566,-0.0059 0.05078,0.0059 0.08011,0.06497 0.165495,0.129561 0.25,0.191406 0.029,0.02124 0.02567,0.06586 -0.0059,0.08398 -0.398573,0.229264 -0.812269,0.424129 -1.248047,0.585938 -0.02837,0.01062 -0.04123,0.04151 -0.02734,0.06836 0.240265,0.457928 0.514327,0.514156 0.816406,0.927735 0.01262,0.01749 0.03582,0.02579 0.05664,0.01953 1.307334,-0.397946 2.633438,-0.999336 4.001953,-1.988281 0.01199,-0.0088 0.02021,-0.02079 0.02149,-0.03516 0.333606,-3.396066 -0.56037,-7.3453378 -2.367187,-9.9604807 -0.0044,-0.00874 -0.01069,-0.015787 -0.01953,-0.019531 -1.019733,-0.4604 -2.112456,-0.7998481 -3.255827,-0.9941376 -0.02082,-0.00378 -0.04201,0.00474 -0.05273,0.023437 -0.140653,0.2461414 -0.297163,0.4487804 -0.406254,0.7011724 -1.229768,-0.1811667 -3.4541108,-0.1811667 -4.6586615,0 C 8.0624671,5.4667904 7.9007747,5.2697441 7.7595041,5.0236031 7.7487781,5.0054891 7.7275941,4.9970381 7.7067697,5.0001657 Z M 7.4977854,10.999709 c 0.8418727,0 1.5151148,0.679079 1.5019531,1.5 0,0.826832 -0.6666608,1.5 -1.5019531,1.5 -0.8221772,0 -1.4980469,-0.673168 -1.4980469,-1.5 0,-0.826832 0.6627321,-1.5 1.4980469,-1.5 z m 6.0024116,0 c 0.841895,0 1.513139,0.679079 1.5,1.5 10e-7,0.826832 -0.658105,1.5 -1.5,1.5 -0.822154,0 -1.5,-0.673168 -1.5,-1.5 0,-0.826832 0.664684,-1.5 1.5,-1.5 z"/>
</svg>
