<svg xmlns="http://www.w3.org/2000/svg" width="22" height="22" version="1.1">
 <defs>
  <style id="current-color-scheme" type="text/css">
   .ColorScheme-Text { color:#c9ebf4; } .ColorScheme-Highlight { color:#4285f4; } .ColorScheme-NeutralText { color:#ff9800; } .ColorScheme-PositiveText { color:#4caf50; } .ColorScheme-NegativeText { color:#f44336; }
  </style>
 </defs>
 <path style="fill:currentColor" class="ColorScheme-Text" d="M 7,3 2,6 6,8.9844 1.9902,11.992 7,15 11,12 6,9 11,6 16,9.0156 11,12 12.777,13.334 C 13.693,11.885 15.286,11.006 17,11.004 18.075,11.007 19.12,11.355 19.981,11.998 L 20.01,11.981 16.001,9.0105 20.001,6.0105 15.001,3.0105 11.001,5.9949 7.0011,3.0105 Z M 17,12 C 14.791,12 13,13.791 13,16 13,18.209 14.791,20 17,20 19.209,20 21,18.209 21,16 21,13.791 19.209,12 17,12 Z M 10.999,12.986 6.9994,15.986 5.9994,15.387 V 15.986 L 10.999,18.986 12.476,18.102 C 12.163,17.438 12.001,16.715 11.999,15.982 11.999,15.312 12.134,14.648 12.395,14.032 L 10.999,12.982 Z M 20.188,14.567 16.663,18.608 14.769,16.731 C 14.58,16.543 14.58,16.199 14.769,16.01 14.957,15.822 15.301,15.822 15.489,16.01 L 16.616,17.137 19.632,13.684 C 19.632,13.684 20.121,14.199 20.188,14.567 Z"/>
</svg>
