<svg xmlns="http://www.w3.org/2000/svg" width="22" height="22" version="1">
 <defs>
  <style id="current-color-scheme" type="text/css">
   .ColorScheme-Text { color:#c9ebf4; } .ColorScheme-Highlight { color:#4285f4; } .ColorScheme-NeutralText { color:#ff9800; } .ColorScheme-PositiveText { color:#4caf50; } .ColorScheme-NegativeText { color:#f44336; }
  </style>
 </defs>
 <path style="fill:currentColor" class="ColorScheme-Text" d="m15 3c-2.209 0-4 1.7909-4 4 0.002 0.7135 0.195 1.4135 0.559 2.0273l-2.6078 2.6077-4.2422-4.2424c-0.1959-0.1959-0.4534-0.293-0.709-0.293s-0.5112 0.0971-0.707 0.293c-0.3918 0.3917-0.3918 1.0223 0 1.414l4.2422 4.2424-4.2422 4.242c-0.3918 0.392-0.3918 1.024 0 1.416 0.3917 0.392 1.0242 0.392 1.416 0l0.707-0.707h1.584v-1.584l0.416-0.416h1.584v-1.486l4.193 4.193c0.392 0.392 1.023 0.392 1.414 0 0.392-0.392 0.392-1.024 0-1.416l-4.242-4.242 2.608-2.608c0.614 0.364 1.313 0.557 2.027 0.559 2.209 0 4-1.7909 4-4s-1.791-4-4-4zm1 2c0.552 0 1 0.4477 1 1s-0.448 1-1 1-1-0.4477-1-1 0.448-1 1-1z"/>
</svg>
