<svg xmlns="http://www.w3.org/2000/svg" width="22" height="22" version="1.1">
 <defs>
  <style id="current-color-scheme" type="text/css">
   .ColorScheme-Text { color:#c9ebf4; } .ColorScheme-Highlight { color:#4285f4; } .ColorScheme-NeutralText { color:#ff9800; } .ColorScheme-PositiveText { color:#4caf50; } .ColorScheme-NegativeText { color:#f44336; }
  </style>
 </defs>
 <path style="fill:currentColor" class="ColorScheme-Text" d="m 5.2851559,2.9999998 c -1.266286,0 -2.285156,1.01887 -2.285156,2.28516 V 16.71484 c 0,1.26629 1.018871,2.28516 2.285156,2.28516 H 16.714844 C 17.981129,19 19,17.98113 19,16.71484 V 5.2851598 c 0,-1.26629 -1.018871,-2.28516 -2.285156,-2.28516 z m 2.216797,2 c 0.781326,0 1.39132,0.22266 1.8339852,0.66602 C 9.7788031,6.1092698 10,6.7188898 10,7.4999998 c 0,0.77903 -0.2211969,1.39073 -0.6640619,1.83398 -0.4426652,0.44306 -1.0526592,0.66602 -1.8339852,0.66602 -0.779222,0 -1.392921,-0.22296 -1.83789,-0.66602 -0.442765,-0.44325 -0.664063,-1.05495 -0.664063,-1.83398 0,-0.78111 0.221298,-1.39073 0.664063,-1.83398 0.444969,-0.44336 1.058668,-0.66602 1.83789,-0.66602 z m 0,0.90039 c -0.382046,0 -0.678161,0.14018 -0.888672,0.41992 -0.210611,0.27974 -0.318359,0.67186 -0.318359,1.17969 0,0.50574 0.107748,0.89995 0.318359,1.17969 0.210511,0.27974 0.506626,0.41992 0.888672,0.41992 0.38415,0 0.680114,-0.14018 0.890625,-0.41992 0.210511,-0.27974 0.316406,-0.67395 0.316406,-1.17969 0,-0.50783 -0.105895,-0.89995 -0.316406,-1.17969 -0.210511,-0.27974 -0.506475,-0.41992 -0.890625,-0.41992 z M 13,12 h 1.880859 c 0.674989,0 1.163403,0.10421 1.464844,0.31445 0.304446,0.21024 0.455078,0.54508 0.455078,1.00782 0,0.24322 -0.05485,0.45289 -0.166015,0.625 -0.110161,0.17004 -0.272114,0.2945 -0.482422,0.37695 0.269395,0.0804 0.479738,0.22889 0.626953,0.44531 C 16.926514,14.98596 17,15.25207 17,15.56641 17,16.04872 16.841854,16.41048 16.525391,16.64648 16.208927,16.88352 15.726024,17 15.080078,17 H 13 Z m 1.253906,0.87695 v 1.0586 h 0.691406 c 0.197292,0 0.347069,-0.0451 0.449219,-0.13477 0.102143,-0.0886 0.154297,-0.22036 0.154297,-0.39453 0,-0.17211 -0.05215,-0.30395 -0.154297,-0.39258 -0.10215,-0.0917 -0.251928,-0.13672 -0.449219,-0.13672 z m -0.002,1.9375 v 1.3086 h 0.734375 c 0.251368,0 0.443174,-0.0548 0.56836,-0.16407 0.128186,-0.10924 0.191406,-0.27554 0.191406,-0.49609 0,-0.21642 -0.06131,-0.37914 -0.1875,-0.48633 -0.126184,-0.10924 -0.318895,-0.16211 -0.572266,-0.16211 z"/>
</svg>
