<svg xmlns="http://www.w3.org/2000/svg" width="22" height="22" version="1.1">
 <defs>
  <style id="current-color-scheme" type="text/css">
   .ColorScheme-Text { color:#c9ebf4; } .ColorScheme-Highlight { color:#4285f4; } .ColorScheme-NeutralText { color:#ff9800; } .ColorScheme-PositiveText { color:#4caf50; } .ColorScheme-NegativeText { color:#f44336; }
  </style>
 </defs>
 <path style="fill:currentColor" class="ColorScheme-Text" d="M 4.199219,2.9999999 C 3.534418,2.9999999 3,3.5344186 3,4.1992187 V 17.800781 C 3,18.465581 3.534418,19 4.199219,19 H 11 17.800781 C 18.465581,19 19,18.465581 19,17.800781 V 4.1992187 C 19,3.5344186 18.465581,2.9999999 17.800781,2.9999999 H 11 Z m 0.800781,2 h 6 6 V 17 H 11 5 Z m 2.949219,0.9726563 c -0.194096,0 -0.46311,0.071972 -0.986329,0.2578126 -0.05063,0.017688 -0.05155,0.017444 -0.09375,0.035156 l 0.0332,0.1328125 c 0.329124,-0.088495 0.388261,-0.097656 0.472657,-0.097656 0.210972,0 0.262707,0.080353 0.380859,0.6113282 L 7.999997,7.9999999 7.308591,9.0351561 C 7.131375,9.300641 6.971733,9.4609375 6.878903,9.4609375 c -0.05063,0 -0.136315,-0.026994 -0.220703,-0.080078 -0.109702,-0.061946 -0.193593,-0.087891 -0.269531,-0.087891 -0.168777,0 -0.28711,0.1316048 -0.28711,0.3085937 0,0.2300897 0.16026,0.3710938 0.421875,0.3710938 0.261615,0 0.363203,-0.078397 0.785157,-0.6093752 C 7.536439,9.0712375 7.722364,8.8050713 8.068356,8.3183594 l 0.251953,1.0625 c 0.109705,0.4601781 0.220191,0.5917969 0.490235,0.5917969 0.320689,0 0.539841,-0.2113429 1.029297,-1.0078125 L 9.722653,8.8945308 c -0.06751,0.079647 -0.11155,0.132088 -0.1875,0.2382813 C 9.341058,9.3982996 9.241886,9.4863277 9.140622,9.4863277 9.022477,9.4863277 8.94579,9.3727859 8.886716,9.1249996 8.861396,9.0276545 8.859996,9.008969 8.851556,8.9824215 8.640584,8.0797555 8.548821,7.6718168 8.548821,7.539062 8.928577,6.8488097 9.223096,6.4687496 9.374993,6.4687496 c 0.05063,0 0.127176,0.026054 0.203125,0.070312 0.101267,0.061947 0.16038,0.080078 0.236328,0.080078 0.168779,2e-7 0.28711,-0.1325252 0.28711,-0.3183594 0,-0.1946903 -0.143171,-0.3281249 -0.345703,-0.328125 -0.371322,0 -0.684671,0.3187078 -1.275391,1.265625 L 8.388662,6.7519531 C 8.270518,6.1501756 8.177059,5.9726562 7.949209,5.9726562 Z M 11,9 v 1 h 5 V 9 Z M 8,12 C 7.405107,12 6.923008,12.167379 6.552734,12.5 6.184475,12.832621 6,13.232066 6,13.703125 c 0,0.424907 0.133364,0.77785 0.398437,1.056641 0.265054,0.278792 0.557185,0.448241 0.878907,0.509765 l 0.0059,0.195313 H 6.582071 c -0.167939,0 -0.290298,-0.0282 -0.367187,-0.08203 C 6.137994,15.328994 6.096025,15.234167 6.08793,15.097658 H 5.976602 V 16 H 7.546915 L 7.490275,15.128906 C 7.18677,15.023145 6.980328,14.841585 6.873088,14.582031 6.765847,14.320561 6.712931,14.030139 6.712931,13.712891 c 0,-0.438365 0.118659,-0.797418 0.357422,-1.078125 0.24078,-0.282639 0.543914,-0.423829 0.910157,-0.423829 0.343982,0 0.643496,0.131151 0.898437,0.396485 0.256974,0.265334 0.386719,0.64851 0.386719,1.146484 0,0.761365 -0.261174,1.219264 -0.783203,1.375 L 8.404333,16 H 9.976598 V 15.097656 H 9.863317 c -0.004,0.105745 -0.03688,0.192502 -0.09961,0.261719 -0.0607,0.06922 -0.186679,0.105469 -0.378906,0.105469 H 8.668004 l 0.0293,-0.195313 c 0.388502,-0.107675 0.697211,-0.299313 0.923828,-0.576172 0.22865,-0.278791 0.34375,-0.617633 0.34375,-1.015625 0,-0.490279 -0.184538,-0.891677 -0.550781,-1.205078 C 9.047857,12.15734 8.576701,12 8.000038,12 Z m 3,0 v 1 h 5 v -1 z"/>
</svg>
