<svg xmlns="http://www.w3.org/2000/svg" width="22" height="22" version="1.1">
 <defs>
  <style id="current-color-scheme" type="text/css">
   .ColorScheme-Text { color:#c9ebf4; } .ColorScheme-Highlight { color:#4285f4; } .ColorScheme-NeutralText { color:#ff9800; } .ColorScheme-PositiveText { color:#4caf50; } .ColorScheme-NegativeText { color:#f44336; }
  </style>
 </defs>
 <path style="fill:currentColor" class="ColorScheme-Text" d="M 12.12866,3.004482 C 11.75488,3.026009 11.38359,3.1269104 11.027098,3.3072164 10.912788,3.3650324 10.757539,3.453818 10.681395,3.504482 9.9228927,4.0092019 9.2689577,4.7288552 8.8161597,5.7779195 c -0.11113,0.2574679 -0.262697,0.6612126 -0.279297,0.7441406 -0.01492,0.074576 -0.04644,0.071328 -0.134765,-0.013672 -0.345335,-0.332352 -0.771186,-0.506255 -1.189453,-0.484375 -0.419352,0.021952 -0.780716,0.1992326 -1.134766,0.5566406 -0.276378,0.279 -0.477518,0.5839916 -0.648438,0.9785157 -0.222657,0.5139519 -0.330028,0.9761097 -0.390625,1.6835937 l -0.0098,0.1035156 -0.150391,0.1015625 c -0.84571,0.5684278 -1.503462,1.9521878 -1.759765,3.3671878 -0.343815,1.898152 0.0713,3.870247 1.050781,5.115235 0.113562,0.144343 0.389932,0.428533 0.517578,0.53125 0.375901,0.302471 0.76054,0.470852 1.210937,0.529296 h 0.002 c 0.02579,0.0033 2.374985,0.0066 5.2207043,0.0078 5.673089,0.0026 5.287733,0.0096 5.591797,-0.08594 0.530578,-0.166796 1.059751,-0.616954 1.443359,-1.226562 0.655008,-1.040904 0.952947,-2.480516 0.808594,-3.918108 -0.19325,-1.924572 -1.101944,-3.487092 -1.824219,-3.759627 l -0.125,-0.035156 -0.0039,-0.1308593 C 16.981781,8.7344965 16.923021,8.179177 16.751722,7.412685 16.283825,5.3190728 14.615941,3.6906312 13.249769,3.1802632 12.879206,3.0418272 12.502456,2.9829554 12.128675,3.0044819 Z M 9.7145977,8.0025288 c 0.7838293,-0.00931 1.5497273,0.039571 2.1621093,0.1503907 0.431986,0.078174 0.807852,0.1798271 1.183594,0.3222656 0.865657,0.3281567 1.567236,0.8739744 1.837891,1.5878909 0.180911,0.477224 0.09518,1.869557 -0.05078,2.460937 -0.127289,0.515691 -0.460495,1.134252 -0.880859,1.507813 l 1.54492,2.96875 H 14.611082 13.888426 12.970457 L 12.09741,14.889248 c -0.369085,0.04972 -0.739542,0.0849 -1.177734,0.130859 -0.343857,0.02684 -1.0041963,0.02358 -1.4589853,-0.0059 -0.200765,-0.01301 -0.342223,-0.02775 -0.359375,-0.03125 -0.01715,-0.0035 -0.03797,0.0018 -0.04687,0.01172 -0.01141,0.0126 -0.0052,-0.577928 -0.0078,0.06836 l -0.0039,1.917969 -1.345703,0.002 -0.697264,0.0039 0.0039,-4.84375 0.0039,-3.8437502 0.05469,-0.017578 c 0.03089,-0.00929 0.202954,-0.043438 0.380859,-0.076172 0.685973,-0.126237 1.487656,-0.193815 2.271485,-0.2031249 z m 0.8359373,1.9980472 c -0.446585,-0.00122 -0.9692383,0.03923 -1.3593753,0.109375 -0.07654,0.01377 -0.144097,0.02539 -0.148437,0.02539 -0.0043,0 -0.01536,0.0067 -0.02539,0.01563 -0.01629,0.01462 -0.01774,0.152504 -0.01758,1.373046 8.9e-5,0.764103 0.004,1.364947 0.0098,1.373047 0.01743,0.02457 0.347181,0.0724 0.65039,0.09375 0.29238,0.02059 1.0945903,0.0075 1.3808603,-0.02148 0.404483,-0.04094 0.790619,-0.131114 1.074214,-0.251953 0.340238,-0.144972 0.581902,-0.351208 0.730469,-0.621094 0.09849,-0.178921 0.139429,-0.326542 0.152344,-0.564453 0.02162,-0.398119 -0.112645,-0.72903 -0.400391,-0.984375 -0.342728,-0.304142 -0.848209,-0.468177 -1.632812,-0.53125 -0.124093,-0.01 -0.265201,-0.01522 -0.414063,-0.01563 z"/>
</svg>
