<svg xmlns="http://www.w3.org/2000/svg" width="22" height="22" version="1.1">
 <defs>
  <style id="current-color-scheme" type="text/css">
   .ColorScheme-Text { color:#c9ebf4; } .ColorScheme-Highlight { color:#4285f4; } .ColorScheme-NeutralText { color:#ff9800; } .ColorScheme-PositiveText { color:#4caf50; } .ColorScheme-NegativeText { color:#f44336; }
  </style>
 </defs>
 <path style="fill:currentColor" class="ColorScheme-Text" d="M 16.261719 2 A 0.26473917 0.26473917 0 0 0 16 2.265625 L 16 3 L 8 3 C 7 3 5.8707529 2.9464595 4.8027344 3.4804688 C 3.7347158 4.0144779 3 5.2777778 3 7 L 3 16 L 5 16 L 5 7 C 5 5.7222222 5.2652842 5.4855221 5.6972656 5.2695312 C 6.1292471 5.0535406 7 5 8 5 L 17 5 L 18.736328 5 A 0.26473917 0.26473917 0 0 0 18.921875 4.5488281 L 16.451172 2.078125 A 0.26473917 0.26473917 0 0 0 16.261719 2 z M 17 6 L 17 15 C 17 16.277778 16.734716 16.514478 16.302734 16.730469 C 15.870753 16.946459 15 17 14 17 L 5.7539062 17 L 5.734375 17 L 5 17 L 3.2636719 17 A 0.26473917 0.26473917 0 0 0 3.078125 17.451172 L 5.5488281 19.921875 A 0.26473917 0.26473917 0 0 0 5.7382812 20 A 0.26473917 0.26473917 0 0 0 6 19.734375 L 6 19 L 14 19 C 15 19 16.129247 19.05354 17.197266 18.519531 C 18.265284 17.985522 19 16.722222 19 15 L 19 6 L 17 6 z M 9 9 C 8.446 9 8 9.446 8 10 L 8 11 C 8 11.554 8.446 12 9 12 C 9.554 12 10 11.554 10 11 L 10 10 C 10 9.446 9.554 9 9 9 z M 13 9 C 12.446 9 12 9.446 12 10 L 12 11 C 12 11.554 12.446 12 13 12 C 13.554 12 14 11.554 14 11 L 14 10 C 14 9.446 13.554 9 13 9 z"/>
</svg>
