<svg xmlns="http://www.w3.org/2000/svg" width="22" height="22" version="1.1">
 <defs>
  <style id="current-color-scheme" type="text/css">
   .ColorScheme-Text { color:#c9ebf4; } .ColorScheme-Highlight { color:#4285f4; } .ColorScheme-NeutralText { color:#ff9800; } .ColorScheme-PositiveText { color:#4caf50; } .ColorScheme-NegativeText { color:#f44336; }
  </style>
 </defs>
 <g transform="translate(-425 -1005.4)">
  <path style="fill:currentColor" class="ColorScheme-Text" d="m430 1008.4c-2 0-2 2-2 2v12c0 2 2 2 2 2h12s2 0 2-2v-12c0-2-2-2-2-2h-12zm0 1.9981h12v12h-12v-12zm1 6v5h10v-5h-10z"/>
 </g>
</svg>
