<svg xmlns="http://www.w3.org/2000/svg" width="22" height="22" version="1.1">
 <defs>
  <style id="current-color-scheme" type="text/css">
   .ColorScheme-Text { color:#c9ebf4; } .ColorScheme-Highlight { color:#4285f4; } .ColorScheme-NeutralText { color:#ff9800; } .ColorScheme-PositiveText { color:#4caf50; } .ColorScheme-NegativeText { color:#f44336; }
  </style>
 </defs>
 <path style="fill:currentColor;opacity:0.3" class="ColorScheme-Text" d="M 4 5 C 2.892 5 2 5.892 2 7 L 2 15 C 2 16.108 2.892 17 4 17 L 15 17 C 15 16.483086 15.188612 15.978203 15.554688 15.591797 A 1.0001 1.0001 0 0 1 15.572266 15.572266 L 15.644531 15.5 L 15.572266 15.427734 C 15.44358 15.299049 15.346135 15.152415 15.261719 15 L 5 15 L 5 7 L 17 7 L 17 12 C 17.518095 12 18.038209 12.182753 18.427734 12.572266 A 1.0001 1.0001 0 0 1 18.431641 12.578125 L 18.5 12.646484 L 18.568359 12.578125 A 1.0001 1.0001 0 0 1 18.572266 12.572266 C 18.974873 12.169658 19.483086 12 20 12 L 20 7 C 20 5.892 19.108 5 18 5 L 4 5 z M 10 5.5 L 12 5.5 L 12 6 L 10 6 L 10 5.5 z"/>
 <path style="fill:currentColor" class="ColorScheme-Text" d="m 16,13 v 1 c 0,0.28 0.1,0.54 0.28,0.72 l 0.78,0.78 -0.78,0.78 C 16.1,16.47 16,16.73 16,17 v 1 h 1 c 0.28,0 0.54,-0.1 0.72,-0.28 l 0.78,-0.78 0.78,0.78 C 19.46,17.9 19.73,18 20,18 h 1 v -1 c 0,-0.27 -0.1,-0.53 -0.28,-0.72 L 19.94,15.5 20.72,14.72 C 20.9,14.54 21,14.28 21,14 v -1 h -1 c -0.27,0 -0.54,0.1 -0.72,0.28 L 18.5,14.07 17.72,13.28 C 17.54,13.1 17.28,13 17,13 Z"/>
</svg>
