<svg xmlns="http://www.w3.org/2000/svg" width="22" height="22" version="1.1">
 <defs>
  <style id="current-color-scheme" type="text/css">
   .ColorScheme-Text { color:#c9ebf4; } .ColorScheme-Highlight { color:#4285f4; } .ColorScheme-NeutralText { color:#ff9800; } .ColorScheme-PositiveText { color:#4caf50; } .ColorScheme-NegativeText { color:#f44336; }
  </style>
 </defs>
 <g>
  <path style="fill:currentColor" class="ColorScheme-Text" d="M 20.587042,13.915801 22,15.328644 l -4.252463,4.252517 0.0059,0.006 L 16.338575,21 12.1,16.761471 l 1.412758,-1.412844 2.82192,2.819691 z M 13,8.0000002 13,10 9,10 9,8.0000002 6.0000002,11 9,14 l 0,-2 4,0 0,2 3,-3 z M 19,11 c -0.0016,1.571558 -0.467437,3.108196 -1.336919,4.417323 l -1.335597,1.335584 -2.821662,-2.821631 -2.831359,2.821631 2.050336,2.050313 C 12.158703,18.930569 11.58024,18.997763 11,18.999999 c -4.4172782,0 -8.0000001,-3.582769 -8.0000001,-8 C 2.9999999,6.5827676 6.582572,2.9998486 11,2.9999986 15.417428,3.00015 19,6.5827694 19,11 Z"/>
 </g>
</svg>
