<svg xmlns="http://www.w3.org/2000/svg" width="22" height="22" version="1.1">
 <defs>
  <style id="current-color-scheme" type="text/css">
   .ColorScheme-Text { color:#c9ebf4; } .ColorScheme-Highlight { color:#4285f4; } .ColorScheme-NeutralText { color:#ff9800; } .ColorScheme-PositiveText { color:#4caf50; } .ColorScheme-NegativeText { color:#f44336; }
  </style>
 </defs>
 <path style="fill:currentColor" class="ColorScheme-Text" d="M 9.3967,2.795 C 8.1919,2.8272 7.5371,3.9218 7.0295,4.9181 6.8443,5.0115 6.6561,5.0938 6.4728,5.1954 5.4781,5.8641 4.6626,6.7915 4.0334,7.8048 3.4799,8.7817 3.1444,9.867 3.0197,10.981 2.9456,12.11 3.075,13.261 3.5002,14.317 3.8297,15.245 4.4099,16.265 5.1525,16.9 6.1384,17.558 6.9224,18.034 7.9982,17.988 5.7584,16.196 4.5766,14.048 4.2033,11.52 4.1915,11.331 4.1683,11.126 4.2365,11.176 4.4918,11.581 4.5512,11.566 4.9943,11.795 4.6123,10.366 5.1224,8.7746 5.7463,7.6134 5.8243,7.524 5.9091,7.4383 5.9924,7.3516 L 6.0314,7.3575 C 6.0454,7.5808 6.0719,7.8055 6.0978,8.0216 6.093,8.1257 6.1594,8.3034 6.1799,8.4181 6.1645,8.4583 6.0811,8.6989 6.049,9.0001 6.0297,9.1194 6.029,9.2366 6.0471,9.3516 6.0503,9.3743 6.0521,9.3958 6.0568,9.4181 6.0665,9.4585 6.0775,9.4994 6.0939,9.5391 6.1287,9.633 6.175,9.7217 6.2502,9.795 6.278,9.6696 6.3348,9.5684 6.4123,9.4845 6.4316,9.4635 6.4609,9.4507 6.4826,9.4317 6.5528,9.3722 6.6262,9.3148 6.7053,9.2716 6.7208,9.2631 6.7211,9.2658 6.7365,9.2579 6.9329,9.1577 7.1261,9.0958 7.1271,9.0958 L 7.1428,9.0802 C 7.224,9.0471 7.3059,9.0114 7.381,8.9747 8.5082,7.876 9.5742,7.6837 10.994,7.795 11.776,7.795 12.221,7.592 12.994,7.2442 14.181,7.7403 14.69,8.5149 14.994,9.795 15.109,10.757 13.563,13.065 12.994,13.793 12.994,13.793 12.99,13.795 12.99,13.795 12.99,13.795 12.994,13.795 12.994,13.795 13.006,13.797 14.712,13.035 15.393,12.389 14.907,16.144 12.207,18.471 10.994,18.995 11.931,19.058 13.215,18.474 14.098,17.935 13.695,18.367 13.263,18.835 12.994,18.995 14.049,18.7 15.048,18.592 15.713,18.107 15.713,18.107 16.252,17.613 16.817,16.969 16.892,16.884 17.021,16.766 17.098,16.668 17.146,16.608 17.192,16.546 17.238,16.485 17.247,16.475 17.256,16.464 17.264,16.454 18.451,15.001 19.029,13.196 18.987,11.559 18.995,9.5748 18.189,7.8535 16.836,6.4298 15.858,5.4002 14.747,4.7687 13.746,4.4278 12.711,4.1305 11.493,3.9797 10.457,4.0372 10.354,4.0385 10.066,4.0469 9.674,4.0802 9.6282,3.9938 9.6852,3.6734 9.797,3.5938 9.5519,3.6168 9.326,3.9357 9.1174,4.1563 9.0822,4.1632 9.0462,4.1701 9.0138,4.1778 9.2018,3.8527 9.3934,3.4869 9.6174,3.1954 8.9235,3.3249 8.6207,3.8705 8.2814,4.3731 8.1835,4.4054 8.0885,4.4445 7.9924,4.4806 8.244,3.7544 8.7173,3.3569 9.3967,2.795 Z M 7.5978,6.9952 C 7.7919,6.9915 7.9672,7.0245 7.9689,7.0245 7.9722,7.0245 8.0565,7.3646 7.8967,7.6554 7.7368,7.9473 7.3647,8.0641 7.1584,7.9542 6.9476,7.8443 6.9483,7.4766 7.1115,7.1847 7.1903,7.0387 7.4037,6.999 7.5978,6.9952 Z"/>
 <path style="opacity:0.3;fill:currentColor" class="ColorScheme-Text" d="M 12.818,8.311 C 12.251,8.5428 11.717,8.7954 10.994,8.7954 10.968,8.7958 10.942,8.7951 10.916,8.7935 9.6242,8.6922 9.0214,8.7725 8.0781,9.6919 8.0023,9.7656 7.9153,9.8271 7.8203,9.8735 7.7606,9.9028 7.7041,9.9247 7.6465,9.9497 7.5809,9.9904 7.5106,10.023 7.4375,10.048 L 8.9941,11.796 13.908,10.251 C 13.948,10.103 13.986,9.9344 13.992,9.9497 13.765,9.0274 13.495,8.6471 12.818,8.311 Z M 7.1445,10.218 C 6.9358,10.657 6.4448,10.893 5.9707,10.755 5.9707,11.017 5.8982,11.303 5.9609,11.538 6.0636,11.928 5.9219,12.342 5.6016,12.587 5.7931,13.256 6.0397,13.897 6.3633,14.509 L 12.568,16.411 C 12.606,16.365 12.646,16.33 12.684,16.282 13.073,15.792 13.438,15.214 13.738,14.558 13.729,14.562 13.714,14.569 13.705,14.573 13.613,14.617 13.537,14.651 13.48,14.677 13.452,14.69 13.429,14.698 13.406,14.708 13.395,14.713 13.386,14.718 13.367,14.726 13.358,14.729 13.348,14.732 13.322,14.741 13.309,14.746 13.256,14.761 13.256,14.761 13.256,14.761 13.166,14.782 13.166,14.782 13.166,14.782 12.908,14.788 12.877,14.788 12.103,14.696 11.727,13.793 12.207,13.179 12.21,13.175 12.218,13.163 12.221,13.159 12.464,12.846 12.972,12.117 13.379,11.394 13.491,11.193 13.56,11.021 13.65,10.833 L 8.9941,12.296 Z"/>
</svg>
