<svg xmlns="http://www.w3.org/2000/svg" width="22" height="22" version="1.1">
 <defs>
  <style id="current-color-scheme" type="text/css">
   .ColorScheme-Text { color:#c9ebf4; } .ColorScheme-Highlight { color:#4285f4; } .ColorScheme-NeutralText { color:#ff9800; } .ColorScheme-PositiveText { color:#4caf50; } .ColorScheme-NegativeText { color:#f44336; }
  </style>
 </defs>
 <path style="fill:currentColor" class="ColorScheme-Text" d="m 9.9999971,3.0000036 v 2.085937 a 6,6 0 0 1 0.9999999,-0.08594 6,6 0 0 1 1,0.08984 V 2.9999966 Z M 6.0507782,4.6367226 4.6367161,6.0507846 6.1132782,7.5273475 A 6,6 0 0 1 7.5292941,6.1152376 Z m 9.8984378,0 -1.476563,1.476562 a 6,6 0 0 1 1.41211,1.4160159 l 1.478515,-1.4785159 z m -4.949219,1.363281 a 5,5 0 0 0 -4.9999998,4.9999994 5,5 0 0 0 2.2949219,4.205078 c 0.418395,-0.899362 1.246702,-1.568026 2.2285159,-1.882812 0.646177,-1.320546 1.899347,-2.322266 3.476562,-2.322266 0.732994,0 1.393594,0.222902 1.958984,0.587891 a 5,5 0 0 0 0.04102,-0.587891 5,5 0 0 0 -5,-4.9999994 z M 2.9999971,10.000003 v 2 h 2.085938 a 6,6 0 0 1 -0.08594,-1 6,6 0 0 1 0.08984,-1 z m 13.9140619,0 a 6,6 0 0 1 0.08594,1 6,6 0 0 1 -0.08984,1 h 2.089844 v -2 z m -2.914062,2 c -1.31,0 -2.400547,0.859297 -2.810547,2.029297 -1.2299999,0.16 -2.1894529,1.200703 -2.1894529,2.470703 0,1.38 1.1199999,2.5 2.4999999,2.5 h 5 c 1.38,0 2.5,-1.12 2.5,-2.5 0,-1.27 -0.959453,-2.310703 -2.189453,-2.470703 -0.4,-1.17 -1.500547,-2.029297 -2.810547,-2.029297 z m -7.8847648,2.470703 -1.478516,1.478516 1.414062,1.414062 1.476563,-1.476562 a 6,6 0 0 1 -1.412109,-1.416016 z"/>
</svg>
