/* XPM */
static char * top_left_active_xpm[] = {
"2 26 4 1",
" 	c None",
".	c #0093a1",
"+	c #0093a1",
"@	c #0a0a23",
" .",
".+",
".@",
".@",
".@",
".@",
".@",
".@",
".@",
".@",
".@",
".@",
".@",
".@",
".@",
".@",
".@",
".@",
".@",
".@",
".@",
".@",
".@",
".@",
".@",
".@"};
