<svg xmlns="http://www.w3.org/2000/svg" width="16" height="16" viewBox="0 0 16 16">
 <defs>
  <style id="current-color-scheme" type="text/css">
   .ColorScheme-Text { color:#cb8c8e; } .ColorScheme-Highlight { color:#4285f4; } .ColorScheme-NeutralText { color:#ff9800; } .ColorScheme-PositiveText { color:#4caf50; } .ColorScheme-NegativeText { color:#f44336; }
  </style>
 </defs>
 <path style="fill:currentColor" class="ColorScheme-Text" d="M 13 0 L 13 2 L 15 2 L 15 0 L 13 0 z M 13 2 L 11 2 L 11 3 L 1 3 L 1 7 L 11 7 L 11 11 L 1 11 L 1 15 L 11 15 L 11 16 L 13 16 L 13 2 z"/>
</svg>
