<svg xmlns="http://www.w3.org/2000/svg" width="16" height="16" version="1.1">
 <defs>
  <style id="current-color-scheme" type="text/css">
   .ColorScheme-Text { color:#cb8c8e; } .ColorScheme-Highlight { color:#4285f4; } .ColorScheme-NeutralText { color:#ff9800; } .ColorScheme-PositiveText { color:#4caf50; } .ColorScheme-NegativeText { color:#f44336; }
  </style>
 </defs>
 <path style="fill:currentColor;opacity:.35" class="ColorScheme-Text" d="M 16,8 A 5,5 0 0 1 11,13 5,5 0 0 1 6,8 5,5 0 0 1 11,3 5,5 0 0 1 16,8 Z"/>
 <path style="opacity:0.7;fill:currentColor" class="ColorScheme-Text" d="M 11,3 A 5,5 0 0 0 6,8 5,5 0 0 0 11,13 5,5 0 0 0 16,8 5,5 0 0 0 11,3 Z M 11,4 A 4,4 0 0 1 15,8 4,4 0 0 1 11,12 4,4 0 0 1 7,8 4,4 0 0 1 11,4 Z"/>
 <path style="fill:currentColor" class="ColorScheme-Text" d="M 10,0 H 12 V 16 H 10 Z"/>
</svg>
