<svg xmlns="http://www.w3.org/2000/svg" width="16" height="16" version="1.1">
 <defs>
  <style id="current-color-scheme" type="text/css">
   .ColorScheme-Text { color:#cb8c8e; } .ColorScheme-Highlight { color:#4285f4; } .ColorScheme-NeutralText { color:#ff9800; } .ColorScheme-PositiveText { color:#4caf50; } .ColorScheme-NegativeText { color:#f44336; }
  </style>
 </defs>
 <path style="fill:currentColor" class="ColorScheme-Text" d="M 3,1 C 1.892,1 1,1.892 1,3 V 13 C 1,14.108 1.892,15 3,15 H 13 C 14.108,15 15,14.108 15,13 V 3 C 15,1.892 14.108,1 13,1 Z M 6.6816,3 H 7 V 3.7559 H 6.6465 C 6.1745,3.7559 5.8682,3.835 5.7266,3.9902 5.5816,4.1419 5.5078,4.4679 5.5078,4.9688 V 6.2812 C 5.5078,6.8351 5.4331,7.2363 5.2812,7.4863 5.1296,7.7373 4.8664,7.9061 4.4922,7.9941 4.8664,8.0891 5.1296,8.2627 5.2812,8.5137 5.433,8.7637 5.5078,9.1648 5.5078,9.7148 V 11.027 C 5.5078,11.532 5.5816,11.858 5.7266,12.01 5.8682,12.161 6.1745,12.238 6.6465,12.238 H 7 V 13 H 6.6816 C 5.8422,13 5.2818,12.87 5.002,12.609 4.7188,12.348 4.5781,11.826 4.5781,11.047 V 9.7832 C 4.5781,9.2512 4.4867,8.8817 4.3047,8.6777 4.1226,8.4727 3.7932,8.3711 3.3145,8.3711 H 3 V 7.6133 H 3.3145 C 3.7932,7.6133 4.1226,7.5145 4.3047,7.3125 4.4867,7.1085 4.5781,6.7424 4.5781,6.2168 V 4.9473 C 4.5781,4.1677 4.7188,3.6481 5.002,3.3906 5.2818,3.1296 5.8422,3 6.6816,3 Z M 9,3 H 9.3184 C 10.158,3 10.718,3.1296 10.998,3.3906 11.281,3.6481 11.422,4.1677 11.422,4.9473 V 6.2168 C 11.422,6.7424 11.513,7.1085 11.695,7.3125 11.877,7.5145 12.207,7.6133 12.686,7.6133 H 13 V 8.3711 H 12.686 C 12.207,8.3711 11.877,8.4727 11.695,8.6777 11.513,8.8817 11.422,9.2512 11.422,9.7832 V 11.047 C 11.422,11.826 11.281,12.348 10.998,12.609 10.718,12.87 10.158,13 9.3184,13 H 9 V 12.238 H 9.3535 C 9.8255,12.238 10.132,12.161 10.273,12.01 10.418,11.858 10.492,11.532 10.492,11.027 V 9.7148 C 10.492,9.1648 10.567,8.7637 10.719,8.5137 10.87,8.2627 11.134,8.0891 11.508,7.9941 11.134,7.9061 10.87,7.7373 10.719,7.4863 10.567,7.2363 10.492,6.8351 10.492,6.2812 V 4.9688 C 10.492,4.468 10.418,4.1419 10.273,3.9902 10.132,3.835 9.8255,3.7559 9.3535,3.7559 H 9 Z"/>
</svg>
