<svg xmlns="http://www.w3.org/2000/svg" width="16" height="16" version="1.1">
 <defs>
  <style id="current-color-scheme" type="text/css">
   .ColorScheme-Text { color:#cb8c8e; } .ColorScheme-Highlight { color:#4285f4; } .ColorScheme-NeutralText { color:#ff9800; } .ColorScheme-PositiveText { color:#4caf50; } .ColorScheme-NegativeText { color:#f44336; }
  </style>
 </defs>
 <path style="fill:currentColor" class="ColorScheme-Text" d="M 7.6660156 1 C 7.6660156 1 7 1.000558 7 1.7148438 L 7 5.3203125 L 8.7304688 7.1757812 A 1.0001 1.0001 0 0 1 9 7.8574219 L 9 11 L 11.033203 11 C 11.099138 10.676389 11.259308 10.379364 11.486328 10.152344 A 1.0001 1.0001 0 0 0 11.488281 10.150391 L 11.640625 10 L 11.488281 9.8496094 A 1.0001 1.0001 0 0 0 11.486328 9.8476562 C 11.183003 9.5443314 11 9.1145857 11 8.6660156 L 11 8 A 1.0001 1.0001 0 0 1 12 7 L 12.666016 7 C 13.114586 7 13.544378 7.183 13.847656 7.4863281 A 1.0001 1.0001 0 0 0 13.849609 7.4882812 L 14 7.640625 L 14.150391 7.4882812 A 1.0001 1.0001 0 0 0 14.152344 7.4863281 C 14.379399 7.259273 14.6764 7.0991266 15 7.0332031 L 15 3.8574219 L 12.333984 1 L 7.6660156 1 z M 0.66601562 5 C 0.66601563 5 1.4802974e-16 5.000558 0 5.7148438 L 0 14.285156 C 0 14.999442 0.66601562 15 0.66601562 15 L 7.3339844 15 C 8.0006514 15 8 14.285156 8 14.285156 L 8 7.8574219 L 5.3339844 5 L 0.66601562 5 z M 12 8 L 12 8.6660156 C 12 8.8526816 12.073359 9.020625 12.193359 9.140625 L 13.060547 10 L 12.193359 10.859375 C 12.073359 10.979375 12 11.147318 12 11.333984 L 12 12 L 12.666016 12 C 12.852682 12 13.020625 11.926641 13.140625 11.806641 L 14 10.939453 L 14.859375 11.806641 C 14.979375 11.926641 15.147318 12 15.333984 12 L 16 12 L 16 11.333984 C 16 11.147318 15.926641 10.979375 15.806641 10.859375 L 14.939453 10 L 15.806641 9.140625 C 15.926641 9.020625 16 8.8526816 16 8.6660156 L 16 8 L 15.333984 8 C 15.147318 8 14.979375 8.0733594 14.859375 8.1933594 L 14 9.0605469 L 13.140625 8.1933594 C 13.020625 8.0733594 12.852682 8 12.666016 8 L 12 8 z"/>
</svg>
