<svg xmlns="http://www.w3.org/2000/svg" width="16" height="16" version="1.1">
 <defs>
  <style id="current-color-scheme" type="text/css">
   .ColorScheme-Text { color:#cb8c8e; } .ColorScheme-Highlight { color:#4285f4; } .ColorScheme-NeutralText { color:#ff9800; } .ColorScheme-PositiveText { color:#4caf50; } .ColorScheme-NegativeText { color:#f44336; }
  </style>
 </defs>
 <path style="fill:currentColor" class="ColorScheme-Text" d="M 13,1 16,5 H 10 Z M 6,1 1,15 H 3.5 L 4.5625,12 H 9.4375 L 10.5,15 H 13.25 L 8,1 Z M 7,5 8.75,10 H 5.25 Z"/>
</svg>
