<svg xmlns="http://www.w3.org/2000/svg" width="16" height="16" version="1.1">
 <defs>
  <style id="current-color-scheme" type="text/css">
   .ColorScheme-Text { color:#cb8c8e; } .ColorScheme-Highlight { color:#4285f4; } .ColorScheme-NeutralText { color:#ff9800; } .ColorScheme-PositiveText { color:#4caf50; } .ColorScheme-NegativeText { color:#f44336; }
  </style>
 </defs>
 <path style="fill:currentColor;fill-rule:evenodd" class="ColorScheme-Text" d="M 8.0058594 0 C 5.1586894 0 3 2.3169881 3 5.1738281 L 3 8.0058594 L 2.0058594 8.0058594 L 2 7.9941406 L 2 11.771484 C 2.88306 10.581234 4.2374631 9.5945736 6.4707031 9.4335938 C 8.1557642 9.3037047 10.904138 9.3401802 13 8.03125 L 13 5.1738281 C 13 2.3169881 10.853139 0 8.0058594 0 z M 8 2 C 9.6566056 2 11 3.4235227 11 5.1796875 L 11 8 L 5 8 L 5 5.1796875 C 5 3.4235227 6.3434376 2 8 2 z M 14.005859 8.6972656 C 12.620569 10.166325 10.460014 11.589703 7.6210938 11.595703 C 9.4965938 11.844883 11.201768 11.503673 12.179688 11.025391 C 13.157668 10.547551 14.667101 9.40103 13.613281 10.787109 C 12.559381 12.173219 10.704037 13.72145 5.9355469 13.65625 C 7.4495669 14.05558 9.7142052 14.024285 10.884766 13.726562 C 12.055126 13.428702 13.182347 12.620762 12.148438 13.679688 C 11.114626 14.738478 9.0137081 15.536962 7.1113281 15.476562 C 5.7143881 15.432251 4.8700213 15.36863 3.7382812 16 L 14.005859 16 L 14.005859 8.6972656 z"/>
</svg>
