<svg xmlns="http://www.w3.org/2000/svg" width="16" height="16" version="1.1">
 <defs>
  <style id="current-color-scheme" type="text/css">
   .ColorScheme-Text { color:#cb8c8e; } .ColorScheme-Highlight { color:#4285f4; } .ColorScheme-NeutralText { color:#ff9800; } .ColorScheme-PositiveText { color:#4caf50; } .ColorScheme-NegativeText { color:#f44336; }
  </style>
 </defs>
 <circle style="fill:currentColor" class="ColorScheme-Text" cx="2" cy="8" r="2"/>
 <path style="fill:currentColor" class="ColorScheme-Text" d="M 16,7 H 9 L 12.5,3.5 11,2 5,8 11,14 12.5,12.5 9,9 H 16 Z"/>
</svg>
