<svg xmlns="http://www.w3.org/2000/svg" width="16" height="16" version="1.1">
 <defs>
  <style id="current-color-scheme" type="text/css">
   .ColorScheme-Text { color:#cb8c8e; } .ColorScheme-Highlight { color:#4285f4; } .ColorScheme-NeutralText { color:#ff9800; } .ColorScheme-PositiveText { color:#4caf50; } .ColorScheme-NegativeText { color:#f44336; }
  </style>
 </defs>
 <path style="fill:currentColor" class="ColorScheme-Text" d="M 1,1 V 3 H 5 V 5 H 7 V 1 Z M 7,5 V 7 H 11 V 5 Z M 11,5 H 13 V 3 H 11 Z M 11,3 V 1 H 9 V 3 Z M 7,7 H 5 V 9 H 7 Z M 5,9 H 3 V 11 H 5 Z M 3,9 V 7 H 1 V 9 Z M 3,7 H 5 V 5 H 3 Z M 11,9 V 11 H 13 V 9 Z M 13,11 V 15 H 15 V 11 Z M 7,11 V 13 H 9 V 11 Z M 9,13 V 15 H 11 V 13 Z M 3,13 V 15 H 5 V 13 Z"/>
</svg>
