<svg xmlns="http://www.w3.org/2000/svg" width="16" height="16" version="1.1">
 <defs>
  <style id="current-color-scheme" type="text/css">
   .ColorScheme-Text { color:#cb8c8e; } .ColorScheme-Highlight { color:#4285f4; } .ColorScheme-NeutralText { color:#ff9800; } .ColorScheme-PositiveText { color:#4caf50; } .ColorScheme-NegativeText { color:#f44336; }
  </style>
 </defs>
 <path style="fill:currentColor;opacity:.35" d="M 5 4 C 4.4477 4 4 4.4477 4 5 C 4 5.2652 4.1054687 5.5195313 4.2929688 5.7070312 L 6.5859375 8 L 4.2929688 10.292969 C 4.1054687 10.479969 4 10.735 4 11 C 4 11.552 4.4477 12 5 12 C 5.2652 12 5.5195312 11.895031 5.7070312 11.707031 L 8 9.4140625 L 10.292969 11.707031 C 10.479969 11.895031 10.735 12 11 12 C 11.552 12 12 11.552 12 11 C 12 10.735 11.895031 10.479969 11.707031 10.292969 L 9.4140625 8 L 11.707031 5.7070312 C 11.895031 5.5200312 12 5.265 12 5 C 12 4.448 11.552 4 11 4 C 10.735 4 10.479969 4.1049688 10.292969 4.2929688 L 8 6.5859375 L 5.7070312 4.2929688 C 5.5195312 4.1054688 5.2652 4 5 4 z"/>
</svg>
