<svg xmlns="http://www.w3.org/2000/svg" width="16" height="16" version="1.1">
 <defs>
  <style id="current-color-scheme" type="text/css">
   .ColorScheme-Text { color:#cb8c8e; } .ColorScheme-Highlight { color:#4285f4; } .ColorScheme-NeutralText { color:#ff9800; } .ColorScheme-PositiveText { color:#4caf50; } .ColorScheme-NegativeText { color:#f44336; }
  </style>
 </defs>
 <path style="opacity:.35;fill:currentColor" class="ColorScheme-Text" d="M 2,1 C 2,1 1,1 1,2 V 13 C 1,13 1,14 2,14 H 14 C 14,14 15,14 15,13 V 4 C 15,3 14,3 14,3 H 9 L 7,1 Z M 11.5,7 13.166,8.2852 11.5,9.5723 V 8.7148 C 10.58,8.7148 9.834,9.481 9.834,10.428 9.834,11.375 10.58,12.143 11.5,12.143 12.42,12.143 13.166,11.375 13.166,10.428 13.166,10.191 13.354,10 13.584,10 13.814,10 14,10.192 14,10.428 V 10.471 C 13.976,11.871 12.867,13 11.5,13 10.119,13 9,11.848 9,10.428 9,9 10.119,7.8574 11.5,7.8574 Z"/>
</svg>
