<svg xmlns="http://www.w3.org/2000/svg" width="16" height="16" version="1.1">
 <defs>
  <style id="current-color-scheme" type="text/css">
   .ColorScheme-Text { color:#cb8c8e; } .ColorScheme-Highlight { color:#4285f4; } .ColorScheme-NeutralText { color:#ff9800; } .ColorScheme-PositiveText { color:#4caf50; } .ColorScheme-NegativeText { color:#f44336; }
  </style>
 </defs>
 <path style="fill:currentColor" class="ColorScheme-Text" d="M 2,2 C 0,2 0,4 0,4 V 12 C 0,12 0,14 2,14 H 14 C 16,14 16,12 16,12 V 4 C 16,4 16,2 14,2 Z M 7,4 H 9 V 8 L 10.5,6.5 12,8 8,12 4,8 5.5,6.5 7,8 Z"/>
</svg>
