<svg xmlns="http://www.w3.org/2000/svg" width="16" height="16" version="1.1">
 <defs>
  <style id="current-color-scheme" type="text/css">
   .ColorScheme-Text { color:#cb8c8e; } .ColorScheme-Highlight { color:#4285f4; } .ColorScheme-NeutralText { color:#ff9800; } .ColorScheme-PositiveText { color:#4caf50; } .ColorScheme-NegativeText { color:#f44336; }
  </style>
 </defs>
 <path style="fill:currentColor" class="ColorScheme-Text" d="M 6.5,1.5 0,6 6.5,10.5 V 9.1152 L 2,6 6.5,2.8848 Z M 10,1.5 V 4 H 11 C 14,4 16,6 16,9 16,12.6 12,14 12,14 12,14 13.5,11.8 13.5,10.5 13.5,9.2 12,8 10.5,8 H 10 V 10.5 L 3.5,6 Z"/>
</svg>
