<svg xmlns="http://www.w3.org/2000/svg" width="16" height="16" version="1.1">
 <defs>
  <style id="current-color-scheme" type="text/css">
   .ColorScheme-Text { color:#cb8c8e; } .ColorScheme-Highlight { color:#4285f4; } .ColorScheme-NeutralText { color:#ff9800; } .ColorScheme-PositiveText { color:#4caf50; } .ColorScheme-NegativeText { color:#f44336; }
  </style>
 </defs>
 <path style="fill:currentColor" class="ColorScheme-Text" d="M 1 1 L 1 7 L 3 7 L 3 11 L 3 13 L 9 13 L 9 15 L 15 15 L 15 9 L 9 9 L 9 11 L 5 11 L 5 7 L 7 7 L 7 5 L 9 5 L 9 7 L 15 7 L 15 1 L 9 1 L 9 3 L 7 3 L 7 1 L 1 1 z M 3 3 L 5 3 L 5 5 L 3 5 L 3 3 z M 11 3 L 13 3 L 13 5 L 11 5 L 11 3 z"/>
</svg>
