<svg xmlns="http://www.w3.org/2000/svg" width="16" height="16" version="1.1">
 <defs>
  <style id="current-color-scheme" type="text/css">
   .ColorScheme-Text { color:#cb8c8e; } .ColorScheme-Highlight { color:#4285f4; } .ColorScheme-NeutralText { color:#ff9800; } .ColorScheme-PositiveText { color:#4caf50; } .ColorScheme-NegativeText { color:#f44336; }
  </style>
 </defs>
 <path style="fill:currentColor" class="ColorScheme-Text" d="M 9,5 A 3,3 0 0 1 6,8 3,3 0 0 1 3,5 3,3 0 0 1 6,2 3,3 0 0 1 9,5 Z M 6,10 C 0,10 0,14 0,14 V 15 H 12 V 14 C 12,14 12,10 6,10 Z M 11.5,4 A 2.5,2.5 0 0 0 9.9668,4.5254 4,4 0 0 1 10,5 4,4 0 0 1 9.1758,7.4219 2.5,2.5 0 0 0 11.5,9 2.5,2.5 0 0 0 14,6.5 2.5,2.5 0 0 0 11.5,4 Z M 11.5,10 C 11.114,10 10.746,10.041 10.389,10.102 11.982,11.017 13,12.42 13,14 H 16 V 13 C 16,11.338 13.993,10 11.5,10 Z"/>
</svg>
