<svg xmlns="http://www.w3.org/2000/svg" width="48" height="48" version="1">
 <rect style="opacity:0.2" width="40" height="26" x="4" y="17" rx="2" ry="2"/>
 <path style="fill:#ffc0c0" d="M 4,34 C 4,35.108 4.892,36 6,36 H 42 C 43.108,36 44,35.108 44,34 V 12 C 44,10.892 43.108,10 42,10 H 24 C 21,10 20,6 17,6 H 6 C 4.892,6 4,6.892 4,8"/>
 <rect style="opacity:0.2" width="40" height="26" x="4" y="15" rx="2" ry="2"/>
 <rect style="fill:#e4e4e4" width="36" height="16" x="6" y="13" rx="2" ry="2"/>
 <rect style="fill:#df9c9e" width="40" height="26" x="4" y="16" rx="2" ry="2"/>
 <path style="opacity:0.1;fill:#ffffff" d="M 6,6 C 4.892,6 4,6.892 4,8 V 9 C 4,7.892 4.892,7 6,7 H 17 C 20,7 21,11 24,11 H 42 C 43.108,11 44,11.892 44,13 V 12 C 44,10.892 43.108,10 42,10 H 24 C 21,10 20,6 17,6 Z"/>
 <path style="fill:#df9c9e" d="M 24,21 C 19.582,21 16,24.582 16,29 16,33.418 19.582,37 24,37 28.418,37 32,33.418 32,29 32,24.582 28.418,21 24,21 Z M 23.429,23.214 C 23.505,23.206 23.601,23.219 23.679,23.214 23.688,23.251 23.623,23.381 23.536,23.571 22.98,24.784 22.949,26.205 23.464,26.964 23.558,27.102 23.643,27.233 23.643,27.25 23.643,27.267 23.542,27.286 23.429,27.286 23.162,27.286 22.909,27.123 22.393,26.714 22.163,26.533 21.865,26.381 21.749,26.358 21.569,26.321 21.52,26.337 21.285,26.571 21.067,26.79 21,26.907 21,27.107 21,27.865 21.899,28.467 23.571,28.822 25.842,29.303 26.401,29.735 26.464,30.929 26.543,32.426 25.746,33.555 24,34.429 23.791,34.533 23.659,34.574 23.571,34.608 23.532,34.604 23.503,34.611 23.464,34.608 23.449,34.561 23.428,34.454 23.428,34.25 23.428,33.455 23.115,32.637 22.643,32.179 22.516,32.056 22.161,31.796 21.857,31.608 21.553,31.419 21.247,31.201 21.178,31.108 21.065,30.953 21.056,30.858 21.143,30.572 21.301,30.05 21.49,29.759 21.857,29.429 22.049,29.256 22.243,29.111 22.286,29.107 22.328,29.104 22.04,29.017 21.607,28.929 21.174,28.84 20.541,28.655 20.214,28.536 19.616,28.32 18.808,27.865 18.5,27.536 18.487,27.522 18.476,27.513 18.464,27.5 18.906,25.743 20.144,24.302 21.786,23.608 22.129,23.462 22.483,23.363 22.857,23.286 23.043,23.248 23.236,23.234 23.428,23.215 Z M 28.786,25.893 C 28.92,25.976 29.427,27.072 29.571,27.607 29.758,28.298 29.745,29.493 29.571,30.179 29.505,30.44 29.421,30.684 29.393,30.714 29.365,30.745 29.263,30.57 29.143,30.357 29.023,30.145 28.64,29.693 28.321,29.357 27.402,28.387 27.258,27.881 27.643,27.107 27.837,26.717 28.682,25.829 28.786,25.893 Z"/>
</svg>
