/* XPM */
static char * title_2_inactive_xpm[] = {
"2 26 3 1",
" 	c None",
".	c #b15155",
"+	c #b15155",
"..",
"++",
"++",
"++",
"++",
"++",
"++",
"++",
"++",
"++",
"++",
"++",
"++",
"++",
"++",
"++",
"++",
"++",
"++",
"++",
"++",
"++",
"++",
"++",
"++",
"++"};
