<svg xmlns="http://www.w3.org/2000/svg" width="24" height="24" version="1.1">
 <defs>
  <style id="current-color-scheme" type="text/css">
   .ColorScheme-Text { color:#c9ebf4; } .ColorScheme-Highlight { color:#4285f4; } .ColorScheme-NeutralText { color:#ff9800; } .ColorScheme-PositiveText { color:#4caf50; } .ColorScheme-NegativeText { color:#f44336; }
  </style>
 </defs>
 <path style="opacity:0.3;fill:currentColor" class="ColorScheme-Text" d="m 9.5001182,5.9998822 a 1.5,1.5 0 0 0 -1.5,1.5 1.5,1.5 0 0 0 1.5,1.5 c 1.5057918,0 2.9451508,0.322598 4.2441408,1.1269528 0.58635,-0.7705598 1.360446,-1.4293148 2.3125,-1.9609372 C 14.073603,6.6925524 11.777596,5.9998822 9.5001182,5.9998822 Z m -4.984375,1 a 1.5,1.5 0 0 0 -0.1933594,0.00977 1.5,1.5 0 0 0 -1.3125,1.6679688 c 0.3147854,2.6526 1.3501917,4.542607 2.7011719,5.789062 1.3509802,1.246454 2.8989615,1.86006 4.2011719,2.414062 a 1.5,1.5 0 0 0 1.9687494,-0.792968 1.5,1.5 0 0 0 -0.792968,-1.96875 C 9.7661428,13.556658 8.5962319,13.047656 7.7442588,12.261601 6.8922857,11.475545 6.2396782,10.423139 5.9903526,8.3221478 A 1.5,1.5 0 0 0 4.5157432,6.9998822 Z m 14.9179688,1 a 1.5,1.5 0 0 0 -0.292969,0.042969 c -2.563932,0.6328895 -4.236447,1.825765 -5.070313,3.4062498 -0.833864,1.580485 -0.8776,3.21905 -1.060546,4.886719 a 1.5,1.5 0 0 0 1.326172,1.654296 1.5,1.5 0 0 0 1.654296,-1.326172 c 0.192072,-1.750852 0.323857,-3.038319 0.734375,-3.816406 0.410519,-0.778086 1.051246,-1.376322 3.134766,-1.890625 a 1.5,1.5 0 0 0 1.097656,-1.8164058 1.5,1.5 0 0 0 -1.419922,-1.140625 1.5,1.5 0 0 0 -0.103515,0 z m -10.625,1.890625 C 8.69976,10.514433 8.5824616,11.070916 8.449337,11.54871 c 0.6124891,0.554598 1.564615,1.008475 2.701172,1.5 0.283611,-0.809623 0.468286,-1.730234 0.626953,-2.710937 -0.717954,-0.223644 -1.472515,-0.3378908 -2.2773438,-0.3378908 -0.2408508,0 -0.4701414,-0.044206 -0.6914062,-0.109375 z m 10.658203,2.2304688 c -0.567499,0.178648 -1.009016,0.35743 -1.251953,0.517578 -0.33149,0.218523 -0.451048,0.383095 -0.605469,0.675781 -0.108071,0.204836 -0.205371,0.592631 -0.298828,1.095703 a 1.5,1.5 0 0 0 1.847656,0.4375 1.5,1.5 0 0 0 0.689453,-2.005859 c -0.12154,-0.24868 -0.250003,-0.48644 -0.380859,-0.720703 z M 4.7403526,14.904179 C 4.564377,14.942889 4.4279342,14.987339 4.230587,15.02332 a 1.5,1.5 0 0 0 -1.2070313,1.746093 1.5,1.5 0 0 0 1.7460937,1.207031 C 5.9043697,17.769561 6.9024463,17.450122 7.7676963,17.013554 6.8709842,16.574703 5.9244456,16.023231 5.0333213,15.201054 4.932429,15.107968 4.8377445,15.003519 4.7403526,14.904179 Z"/>
</svg>
