<svg xmlns="http://www.w3.org/2000/svg" width="24" height="24" version="1.1">
 <defs>
  <style id="current-color-scheme" type="text/css">
   .ColorScheme-Text { color:#c9ebf4; } .ColorScheme-Highlight { color:#4285f4; } .ColorScheme-NeutralText { color:#ff9800; } .ColorScheme-PositiveText { color:#4caf50; } .ColorScheme-NegativeText { color:#f44336; }
  </style>
 </defs>
 <path style="opacity:0.3;fill:currentColor" class="ColorScheme-Text" d="M 5.40625,5 4,6.40625 5.7324219,8.146484 C 5.2692068,8.995101 5,9.964616 5,11 c 0,2.087 1.0708,3.925 2.6875,5 H 7 c -2,0 -2,2 -2,2 v 1 H 16.585938 L 17.59375,20 19,18.59375 15.439453,15.025391 12.605469,12.191406 9.8125,9.398438 6.9746094,6.5605469 Z M 11,5 C 10.184895,5 9.4077568,5.1625986 8.6992188,5.4570312 L 16.537109,13.294922 C 16.831828,12.586974 17,11.814292 17,11 17,7.6863 14.314,5 11,5 Z m -1.9433594,6.470703 1.4765624,1.476563 C 9.8027455,12.771486 9.2324201,12.201161 9.0566406,11.470703 Z"/>
</svg>
