<svg xmlns="http://www.w3.org/2000/svg" width="24" height="24" version="1.1">
 <defs>
  <style id="current-color-scheme" type="text/css">
   .ColorScheme-Text { color:#c9ebf4; } .ColorScheme-Highlight { color:#4285f4; } .ColorScheme-NeutralText { color:#ff9800; } .ColorScheme-PositiveText { color:#4caf50; } .ColorScheme-NegativeText { color:#f44336; }
  </style>
 </defs>
 <path style="opacity:0.3;fill:currentColor" class="ColorScheme-Text" d="M 12,4 C 7.5817,4 4,7.5817 4,12 4,14.607 5.2532,16.916 7.1836,18.377 7.219,18.357 7.2562,18.341 7.291,18.32 7.864,17.981 8.4135,17.582 8.9434,17.156 7.1832,16.11 6,14.196 6,12 6,8.6862 8.6863,6 12,6 12.726,6 13.418,6.1349 14.063,6.3711 14.065,5.8268 14.04,5.2831 13.945,4.748 13.999,4.5617 14.02,4.4675 14.061,4.2812 V 4.2773 C 13.402,4.1019 12.714,4 12,4 Z M 14.178,4.3066 C 14.336,5.0296 14.391,5.7626 14.391,6.498 16.514,7.422 18,9.536 18,12 18,15.313 15.314,18 12,18 11.032,18 10.12,17.765 9.3105,17.357 9.3018,17.365 9.2939,17.374 9.2852,17.381 8.7062,17.852 8.0814,18.238 7.4199,18.553 8.718,19.462 10.295,20 12,20 16.418,20 20,16.418 20,12 20,8.3376 17.536,5.2559 14.178,4.3066 Z"/>
 <path style="fill:currentColor" class="ColorScheme-Text" d="M 14.115,4.002 C 14.115,4.002 14.083,4.1676 14.061,4.2813 14.02,4.4676 13.945,4.7481 13.945,4.7481 14.102,5.6384 14.106,6.5551 14.02,7.4512 L 13.936,8.0626 C 13.917,8.1087 14.309,8.0997 14.309,8.0997 L 14.369,7.4688 C 14.421,6.3079 14.415,5.1394 14.115,4.002 Z M 13.916,8.1094 C 13.535,8.4479 13.149,8.8068 12.863,9.215 12.174,10.201 11.734,11.447 10.844,12.299 10.482,12.644 9.627,13.209 9.627,13.209 9.8549,13.242 10.108,13.265 10.336,13.219 9.8762,13.51 9.3618,13.786 8.9863,14.174 8.9863,14.174 8.6078,14.558 8.4277,14.756 8.5733,14.666 8.7437,14.564 8.9199,14.563 9.2111,14.559 9.7695,14.236 9.7695,14.236 9.7695,14.236 8.7181,14.913 8.2871,15.332 8.2871,15.332 7.7654,15.798 7.5547,16.07 L 7.3613,16.311 C 7.7157,16.18 8.0756,16.045 8.4473,15.965 L 8.0742,16.096 C 7.7447,16.226 7.3675,16.324 7.0859,16.488 6.5783,16.785 6.0751,17.545 5.7227,18.047 5.5349,18.312 5.2255,18.536 5.0723,18.809 4.9841,18.965 4.9926,19.129 5.0137,19.17 5.1688,19.455 5.9439,19.696 6.3691,19.801 6.8806,19.924 7.4185,19.979 7.9453,20 8.2575,19.935 8.5807,19.806 8.8105,19.586 9.1228,19.288 9.5738,18.999 9.7539,18.613 9.8573,18.395 10.016,18.267 10.022,18.264 9.7859,18.653 9.5277,19.031 9.248,19.389 9.114,19.558 8.9297,19.773 8.9297,19.773 9.2419,19.662 9.5685,19.478 9.875,19.428 10.065,19.396 10.274,19.308 10.42,19.174 10.575,19.03 10.809,18.973 10.947,18.826 11.328,18.418 11.585,17.796 11.949,17.367 L 12.189,17.057 12.311,16.885 11.709,18.193 11.705,18.205 C 11.64,18.323 11.543,18.437 11.443,18.543 L 11.404,18.586 11.424,18.59 C 11.813,18.385 12.156,18.072 12.527,17.826 L 12.559,17.807 C 12.836,17.646 13.082,17.362 13.287,17.135 13.481,16.92 13.579,16.79 13.631,16.484 L 13.635,16.457 13.859,15.137 13.932,14.748 13.961,14.654 V 14.701 C 13.946,15.475 13.821,16.308 13.94,17.068 14.028,17.631 14.078,17.516 14.078,17.516 14.13,16.852 14.061,16.045 14.279,15.441 14.427,15.033 14.664,14.59 14.74,14.15 14.819,13.699 14.816,13.218 14.805,12.756 14.789,12.158 14.752,11.555 14.666,10.959 14.747,11.242 14.864,11.539 14.879,11.83 L 14.91,12.672 C 14.975,12.325 15.025,11.956 14.986,11.603 14.95,11.279 15.013,10.948 14.977,10.629 14.977,10.629 14.915,9.76 14.773,9.363 14.637,8.9757 14.461,8.5888 14.357,8.1993 L 14.295,8.1094 C 14.145,9.174 13.78,10.257 13.445,11.25 13.023,12.507 12.346,13.57 11.709,14.709 11.124,15.754 10.197,16.638 9.2852,17.381 8.4899,18.028 7.6104,18.522 6.6641,18.879 6.3697,18.989 6.0402,19.027 5.7285,19.037 5.4991,19.043 5.3281,19.029 5.3281,19.029 6.0049,18.884 6.6907,18.675 7.291,18.32 8.9562,17.334 10.525,15.983 11.502,14.262 12.123,13.169 12.71,12.097 13.119,10.897 13.425,9.995 13.743,9.058 13.916,8.1094 Z"/>
</svg>
