<svg xmlns="http://www.w3.org/2000/svg" width="24" height="24" version="1.1">
 <defs>
  <style id="current-color-scheme" type="text/css">
   .ColorScheme-Text { color:#c9ebf4; } .ColorScheme-Highlight { color:#4285f4; } .ColorScheme-NeutralText { color:#ff9800; } .ColorScheme-PositiveText { color:#4caf50; } .ColorScheme-NegativeText { color:#f44336; }
  </style>
 </defs>
 <path fill-rule="evenodd" style="fill:currentColor" class="ColorScheme-Text" d="m9.5859 10c-0.58764 0-1.2662 1.1027-1.9844 2.2695-0.13409 0.21714-0.26464 0.42843-0.39062 0.625-0.40496 0.70629-0.95117 1.8126-1.4785 2.1074-0.44185 0.24343-0.92012 0.40234-1.3008 0.40234-0.25737 0-0.35957-0.0787-0.38477-0.10156-0.1754-0.166-0.3866-0.303-0.5468-0.303-0.2268 0-0.5 0-0.5 0.5 0 1.5 3.0663 2.393 4.4258 2.484 0.1899 0.011 0.384 0.016 0.582 0.016h0.048828c1.4632-0.02514 2.7797-0.70087 3.5293-1.8083 0.15388-0.22629 0.37537-0.19141 0.41406-0.19141 0.0387 0 0.26018-0.03488 0.41406 0.19141 0.74962 1.1074 2.066 1.7832 3.5293 1.8083h0.04883c0.19798 0 0.39215-0.0053 0.58203-0.01563 1.36-0.091 4.426-0.984 4.426-2.484 0-0.5-0.273-0.5-0.5-0.5-0.16018 0-0.37139 0.13702-0.54688 0.30273-0.0252 0.02286-0.12739 0.10156-0.38477 0.10156-0.38066 0-0.85893-0.15892-1.3008-0.40234-0.52735-0.29486-1.0736-1.4011-1.4785-2.1074-0.12599-0.19657-0.25654-0.40786-0.39062-0.625-0.718-1.167-1.396-2.27-1.984-2.27-0.417 0-0.9 0.298-1.365 0.586-0.388 0.24-0.788 0.414-1.049 0.414s-0.661-0.174-1.049-0.414c-0.465-0.288-0.948-0.586-1.3651-0.586z"/>
</svg>
