<svg xmlns="http://www.w3.org/2000/svg" width="24" height="24" version="1.1">
 <defs>
  <style id="current-color-scheme" type="text/css">
   .ColorScheme-Text { color:#c9ebf4; } .ColorScheme-Highlight { color:#4285f4; } .ColorScheme-NeutralText { color:#ff9800; } .ColorScheme-PositiveText { color:#4caf50; } .ColorScheme-NegativeText { color:#f44336; }
  </style>
 </defs>
 <path style="fill:currentColor" class="ColorScheme-Text" d="M 15,12 C 15,13.657 13.657,15 12,15 10.343,15 9,13.657 9,12 9,10.343 10.343,9 12,9 13.657,9 15,10.343 15,12 Z M 5.8322,4.0002 C 5.6216,4.0049 5.4383,4.0807 5.3009,4.2172 5.1057,4.4082 5,4.7174 5,5.1175 V 18.877 C 5,19.277 5.1147,19.587 5.3,19.778 5.5846,20.06 6.028,20.086 6.5334,19.785 L 18.361,12.893 C 19.213,12.402 19.213,11.602 18.361,11.102 L 17.883,10.823 C 17.335,8.0733 14.911,6.0002 12,6.0002 11.346,6.0002 10.716,6.1067 10.127,6.3002 L 6.5334,4.2074 C 6.2807,4.0619 6.0428,3.9958 5.8322,4.0002 Z M 12,7.0002 C 14.774,7.0002 17,9.227 17,12 17,12.189 16.967,12.374 16.945,12.561 L 10.049,16.576 C 9.3721,16.395 7,14.893 7,12 7,9.15 9.3995,7.0002 12,7.0002 Z M 17,15 V 21 H 19 V 15 Z M 20,15 V 21 H 22 V 15 Z"/>
</svg>
