<svg xmlns="http://www.w3.org/2000/svg" width="24" height="24" version="1.1">
 <defs>
  <style id="current-color-scheme" type="text/css">
   .ColorScheme-Text { color:#c9ebf4; } .ColorScheme-Highlight { color:#4285f4; } .ColorScheme-NeutralText { color:#ff9800; } .ColorScheme-PositiveText { color:#4caf50; } .ColorScheme-NegativeText { color:#f44336; }
  </style>
 </defs>
 <g transform="translate(1,1)">
  <rect style="opacity:0" width="22" height="22" x="0" y="0"/>
  <path style="fill:none;stroke:currentColor;stroke-width:1.99999976;stroke-linecap:round;stroke-linejoin:round" class="ColorScheme-Text" d="m 4.9929295,7.0070707 0,8.0000013 3.9999986,0 0,0"/>
  <path style="fill:none;stroke:currentColor;stroke-width:1.99999976;stroke-linecap:round;stroke-linejoin:bevel" class="ColorScheme-Text" d="m 15.003317,6.9994207 c 2.399679,0 2.000002,2.000001 2.000002,3.9999983 0,2.000001 0.355578,4.061102 -2.000002,4.000002 -2.348587,0 -1.999997,-2.000001 -1.999997,-4.000002 0,-1.9999973 -0.435451,-3.9999983 1.999997,-3.9999983"/>
 </g>
</svg>
