<svg xmlns="http://www.w3.org/2000/svg" width="24" height="24" version="1.1">
 <defs>
  <style id="current-color-scheme" type="text/css">
   .ColorScheme-Text { color:#c9ebf4; } .ColorScheme-Highlight { color:#4285f4; } .ColorScheme-NeutralText { color:#ff9800; } .ColorScheme-PositiveText { color:#4caf50; } .ColorScheme-NegativeText { color:#f44336; }
  </style>
 </defs>
 <path style="opacity:0.3;fill:currentColor" class="ColorScheme-Text" d="m 8,4 0,4 -4,0 0,2 4,0 0,4 -4,0 0,2 4,0 0,4 2,0 0,-4 4,0 0,4 2,0 0,-4 4,0 0,-2 -4,0 0,-4 4,0 0,-2 -4,0 0,-4 -2,0 0,4 -4,0 0,-4 z m 2,6 4,0 0,4 -4,0 z"/>
</svg>
