<svg xmlns="http://www.w3.org/2000/svg" width="24" height="24" version="1.1">
 <defs>
  <style id="current-color-scheme" type="text/css">
   .ColorScheme-Text { color:#c9ebf4; } .ColorScheme-Highlight { color:#4285f4; } .ColorScheme-NeutralText { color:#ff9800; } .ColorScheme-PositiveText { color:#4caf50; } .ColorScheme-NegativeText { color:#f44336; }
  </style>
 </defs>
 <path style="opacity:0.3;fill:currentColor" class="ColorScheme-Text" d="m 4,8 c 2.0806,-1.9268 4.9494,-3 8,-3 3.051,0 5.919,1.0731 8,3 l -8,11 z"/>
 <path style="fill:currentColor" class="ColorScheme-Text" d="M 12,8 A 8,8 0 0 0 5.9863281,10.732422 L 12,19 18.009766,10.734375 A 8,8 0 0 0 12,8 Z"/>
</svg>
