<svg xmlns="http://www.w3.org/2000/svg" width="24" height="24" version="1.1">
 <defs>
  <style id="current-color-scheme" type="text/css">
   .ColorScheme-Text { color:#c9ebf4; } .ColorScheme-Highlight { color:#4285f4; } .ColorScheme-NeutralText { color:#ff9800; } .ColorScheme-PositiveText { color:#4caf50; } .ColorScheme-NegativeText { color:#f44336; }
  </style>
 </defs>
 <path style="fill:currentColor" class="ColorScheme-Text" d="m 12,4 c -4.41794,0 -7.999401,3.5802469 -8,7.998047 -5.98e-4,4.415121 3.58488,8.002 8,8.001953 4.418126,-4.7e-5 8,-3.581719 8,-8 0,-1.003832 -0.183956,-1.964433 -0.521484,-2.849609 -0.02713,-0.07115 -0.121395,-0.08826 -0.171875,-0.03125 L 17.791016,10.4375 A 6,6 0 0 1 18,12 6,6 0 0 1 12,18 6,6 0 0 1 6,12 6,6 0 0 1 12,6 6,6 0 0 1 14.162109,6.4101562 L 15.300781,4.8398437 C 15.338891,4.7895667 15.321671,4.7164564 15.265621,4.6875 14.167223,4.1200631 13.321319,4 11.999996,4 Z m 4.810547,1 c -0.02654,0.0034 -0.05291,0.017221 -0.07031,0.039063 l -6.222659,7.810546 c -0.02728,0.03424 -0.0794,0.0382 -0.111328,0.0078 L 8.183594,10.740224 c -0.0477,-0.04542 -0.128894,-0.03527 -0.164062,0.01953 l -1.003907,1.564454 c -0.02509,0.03909 -0.01843,0.09067 0.01563,0.123047 l 3.707032,3.523437 c 0.04246,0.04027 0.110595,0.03885 0.15039,-0.0039 l 8.085937,-8.6875053 c 0.03102,-0.033365 0.03347,-0.081851 0.0078,-0.1191407 C 18.416831,6.3379211 17.706882,5.6130913 16.886724,5.019521 16.863794,5.002926 16.837084,4.996589 16.810554,4.99999 Z"/>
</svg>
