<svg xmlns="http://www.w3.org/2000/svg" width="24" height="24" version="1.1">
 <defs>
  <style id="current-color-scheme" type="text/css">
   .ColorScheme-Text { color:#c9ebf4; } .ColorScheme-Highlight { color:#4285f4; } .ColorScheme-NeutralText { color:#ff9800; } .ColorScheme-PositiveText { color:#4caf50; } .ColorScheme-NegativeText { color:#f44336; }
  </style>
 </defs>
 <g>
  <path style="fill:currentColor" class="ColorScheme-Text" d="m5.0718 8a8 8 0 0 0 2.9282 10.928 8 8 0 0 0 10.928 -2.928 8 8 0 0 0 -2.928 -10.928 8 8 0 0 0 -10.928 2.928zm1.732 1a6 6 0 0 1 3.9952 -2.8736 1.5 1.5 0 0 1 0.112 -0.24 1.5 1.5 0 0 1 2.049 -0.5491 1.5 1.5 0 0 1 0.695 0.9019 6 6 0 0 1 1.345 0.5646 6 6 0 0 1 2.49 2.793 1.5 1.5 0 0 1 0.691 0.1981 1.5 1.5 0 0 1 0.549 2.0491 1.5 1.5 0 0 1 -0.758 0.647 6 6 0 0 1 -0.776 2.509 6 6 0 0 1 -5.195 2.995 1.5 1.5 0 0 1 -0.028 0.052 1.5 1.5 0 0 1 -2.0489 0.549 1.5 1.5 0 0 1 -0.7467 -1.309 6 6 0 0 1 -0.1774 -0.091 6 6 0 0 1 -2.1961 -8.196zm0.8661 0.5a5 5 0 0 0 1.8301 6.83 5 5 0 0 0 0.018603 0.01074 1.5 1.5 0 0 1 1.1919 -0.54098l1.2518-3.2736a1.5 1.5 0 0 1 -0.32831 -1.8923 1.5 1.5 0 0 1 0.59171 -0.57176l-0.297-1.9532a1.5 1.5 0 0 1 -0.468 -0.1734 1.5 1.5 0 0 1 -0.66 -0.7869 5 5 0 0 0 -3.1301 2.3515zm5.2474-1.5419 0.29751 1.9534a1.5 1.5 0 0 1 0.46824 0.17336 1.5 1.5 0 0 1 0.62768 0.7097l1.6779-0.1093a1.5 1.5 0 0 1 0.143 -0.342 1.5 1.5 0 0 1 0.399 -0.4504 5 5 0 0 0 -2.031 -2.2237 5 5 0 0 0 -0.927 -0.4109 1.5 1.5 0 0 1 -0.06453 0.12737 1.5 1.5 0 0 1 -0.59172 0.57176zm-0.02071 4.9226-1.2501 3.2746a1.5 1.5 0 0 1 0.49482 0.83825 5 5 0 0 0 4.1888 -2.4936 5 5 0 0 0 0.63602 -1.9805 1.5 1.5 0 0 1 -0.28554 -0.12652 1.5 1.5 0 0 1 -0.62768 -0.7097l-1.6779 0.1093a1.5 1.5 0 0 1 -0.143 0.34143 1.5 1.5 0 0 1 -1.3355 0.74674z"/>
 </g>
</svg>
