<svg xmlns="http://www.w3.org/2000/svg" width="24" height="24" version="1.1">
 <defs>
  <style id="current-color-scheme" type="text/css">
   .ColorScheme-Text { color:#c9ebf4; } .ColorScheme-Highlight { color:#4285f4; } .ColorScheme-NeutralText { color:#ff9800; } .ColorScheme-PositiveText { color:#4caf50; } .ColorScheme-NegativeText { color:#f44336; }
  </style>
 </defs>
 <path style="fill:currentColor" class="ColorScheme-Text" d="M 10.748047,8.999948 A 0.73085587,0.79027464 0 0 0 10,9.792917 v 4.416015 a 0.73085587,0.79027464 0 0 0 1.095703,0.685547 l 3.539063,-2.208984 a 0.73085587,0.79027464 0 0 0 0,-1.369141 L 11.095703,9.105417 A 0.73085587,0.79027464 0 0 0 10.748047,8.999948 Z"/>
 <path style="opacity:0.3;fill:currentColor" class="ColorScheme-Text" d="m 12,3.999948 c -4.4064334,0 -8,3.5935666 -8,8 0,4.406433 3.5935666,8 8,8 4.406433,0 8,-3.593567 8,-8 0,-4.4064334 -3.593567,-8 -8,-8 z m 0,2 c 3.325553,0 6,2.6744469 6,6 0,3.325553 -2.674447,6 -6,6 -3.3255531,0 -6,-2.674447 -6,-6 0,-3.3255531 2.6744469,-6 6,-6 z"/>
 <path style="fill:currentColor" class="ColorScheme-Text" d="m 12,3.999948 v 2 a 6,6 0 0 1 6,6 6,6 0 0 1 -6,6 6,6 0 0 1 -5.9589844,-5.373047 l -1.9980468,0.208985 a 8,8 0 0 0 8.5156252,7.144531 8,8 0 0 0 7.4375,-8.259766 A 8,8 0 0 0 12,3.999948 Z"/>
</svg>
