<svg xmlns="http://www.w3.org/2000/svg" width="24" height="24" version="1">
 <defs>
  <style id="current-color-scheme" type="text/css">
   .ColorScheme-Text { color:#c9ebf4; } .ColorScheme-Highlight { color:#4285f4; } .ColorScheme-NeutralText { color:#ff9800; } .ColorScheme-PositiveText { color:#4caf50; } .ColorScheme-NegativeText { color:#f44336; }
  </style>
 </defs>
 <path style="fill:currentColor" class="ColorScheme-Text" d="M 9,4 C 8.446,4 8,4.446 8,5 v 1 h 8 V 5 C 16,4.446 15.554,4 15,4 Z M 7,7 C 6.446,7 6,7.446 6,8 V 9 H 18 V 8 C 18,7.446 17.554,7 17,7 Z m -2,3 c -0.554,0 -1,0.446 -1,1 v 8 c 0,0.554 0.446,1 1,1 h 14 c 0.554,0 1,-0.446 1,-1 v -8 c 0,-0.554 -0.446,-1 -1,-1 z m 5.25,4 h 3.5 c 0.139,0 0.25,0.111 0.25,0.25 v 0.5 C 14,14.889 13.888,15 13.75,15 h -3.5 C 10.111,15 10,14.889 10,14.75 v -0.5 C 10,14.111 10.112,14 10.25,14 Z"/>
</svg>
