<svg xmlns="http://www.w3.org/2000/svg" width="24" height="24" version="1.1">
 <defs>
  <style id="current-color-scheme" type="text/css">
   .ColorScheme-Text { color:#c9ebf4; } .ColorScheme-Highlight { color:#4285f4; } .ColorScheme-NeutralText { color:#ff9800; } .ColorScheme-PositiveText { color:#4caf50; } .ColorScheme-NegativeText { color:#f44336; }
  </style>
 </defs>
 <path style="fill:currentColor" class="ColorScheme-Text" d="M 6.0234375,4 C 5.4566955,4 5,4.4566955 5,5.0234375 V 17.976562 C 5,18.543306 5.4566955,19 6.0234375,19 H 12.761719 A 4.5,4.5 0 0 1 12,16.5 4.5,4.5 0 0 1 12.03125,16 H 11 V 10 H 8 V 7 h 9 v 3 h -3 v 2.761719 A 4.5,4.5 0 0 1 16.5,12 4.5,4.5 0 0 1 20,13.673828 V 5.0234375 C 20,4.4566955 19.543307,4 18.976562,4 Z M 16.5,13 A 3.5,3.5 0 0 0 13,16.5 3.5,3.5 0 0 0 16.5,20 3.5,3.5 0 0 0 20,16.5 3.5,3.5 0 0 0 16.5,13 Z M 14,16 h 5 v 1 h -5 z"/>
</svg>
