<svg xmlns="http://www.w3.org/2000/svg" width="24" height="24" version="1.1">
 <defs>
  <style id="current-color-scheme" type="text/css">
   .ColorScheme-Text { color:#c9ebf4; } .ColorScheme-Highlight { color:#4285f4; } .ColorScheme-NeutralText { color:#ff9800; } .ColorScheme-PositiveText { color:#4caf50; } .ColorScheme-NegativeText { color:#f44336; }
  </style>
 </defs>
 <path style="fill:currentColor" class="ColorScheme-Text" d="M 10.397,3.795 C 9.1919,3.8272 8.5371,4.9218 8.0295,5.9181 7.8443,6.0115 7.6561,6.0938 7.4728,6.1954 6.4781,6.8642 5.6626,7.7916 5.0334,8.8048 4.4799,9.7817 4.1444,10.867 4.0197,11.981 3.9456,13.11 4.075,14.261 4.5002,15.317 4.8297,16.245 5.4099,17.265 6.1525,17.9 7.1384,18.558 7.9224,19.034 8.9982,18.988 6.7584,17.196 5.5766,15.048 5.2033,12.52 5.1915,12.331 5.1683,12.126 5.2365,12.176 5.4918,12.581 5.5512,12.566 5.9943,12.795 5.6123,11.366 6.1224,9.7746 6.7463,8.6134 6.8243,8.524 6.9091,8.4383 6.9924,8.3517 L 7.0314,8.3575 C 7.0454,8.5808 7.0719,8.8056 7.0978,9.0216 7.093,9.1257 7.1594,9.3034 7.1799,9.4181 7.1645,9.4583 7.0811,9.6989 7.049,9.9997 7.0297,10.12 7.029,10.237 7.0471,10.352 7.0503,10.375 7.0521,10.396 7.0568,10.418 7.0665,10.459 7.0775,10.5 7.0939,10.539 7.1287,10.633 7.175,10.722 7.2502,10.795 7.278,10.67 7.3348,10.569 7.4123,10.485 7.4316,10.464 7.4609,10.451 7.4826,10.432 7.5528,10.373 7.6262,10.315 7.7053,10.272 7.7208,10.263 7.7211,10.266 7.7365,10.258 7.9329,10.158 8.1261,10.096 8.1271,10.096 L 8.1428,10.081 C 8.224,10.047 8.3059,10.012 8.381,9.9747 9.5082,8.8761 10.574,8.6837 11.994,8.795 12.776,8.795 13.221,8.592 13.994,8.2443 15.181,8.7403 15.69,9.515 15.994,10.795 16.109,11.757 14.563,14.065 13.994,14.793 13.994,14.793 13.99,14.795 13.99,14.795 13.99,14.795 13.994,14.795 13.994,14.795 14.006,14.797 15.712,14.035 16.393,13.389 15.907,17.144 13.207,19.471 11.994,19.995 12.931,20.058 14.215,19.474 15.098,18.935 14.695,19.367 14.263,19.835 13.994,19.995 15.049,19.7 16.048,19.592 16.713,19.107 16.713,19.107 17.252,18.613 17.817,17.969 17.892,17.884 18.021,17.766 18.098,17.668 18.146,17.608 18.192,17.546 18.238,17.485 18.247,17.475 18.256,17.464 18.264,17.454 19.451,16.001 20.029,14.196 19.987,12.559 19.995,10.575 19.189,8.8535 17.836,7.4298 16.858,6.4002 15.747,5.7687 14.746,5.4279 13.711,5.1306 12.493,4.9797 11.457,5.0372 11.354,5.0385 11.066,5.0469 10.674,5.0802 10.628,4.9938 10.685,4.6734 10.797,4.5939 10.552,4.6168 10.326,4.9357 10.117,5.1564 10.082,5.1632 10.046,5.1702 10.014,5.1779 10.202,4.8527 10.393,4.487 10.617,4.1954 9.9235,4.3249 9.6207,4.8705 9.2814,5.3732 9.1835,5.4054 9.0885,5.4445 8.9924,5.4806 9.244,4.7544 9.7173,4.3569 10.397,3.795 Z M 8.5978,7.9952 C 8.7919,7.9915 8.9672,8.0245 8.9689,8.0245 8.9722,8.0245 9.0565,8.3646 8.8967,8.6554 8.7368,8.9473 8.3647,9.0641 8.1584,8.9542 7.9476,8.8443 7.9483,8.4766 8.1115,8.1847 8.1903,8.0387 8.4037,7.999 8.5978,7.9952 Z"/>
 <path style="opacity:0.3;fill:currentColor" class="ColorScheme-Text" d="M 13.818,9.311 C 13.251,9.5427 12.717,9.7954 11.994,9.7954 11.968,9.7957 11.942,9.7951 11.916,9.7935 10.624,9.6922 10.021,9.7725 9.0781,10.691 9.0023,10.765 8.9153,10.827 8.8203,10.873 8.7606,10.902 8.7041,10.924 8.6465,10.949 8.5809,10.99 8.5106,11.022 8.4375,11.047 L 9.9941,12.795 14.908,11.25 C 14.948,11.102 14.986,10.934 14.992,10.949 14.765,10.027 14.495,9.6471 13.818,9.311 Z M 8.1445,11.217 C 7.9358,11.656 7.4448,11.892 6.9707,11.754 6.9707,12.017 6.8982,12.302 6.9609,12.537 7.0636,12.927 6.9219,13.341 6.6016,13.586 6.7931,14.255 7.0397,14.896 7.3633,15.508 L 13.568,17.41 C 13.606,17.365 13.646,17.329 13.684,17.281 14.073,16.791 14.438,16.213 14.738,15.557 14.729,15.561 14.714,15.568 14.705,15.572 14.613,15.616 14.537,15.65 14.48,15.676 14.452,15.689 14.429,15.697 14.406,15.707 14.395,15.712 14.386,15.717 14.367,15.725 14.358,15.728 14.348,15.731 14.322,15.74 14.309,15.745 14.256,15.76 14.256,15.76 14.256,15.76 14.166,15.781 14.166,15.781 14.166,15.781 13.908,15.787 13.877,15.787 13.103,15.695 12.727,14.792 13.207,14.178 13.21,14.174 13.218,14.162 13.221,14.158 13.464,13.845 13.972,13.116 14.379,12.393 14.491,12.192 14.56,12.02 14.65,11.832 L 9.9941,13.295 Z"/>
</svg>
