<svg xmlns="http://www.w3.org/2000/svg" width="24" height="24" version="1.1">
 <defs>
  <style id="current-color-scheme" type="text/css">
   .ColorScheme-Text { color:#c9ebf4; } .ColorScheme-Highlight { color:#4285f4; } .ColorScheme-NeutralText { color:#ff9800; } .ColorScheme-PositiveText { color:#4caf50; } .ColorScheme-NegativeText { color:#f44336; }
  </style>
 </defs>
 <path style="fill:currentColor" class="ColorScheme-Text" d="M 5.1992188,3.999857 C 4.5344187,3.999857 4,4.5342757 4,5.1990758 V 18.800638 c 0,0.02937 0.011618,0.05515 0.013672,0.08398 0.1382857,-0.05703 0.3064064,-0.128846 0.3632812,-0.148438 0.71708,-0.247085 1.3298613,-0.48198 2.4394531,-0.935547 3.4451277,-1.408266 4.7735157,-2.215539 5.6171877,-3.076172 0.467664,-0.477065 0.646299,-0.941349 0.533203,-1.382812 -0.07022,-0.2741 -0.175412,-0.44056 -0.429688,-0.685547 -0.379112,-0.365265 -0.935245,-0.666315 -2.183593,-1.179688 -0.9833763,-0.404403 -1.3125003,-0.608416 -1.3125003,-0.816406 0,-0.126593 0.1436666,-0.318684 0.3378906,-0.449218 0.4002761,-0.269014 1.1457917,-0.388129 2.3320317,-0.466797 2.079756,-0.137925 2.748367,-0.186341 3.005859,-0.41211 0.07785,-0.06826 0.08287,-0.260776 0.0098,-0.3574216 -0.06041,-0.079866 -0.06914,-0.12184 -0.04101,-0.125 0.02813,-0.00316 0.09219,0.032554 0.179687,0.109375 0.15281,0.1341666 0.186801,0.2521286 0.119141,0.4140626 -0.153592,0.3676 -0.872017,0.527109 -2.25,0.626953 -1.328396,0.09625 -2.143835,0.230437 -2.074219,0.507813 0.0462,0.184089 0.421106,0.307832 1.933594,0.640625 2.434633,0.53569 3.769912,0.879807 4.785156,1.386718 1.243728,0.620992 2.029826,1.562324 2.488282,2.980469 L 20,15.839701 V 5.1990758 C 20,4.5342757 19.465581,3.999857 18.800781,3.999857 Z M 4.0195312,18.933451 c 0.00857,0.07611 0.013122,0.153567 0.035156,0.224609 0.00991,0.03196 0.03185,0.0576 0.048828,0.08594 -0.039278,-0.09836 -0.071623,-0.201193 -0.083984,-0.310547 z"/>
</svg>
