<svg xmlns="http://www.w3.org/2000/svg" width="24" height="24" version="1.1">
 <defs>
  <style id="current-color-scheme" type="text/css">
   .ColorScheme-Text { color:#c9ebf4; } .ColorScheme-Highlight { color:#4285f4; } .ColorScheme-NeutralText { color:#ff9800; } .ColorScheme-PositiveText { color:#4caf50; } .ColorScheme-NegativeText { color:#f44336; }
  </style>
 </defs>
 <path style="fill:currentColor" class="ColorScheme-Text" d="M 11.544922,4.0004268 A 1.9023651,1.8191537 0 0 0 10.548828,4.2426143 L 4.9511722,7.3344111 A 1.9023651,1.8191537 0 0 0 4.0000002,8.9105829 V 15.09027 a 1.9023651,1.8191537 0 0 0 0.951172,1.576172 l 5.5976558,3.089843 a 1.9023651,1.8191537 0 0 0 1.902344,0 l 5.597656,-3.089843 A 1.9023651,1.8191537 0 0 0 19,15.09027 V 8.9105829 A 1.9023651,1.8191537 0 0 0 18.048828,7.3344111 L 12.451172,4.2426143 A 1.9023651,1.8191537 0 0 0 11.544922,4.0004268 Z M 11.5,6.0004267 17,9.0394894 V 14.95941 L 11.5,18.000426 6.0000002,14.95941 V 9.0394894 Z m -1.480469,2.9999997 c -1.1153528,0 -2.0195308,1.0295726 -2.0195308,2.2988276 0,1.979326 3.1111108,3.534505 3.4999998,4.701172 0.388889,-1.166667 3.5,-2.721846 3.5,-4.701172 0,-1.269255 -0.904178,-2.2988276 -2.019531,-2.2988276 -0.584942,0 -1.11155,0.356359 -1.480469,0.808594 -0.368919,-0.452235 -0.895528,-0.808594 -1.480469,-0.808594 z"/>
</svg>
