<svg xmlns="http://www.w3.org/2000/svg" width="22" height="22" version="1">
 <defs>
  <style id="current-color-scheme" type="text/css">
   .ColorScheme-Text { color:#b15155; } .ColorScheme-Highlight { color:#4285f4; } .ColorScheme-NeutralText { color:#ff9800; } .ColorScheme-PositiveText { color:#4caf50; } .ColorScheme-NegativeText { color:#f44336; }
  </style>
 </defs>
 <path style="fill:currentColor" class="ColorScheme-Text" d="m8.9914 3.0004c-0.2536 0.0081-0.4946 0.1129-0.6739 0.2929l-2.9915 3c-0.9789 0.9425 0.4702 2.3958 1.41 1.4141l1.2913-1.2949 0.00779 7.9392c-0.00692 0.04917-0.010169 0.09878-0.00973 0.14844 0 0.01514 0.00956 0.02786 0.00973 0.04297 0.000021 0.002-0.0000236 0.0039 0 0.0059 0.00274 0.12413 0.028492 0.24666 0.075957 0.36133 0.22546 2.2356 2.1269 4.0898 4.4016 4.0898 2.418 0 4.4873-2.0752 4.4873-4.5s-2.0693-4.5-4.4873-4.5c-0.94275 0-1.7663 0.40756-2.4852 0.94727l-0.0078-6.947c0.000217-0.5647-0.46551-1.0176-1.0283-1z"/>
</svg>
