<svg xmlns="http://www.w3.org/2000/svg" width="22" height="22" version="1.1">
 <defs>
  <style id="current-color-scheme" type="text/css">
   .ColorScheme-Text { color:#b15155; } .ColorScheme-Highlight { color:#4285f4; } .ColorScheme-NeutralText { color:#ff9800; } .ColorScheme-PositiveText { color:#4caf50; } .ColorScheme-NegativeText { color:#f44336; }
  </style>
 </defs>
 <path style="fill:currentColor" class="ColorScheme-Text" d="M 5.8447759,2.9999998 C 5.6989623,3.1101503 4.4065046,5.1373435 3.8712148,6.0225443 3.2417537,7.0636186 3.0636286,7.1968254 3.0124659,7.5931434 2.9408381,8.147573 3.1243792,8.2404616 5.0047633,10.18791 c 0.6324988,0.655148 1.1615982,1.228242 1.1772668,1.273965 0.070669,0.205593 0.014644,0.515917 -0.1904861,1.058516 -0.2815581,0.744676 -0.3076508,0.95227 -0.1717499,1.401987 0.1478923,0.488723 0.3989542,0.881883 0.7775582,1.224005 0.3520633,0.316543 0.4886784,0.633709 0.6963677,0.640104 0.074346,0.0016 0.4936091,-0.426952 0.9305715,-0.661961 v -0.0031 C 9.1763968,14.611441 9.3170495,14.505284 10.044838,13.7694 10.656713,13.150383 10.771974,12.964148 10.684997,12.729619 10.655418,12.6503 10.193316,12.165369 9.6607441,11.652346 8.4023013,10.440371 8.4574209,10.931911 8.9362718,9.616499 9.2205384,8.8353747 9.2933815,8.5932253 9.2922624,8.3767612 9.2906633,8.0496667 9.1842264,7.8065193 8.9706216,7.6367372 8.8841254,7.5678332 8.1239742,7.2156694 7.281229,6.8561215 6.4383232,6.4968933 5.7545467,6.179541 5.7604624,6.1504447 5.7738926,6.0839387 6.7033249,5.9699513 7.3780331,5.950607 l 0.5090033,-0.01249 0.9399403,0.3746956 c 0.8186031,0.3266146 0.9472448,0.3922014 1.0086399,0.5245738 0.038693,0.083452 0.069336,0.1960807 0.068696,0.2497971 -6.391e-4,0.054516 -0.1524277,1.1314864 -0.3372531,2.0265993 -0.323604,1.5675262 -0.3339168,1.3093452 -0.2498178,1.4051082 0.1335021,0.151878 1.4431113,0.503381 1.8517733,0.46837 0.46654,-0.04237 1.418272,-0.365743 1.514522,-0.474615 0.07787,-0.08825 0.0641,0.133492 -0.252941,-1.3988632 -0.185141,-0.8951127 -0.336615,-1.972883 -0.337254,-2.0265993 -6.4e-4,-0.054356 0.02969,-0.1657054 0.0687,-0.2497971 0.06156,-0.1323724 0.182766,-0.1961406 0.911835,-0.4871043 1.175141,-0.4698589 1.152235,-0.4673154 2.220255,-0.3590833 0.498837,0.048281 0.925326,0.1144522 0.949308,0.140511 0.02718,0.030215 -0.0031,0.06722 -0.07183,0.096796 -0.06555,0.030375 -0.751576,0.3235071 -1.527011,0.6557172 -0.775754,0.3320502 -1.493142,0.6633611 -1.592589,0.7369014 -0.233905,0.1728196 -0.345024,0.4198339 -0.346622,0.7587586 -0.0013,0.2140661 0.07315,0.4521678 0.349745,1.2085135 0.19282,0.5272515 0.349744,1.0074525 0.349744,1.0678825 0,0.244282 -0.161315,0.12418 -1.04611,0.974209 -0.50827,0.488563 -0.959228,0.958097 -1.002396,1.046025 -0.04316,0.08761 -0.06604,0.223499 -0.05309,0.299757 0.02238,0.129974 0.628902,0.801077 1.249089,1.380128 0.260451,0.243003 1.839609,1.372835 2.092225,1.417599 0.211047,0.03677 0.436332,-0.321214 0.805662,-0.67133 0.362936,-0.34372 0.580502,-0.687531 0.727596,-1.155311 0.137509,-0.437725 0.104783,-0.732754 -0.168618,-1.442578 -0.207839,-0.541799 -0.262359,-0.839868 -0.193609,-1.042903 0.01599,-0.04844 0.580701,-0.657475 1.252211,-1.355148 1.464533,-1.5197254 1.81243,-1.7893669 1.892372,-2.0608264 0.08953,-0.3011953 0.02658,-0.6997515 -0.174873,-1.0991071 C 18.307289,5.9914096 16.322362,2.9999998 16.152884,2.9999998 15.283119,3.1590706 14.555705,3.8385312 13.639093,4 12.94976,3.3026059 11.967628,3.1574131 10.997269,2.9999998 9.7996089,3.208231 9.3023532,3.2340602 8.3523222,4 7.449621,3.8506813 6.7792946,3.1218209 5.8447759,2.9999998 Z M 11.003513,14.581217 c -0.217382,-9.99e-4 -0.434358,0.08788 -0.821274,0.268532 -0.6937353,0.322938 -2.2548162,1.201899 -2.3857611,1.345782 -0.1352613,0.148679 -0.066076,0.288882 0.2747999,0.552676 0.7023674,0.543558 2.0485062,1.58621 2.0485062,1.58621 0.915492,0.890469 0.844238,0.892675 1.783074,-0.02498 0,0 0.980976,-0.740449 1.854899,-1.455068 0.492185,-0.401274 0.570208,-0.500943 0.490266,-0.643228 -0.06443,-0.113508 -1.652254,-1.006632 -2.410741,-1.355148 -0.39883,-0.183044 -0.616388,-0.273778 -0.833769,-0.274776 z"/>
</svg>
