<svg xmlns="http://www.w3.org/2000/svg" width="22" height="22" version="1.1">
 <defs>
  <style id="current-color-scheme" type="text/css">
   .ColorScheme-Text { color:#b15155; } .ColorScheme-Highlight { color:#4285f4; } .ColorScheme-NeutralText { color:#ff9800; } .ColorScheme-PositiveText { color:#4caf50; } .ColorScheme-NegativeText { color:#f44336; }
  </style>
 </defs>
 <path style="fill:currentColor" class="ColorScheme-Text" d="m 4.3335055,15.292432 2.460346,-1.884786 c 1.307157,1.706019 2.695944,2.492379 4.2417985,2.492379 1.537588,0 2.887111,-0.777059 4.135367,-2.469646 l 2.495477,1.839318 C 15.865409,17.710411 13.627229,19 11.03565,19 8.4523375,19 6.1924575,17.71868 4.3335055,15.292432 Z M 11.027385,7.1002328 6.6481515,10.873935 4.6238705,8.5262209 11.036684,3 l 6.362179,5.530354 -2.033582,2.339447 z"/>
</svg>
