<svg xmlns="http://www.w3.org/2000/svg" width="22" height="22" version="1.1">
 <defs>
  <style id="current-color-scheme" type="text/css">
   .ColorScheme-Text { color:#b15155; } .ColorScheme-Highlight { color:#4285f4; } .ColorScheme-NeutralText { color:#ff9800; } .ColorScheme-PositiveText { color:#4caf50; } .ColorScheme-NegativeText { color:#f44336; }
  </style>
 </defs>
 <path style="fill:currentColor" class="ColorScheme-Text" d="M 11.041015,3.0005482 A 1.7755407,1.8190786 0 0 0 10.111328,3.2427257 L 4.888672,6.3343948 A 1.7755407,1.8190786 0 0 0 4,7.9105018 v 6.1794322 a 1.7755407,1.8190786 0 0 0 0.888672,1.576107 l 5.222656,3.089715 a 1.7755407,1.8190786 0 0 0 1.777344,0 l 5.222656,-3.089715 A 1.7755407,1.8190786 0 0 0 18,14.089934 V 7.9105018 A 1.7755407,1.8190786 0 0 0 17.111328,6.3343948 L 11.888672,3.2427257 A 1.7755407,1.8190786 0 0 0 11.041015,3.0005482 Z M 8.039062,8.0022948 c 0.124688,-0.0026 0.253582,-0.0012 0.339844,0.0059 0.880091,0.0724 1.777152,0.450692 2.472656,1.042924 0.09333,0.0795 0.124648,0.09961 0.148438,0.09961 0.02377,0 0.05511,-0.02013 0.148437,-0.09961 0.695484,-0.592243 1.594519,-0.97052 2.47461,-1.042926 0.172522,-0.01419 0.511387,-0.0073 0.65625,0.01367 1.106117,0.160055 1.719794,0.902661 1.720703,2.0838992 2.58e-4,0.297069 -0.02948,0.503264 -0.109375,0.759734 -0.200676,0.644189 -0.653913,1.214129 -1.34375,1.68743 -0.230626,0.15823 -0.537544,0.328824 -0.785156,0.437482 -0.02237,0.0098 -0.02109,0.01163 -0.03906,0.01953 0.0014,0.03491 0.0039,0.06421 0.0039,0.101557 2e-6,0.954461 -0.437615,1.798162 -1.111328,2.324123 -0.02385,0.01933 -0.04772,0.03822 -0.07227,0.05664 -0.01656,0.01205 -0.03396,0.02347 -0.05078,0.03515 -0.322834,0.230052 -0.699687,0.386256 -1.115234,0.451153 -0.003,5e-4 -0.0082,-0.0065 -0.01172,-0.0078 -0.119677,0.017 -0.241164,0.0293 -0.365235,0.0293 -0.07496,0 -0.149216,-0.0054 -0.222656,-0.01172 -10e-4,0.0037 -9.98e-4,0.004 -0.002,0.0078 -4e-4,0 -0.0035,-0.0074 -0.0039,-0.0078 -1.399205,-0.123087 -2.498047,-1.363088 -2.498047,-2.876834 0,-0.03767 0.0026,-0.06833 0.0039,-0.103511 -0.01734,-0.0076 -0.01575,-0.0082 -0.03711,-0.01758 C 7.906604,12.844025 7.546741,12.630179 7.249945,12.402538 6.536754,11.855512 6.123774,11.200975 6.017523,10.449493 c -0.02342,-0.165569 -0.02337,-0.5182142 0,-0.6913772 0.08847,-0.655428 0.356336,-1.122788 0.816406,-1.421817 0.246563,-0.160257 0.539398,-0.264182 0.886719,-0.31444 0.07243,-0.01046 0.193672,-0.01686 0.318359,-0.01953 z M 8.666015,10.01393 c -0.06566,0.0027 -0.134728,0.01075 -0.1875,0.02539 -0.262661,0.0729 -0.445312,0.215942 -0.445312,0.349595 0,0.05406 0.01911,0.09084 0.07031,0.138666 0.05906,0.05518 0.154574,0.09683 0.365234,0.162103 0.106152,0.03289 0.244279,0.08152 0.306641,0.107418 0.273475,0.1135 0.517025,0.276541 0.732422,0.488261 0.07718,0.07587 0.08827,0.08203 0.123047,0.08203 0.02724,0 0.045,-0.0065 0.0625,-0.02344 0.02961,-0.02864 0.03155,-0.0684 0.0098,-0.216788 -0.06432,-0.437846 -0.234833,-0.739322 -0.529301,-0.931604 -0.103959,-0.06788 -0.26867,-0.150183 -0.339844,-0.169914 -0.03912,-0.01084 -0.102307,-0.01443 -0.167969,-0.01172 z m 4.728516,0.0039 c -0.08691,-0.01065 -0.167672,-0.0085 -0.226562,0.0078 -0.07117,0.01973 -0.235883,0.102032 -0.339844,0.169915 -0.294468,0.192281 -0.46693,0.493757 -0.53125,0.931602 -0.02176,0.148389 -0.01984,0.188141 0.0098,0.216788 0.0175,0.01693 0.03527,0.02344 0.0625,0.02344 0.03477,0 0.04585,-0.0061 0.123047,-0.08203 0.114744,-0.112785 0.244504,-0.21735 0.369136,-0.296864 0.210051,-0.134014 0.367946,-0.205215 0.669922,-0.298815 0.265799,-0.08238 0.370529,-0.139007 0.417969,-0.226553 0.02163,-0.03989 0.02043,-0.110636 -0.0039,-0.156244 -0.04065,-0.07611 -0.162769,-0.169252 -0.289062,-0.220694 -0.08267,-0.03366 -0.174809,-0.0577 -0.261719,-0.06836 z m -3.021484,2.67762 c -0.04972,0 -0.06372,0.0138 -0.103516,0.09765 -0.07907,0.166582 -0.163576,0.437706 -0.191406,0.617162 -0.03858,0.248583 0.0021,0.552399 0.08203,0.613257 0.06003,0.04569 0.116734,0.01307 0.208984,-0.121089 0.201958,-0.293709 0.241563,-0.67607 0.113282,-1.081987 -0.03284,-0.103896 -0.05016,-0.124995 -0.109375,-0.124995 z m 1.251953,0 c -0.02143,5.38e-4 -0.04138,0.0066 -0.05469,0.01562 -0.01509,0.01023 -0.03243,0.04517 -0.05273,0.109371 -0.128282,0.405917 -0.08867,0.788278 0.113281,1.081987 0.03048,0.04432 0.0723,0.09279 0.0918,0.10937 0.0649,0.05514 0.128312,0.03198 0.164063,-0.06054 0.06938,-0.179699 0.06778,-0.458863 -0.0039,-0.732392 -0.05171,-0.197312 -0.16407,-0.484673 -0.20117,-0.511702 -0.0115,-0.0084 -0.03521,-0.01225 -0.05664,-0.01172 z"/>
</svg>
