<svg xmlns="http://www.w3.org/2000/svg" width="22" height="22" version="1.1">
 <defs>
  <style id="current-color-scheme" type="text/css">
   .ColorScheme-Text { color:#b15155; } .ColorScheme-Highlight { color:#4285f4; } .ColorScheme-NeutralText { color:#ff9800; } .ColorScheme-PositiveText { color:#4caf50; } .ColorScheme-NegativeText { color:#f44336; }
  </style>
 </defs>
 <path style="fill:currentColor" class="ColorScheme-Text" d="m8.9008 4.0046c-3.0145 0.8638-5.1423 3.1876-4.8788 6.4192 0.30404 3.7286 5.7586 7.4982 7.8951 7.5762 0.93109-0.21818 0.39182-3.1702-0.15625-5.3984-0.15364-0.60202-0.30807-1.2016-0.48438-1.8047-0.05735-0.19536-0.1264-0.43708-0.14453-0.49609-0.29178-0.96963-0.64508-2.0771-1.2227-3.8379-0.10922-0.31826 0.12072-0.65138 0.45703-0.66211 0.22509-0.00746 0.42739 0.13647 0.49414 0.35156 1.0011 3.0519 1.3984 4.3934 1.8066 5.9688 1.6088 1.9966 3.9476 4.729 4.7031 4.5586 1.1654-0.2629 1.5874-7.948-0.53774-10.318-2.126-2.3703-4.941-2.9273-7.932-2.357z"/>
</svg>
