<svg xmlns="http://www.w3.org/2000/svg" width="22" height="22" version="1.1">
 <defs>
  <style id="current-color-scheme" type="text/css">
   .ColorScheme-Text { color:#b15155; } .ColorScheme-Highlight { color:#4285f4; } .ColorScheme-NeutralText { color:#ff9800; } .ColorScheme-PositiveText { color:#4caf50; } .ColorScheme-NegativeText { color:#f44336; }
  </style>
 </defs>
 <path style="fill:currentColor" class="ColorScheme-Text" d="M 16.435547 3 A 1.0000948 0.99972028 0 0 0 16.275391 3.0195312 L 5.9765625 5.1894531 A 1.0000948 0.99972028 0 0 0 5.9472656 5.1992188 C 4.5107246 5.5456889 3.4983223 6.6303201 2.8164062 7.8769531 C 2.1344902 9.1234861 1.7241851 10.586308 1.4550781 12.013672 C 1.2780766 12.952436 1.1822107 13.838863 1.1132812 14.669922 A 3 3 0 0 1 3 14 A 3 3 0 0 1 3.1816406 14.009766 C 3.4580086 11.390232 4.1610323 7.9960938 5.9726562 7.9960938 C 8.9200092 7.9960938 9 16.992188 9 16.992188 L 6 16.992188 A 3 3 0 0 1 6 17 A 3 3 0 0 1 5.2871094 18.943359 L 11.078125 19 A 1.0000948 0.99972028 0 0 0 11.298828 18.978516 L 21.191406 16.849609 A 1.0000948 0.99972028 0 0 0 21.980469 15.919922 C 21.980469 15.919922 22.128042 12.946857 21.611328 9.8789062 C 21.352971 8.3449692 20.93849 6.7745224 20.177734 5.4746094 C 19.416979 4.1746964 18.181579 3.0986784 16.537109 3.0078125 A 1.0000948 0.99972028 0 0 0 16.435547 3.0078125 L 16.435547 3 z M 16.486328 5.0195312 C 17.328821 5.0895053 17.909406 5.5489562 18.451172 6.4746094 C 19.007797 7.4257531 19.403272 8.8054487 19.638672 10.203125 C 20.046607 12.625117 19.95382 14.459887 19.935547 15.068359 L 11.275391 16.929688 C 11.268691 14.427173 10.967762 8.4104652 8.0625 6.7929688 L 16.486328 5.0195312 z M 17.699219 9.9960938 L 13.082031 11.175781 L 13 11.289062 L 13.066406 12.677734 L 13.207031 12.716797 L 16.601562 11.816406 L 16.677734 12.978516 L 16.775391 12.994141 L 17.925781 12.597656 L 18 12.533203 L 17.789062 10.076172 L 17.699219 9.9960938 z M 6 10.994141 A 1 0.99962552 0 0 0 5 11.994141 A 1 0.99962552 0 0 0 5.3164062 12.722656 L 4.6738281 14.511719 A 3 3 0 0 1 5.2226562 14.990234 L 7.5 14.978516 L 6.7011719 12.707031 A 1 0.99962552 0 0 0 7 11.994141 A 1 0.99962552 0 0 0 6 10.994141 z"/>
 <circle style="fill:currentColor" class="ColorScheme-Highlight" cx="3" cy="17" r="2"/>
</svg>
