<svg xmlns="http://www.w3.org/2000/svg" width="22" height="22" version="1.1">
 <defs>
  <style id="current-color-scheme" type="text/css">
   .ColorScheme-Text { color:#b15155; } .ColorScheme-Highlight { color:#4285f4; } .ColorScheme-NeutralText { color:#ff9800; } .ColorScheme-PositiveText { color:#4caf50; } .ColorScheme-NegativeText { color:#f44336; }
  </style>
 </defs>
 <path style="fill:currentColor" class="ColorScheme-Text" d="M 16.999817,3 C 12.095154,3 7.9290701,6.2299795 6.5154417,10.673828 A 5,5 0 0 1 8.9295042,10.005859 C 10.397635,7.036477 13.453903,5 16.999817,5 Z m 0,4 c -2.546131,0 -4.782678,1.372955 -6.007813,3.416016 A 5,5 0 0 1 12.628723,11.5625 C 13.480561,10.030668 15.113357,9 16.999817,9 Z M 8.9900511,11 C 8.3135617,11.001344 7.6274787,11.174748 6.9998167,11.537109 5.0868407,12.641449 4.4325561,15.087251 5.5369261,17 c 1.104371,1.912649 3.5500146,2.567231 5.4628909,1.462891 1.912976,-1.104339 2.567262,-3.548188 1.46289,-5.460938 -0.690232,-1.195406 -1.902854,-1.901671 -3.1835934,-1.992187 -0.096055,-0.0068 -0.1924212,-0.01 -0.2890625,-0.0098 z m 6.5097659,0 a 1.5,1.5 0 0 0 -1.5,1.5 1.5,1.5 0 0 0 1.5,1.5 1.5,1.5 0 0 0 1.5,-1.5 1.5,1.5 0 0 0 -1.5,-1.5 z m -6.5000003,0.400391 0.5,0.5 0.5,0.5 -0.5,0.5 -0.5,0.5 V 13 a 2,2 0 0 0 -2,2 v 2.230469 a 3,3 0 0 1 -1,-2.230469 3,3 0 0 1 3,-3 z m 2.0000003,1.36914 a 3,3 0 0 1 1,2.230469 3,3 0 0 1 -3.0000003,3 v 0.5 l -0.5,-0.5 -0.5,-0.5 0.5,-0.5 0.5,-0.5 V 17 a 2,2 0 0 0 2.0000003,-2 z m 3,2.230469 v 4 h 3 v -4 z"/>
</svg>
