<svg xmlns="http://www.w3.org/2000/svg" width="22" height="22" version="1">
 <defs>
  <style id="current-color-scheme" type="text/css">
   .ColorScheme-Text { color:#b15155; } .ColorScheme-Highlight { color:#4285f4; } .ColorScheme-NeutralText { color:#ff9800; } .ColorScheme-PositiveText { color:#4caf50; } .ColorScheme-NegativeText { color:#f44336; }
  </style>
 </defs>
 <path style="fill:currentColor" class="ColorScheme-Text" d="m5 9h0.0000031v7c0 2 0.0000031 2.9996 1.5 2.9998 1.5 0 1.5-1 1.5-3-0.0000031 2-0.0000031 3 1.5 2.9998 1.5 0 1.5-1 1.5-3-0.000003 2 0.000002 2.9996 1.5 2.9998 1.5 0 1.5-1 1.5-3-0.000003 2 0.000002 2.9996 1.5 2.9998 1.5 0 1.5-1 1.5-3v-7h-0.002c0.002-3-0.998-6-5.998-6.0002s-6 3.0002-6 6.0002zm3.5-1.0002c0.831 0 1.5 0.669 1.5 1.5s-0.669 1.5-1.5 1.5-1.5-0.669-1.5-1.5 0.669-1.5 1.5-1.5zm6 0c0.831 0 1.5 0.669 1.5 1.5s-0.669 1.5-1.5 1.5-1.5-0.669-1.5-1.5 0.669-1.5 1.5-1.5z"/>
 <circle style="fill:currentColor" class="ColorScheme-Highlight" cx="20" cy="5" r="2"/>
</svg>
