<svg xmlns="http://www.w3.org/2000/svg" width="22" height="22" version="1.1">
 <defs>
  <style id="current-color-scheme" type="text/css">
   .ColorScheme-Text { color:#b15155; } .ColorScheme-Highlight { color:#4285f4; } .ColorScheme-NeutralText { color:#ff9800; } .ColorScheme-PositiveText { color:#4caf50; } .ColorScheme-NegativeText { color:#f44336; }
  </style>
 </defs>
 <path style="fill:currentColor" class="ColorScheme-Text" d="M 11 3 A 8 8 0 0 0 3 11 A 8 8 0 0 0 11 19 A 8 8 0 0 0 15.115234 17.851562 C 15.683623 18.486375 16.194171 19.147245 16.585938 19.783203 L 18.533203 18.585938 C 18.075669 17.843218 17.511191 17.106626 16.888672 16.402344 A 8 8 0 0 0 19 11 A 8 8 0 0 0 11 3 z M 11 5.8574219 A 4.5714286 5.1428571 0 0 1 15.572266 11 A 4.5714286 5.1428571 0 0 1 14.566406 14.208984 C 14.500841 14.157721 14.439147 14.098881 14.373047 14.048828 C 12.720018 12.797109 10.911397 11.86743 9.0566406 12.011719 L 9.234375 14.291016 C 10.068488 14.226126 11.438904 14.763603 12.78125 15.730469 A 4.5714286 5.1428571 0 0 1 11 16.142578 A 4.5714286 5.1428571 0 0 1 6.4277344 11 A 4.5714286 5.1428571 0 0 1 11 5.8574219 z"/>
</svg>
