<svg xmlns="http://www.w3.org/2000/svg" width="22" height="22" version="1.1">
 <defs>
  <style id="current-color-scheme" type="text/css">
   .ColorScheme-Text { color:#b15155; } .ColorScheme-Highlight { color:#4285f4; } .ColorScheme-NeutralText { color:#ff9800; } .ColorScheme-PositiveText { color:#4caf50; } .ColorScheme-NegativeText { color:#f44336; }
  </style>
 </defs>
 <g transform="translate(-545 401.01)">
  <path style="fill:currentColor" class="ColorScheme-NegativeText" d="m4 3v8.604c-0.0002 4.947 7 7.396 7 7.396s7-2.449 7-7.396v-8.604h-14zm2 2h5v5h5v2.199c0 3.613-5 4.801-5 4.801v-7h-5v-5z" transform="translate(545 -401.01)"/>
 </g>
</svg>
