<svg xmlns="http://www.w3.org/2000/svg" width="22" height="22" version="1.1">
 <defs>
  <style id="current-color-scheme" type="text/css">
   .ColorScheme-Text { color:#b15155; } .ColorScheme-Highlight { color:#4285f4; } .ColorScheme-NeutralText { color:#ff9800; } .ColorScheme-PositiveText { color:#4caf50; } .ColorScheme-NegativeText { color:#f44336; }
  </style>
 </defs>
 <path style="fill:currentColor" class="ColorScheme-Text" d="m17.928 15a8 8 0 0 0 -2.928 -10.928 8 8 0 0 0 -10.928 2.928 8 8 0 0 0 2.928 10.928 8 8 0 0 0 10.928 -2.928zm-1.732-1a6 6 0 0 1 -3.995 2.874 1.5 1.5 0 0 1 -0.112 0.24 1.5 1.5 0 0 1 -2.049 0.549 1.5 1.5 0 0 1 -0.695 -0.902 6 6 0 0 1 -1.345 -0.565 6 6 0 0 1 -2.4898 -2.793 1.5 1.5 0 0 1 -0.6908 -0.198 1.5 1.5 0 0 1 -0.549 -2.049 1.5 1.5 0 0 1 0.75727 -0.64758 6 6 0 0 1 0.77622 -2.5085 6 6 0 0 1 5.1955 -2.9949 1.5 1.5 0 0 1 0.02757 -0.051749 1.5 1.5 0 0 1 2.049 -0.54904 1.5 1.5 0 0 1 0.74661 1.3084 6 6 0 0 1 0.17742 0.091119 6 6 0 0 1 2.1962 8.1962zm-0.866-0.5a5 5 0 0 0 -1.83 -6.8301 5 5 0 0 0 -0.019 -0.0108 1.5 1.5 0 0 1 -1.191 0.541l-1.2518 3.2736a1.5 1.5 0 0 1 0.32831 1.8923 1.5 1.5 0 0 1 -0.59172 0.57176l0.29752 1.9534a1.5 1.5 0 0 1 0.46824 0.17336 1.5 1.5 0 0 1 0.6598 0.78688 5 5 0 0 0 3.129 -2.351zm-5.2474 1.5419-0.29751-1.9534a1.5 1.5 0 0 1 -0.468 -0.174 1.5 1.5 0 0 1 -0.6277 -0.71l-1.6779 0.11a1.5 1.5 0 0 1 -0.143 0.341 1.5 1.5 0 0 1 -0.3998 0.45 5 5 0 0 0 2.0314 2.224 5 5 0 0 0 0.9265 0.41088 1.5 1.5 0 0 1 0.06453 -0.12737 1.5 1.5 0 0 1 0.59172 -0.57176zm0.02071-4.9226 1.2501-3.2746a1.5 1.5 0 0 1 -0.495 -0.838 5 5 0 0 0 -4.1891 2.4936 5 5 0 0 0 -0.63602 1.9805 1.5 1.5 0 0 1 0.28554 0.12652 1.5 1.5 0 0 1 0.62768 0.7097l1.6779-0.1093a1.5 1.5 0 0 1 0.143 -0.34143 1.5 1.5 0 0 1 1.3355 -0.74675z"/>
</svg>
