<svg xmlns="http://www.w3.org/2000/svg" width="22" height="22" version="1.1">
 <defs>
  <style id="current-color-scheme" type="text/css">
   .ColorScheme-Text { color:#b15155; } .ColorScheme-Highlight { color:#4285f4; } .ColorScheme-NeutralText { color:#ff9800; } .ColorScheme-PositiveText { color:#4caf50; } .ColorScheme-NegativeText { color:#f44336; }
  </style>
 </defs>
 <path style="fill:currentColor" class="ColorScheme-Text" d="M 9.7480469,8 A 0.73085587,0.79027464 0 0 0 9,8.7929688 v 4.4160152 a 0.73085587,0.79027464 0 0 0 1.095703,0.685547 l 3.539063,-2.208984 a 0.73085587,0.79027464 0 0 0 0,-1.369141 L 10.095703,8.1054688 A 0.73085587,0.79027464 0 0 0 9.7480469,8 Z"/>
 <path style="opacity:.35;fill:currentColor" class="ColorScheme-Text" d="m 11,3 c -4.4064334,0 -8,3.5935666 -8,8 0,4.406433 3.5935666,8 8,8 4.406433,0 8,-3.593567 8,-8 0,-4.4064334 -3.593567,-8 -8,-8 z m 0,2 c 3.325553,0 6,2.6744469 6,6 0,3.325553 -2.674447,6 -6,6 C 7.6744469,17 5,14.325553 5,11 5,7.6744469 7.6744469,5 11,5 Z"/>
 <path style="fill:currentColor" class="ColorScheme-Text" d="M 11 3 L 11 5 A 6 6 0 0 1 17 11 A 6 6 0 0 1 16.191406 13.998047 L 17.927734 15 A 8 8 0 0 0 17.927734 7 A 8 8 0 0 0 11 3 z"/>
</svg>
