<svg xmlns="http://www.w3.org/2000/svg" width="22" height="22" version="1">
 <defs>
  <style id="current-color-scheme" type="text/css">
   .ColorScheme-Text { color:#b15155; } .ColorScheme-Highlight { color:#4285f4; } .ColorScheme-NeutralText { color:#ff9800; } .ColorScheme-PositiveText { color:#4caf50; } .ColorScheme-NegativeText { color:#f44336; }
  </style>
 </defs>
 <path style="fill:currentColor" class="ColorScheme-Text" d="M 18.687469,18.303648 C 18.988656,17.713496 20.719303,7.6225543 20.966707,5.014024 21.234358,2.4291935 19.838794,2.9098647 18.554652,3.3465239 15.404153,4.4215295 5.4432767,8.2785996 2.7167917,9.7167156 c -0.671236,0.281269 -0.961371,0.7585014 -0.472969,1.1715564 0.420514,0.350114 1.95926,0.830984 3.200218,1.075015 1.057861,0.323857 1.87956,0.01365 2.638057,-0.418712 1.8228123,-1.092109 7.2543803,-4.0650439 7.5468763,-4.2586463 0.292496,-0.1936024 0.612628,0.1656936 0.448928,0.3396304 -0.163701,0.173936 -4.010423,3.6599339 -5.27339,5.2360679 -0.669101,0.866629 -0.649059,1.329311 0.0383,1.8758 1.54204,1.221933 5.662057,4.007627 6.275101,4.176004 0.781724,0.214705 1.239555,0.03683 1.569559,-0.609783 z"/>
</svg>
