<svg xmlns="http://www.w3.org/2000/svg" width="22" height="22" version="1.1">
 <defs>
  <style id="current-color-scheme" type="text/css">
   .ColorScheme-Text { color:#b15155; } .ColorScheme-Highlight { color:#4285f4; } .ColorScheme-NeutralText { color:#ff9800; } .ColorScheme-PositiveText { color:#4caf50; } .ColorScheme-NegativeText { color:#f44336; }
  </style>
 </defs>
 <path style="fill:currentColor" class="ColorScheme-Text" d="M 11.532,3.0034 C 11.101,2.9906 11.014,3.0055 10.89,3.1167 10.686,3.2945 10.696,3.677 10.907,3.8393 11.021,3.9242 11.108,3.9439 11.61,3.9722 13.096,4.057 14.232,4.4496 15.329,5.2554 16.645,6.2187 17.47,7.5608 17.782,9.2416 17.862,9.6706 17.902,10.029 17.929,10.584 17.945,10.946 17.957,11.026 18.005,11.119 18.156,11.401 18.597,11.442 18.798,11.191 18.904,11.062 18.916,10.962 18.897,10.51 18.847,9.1846 18.553,7.9807 18.038,6.9683 17.668,6.2427 17.321,5.7748 16.692,5.1577 16.021,4.5042 15.513,4.1464 14.72,3.7671 13.913,3.3824 13.178,3.1673 12.269,3.0561 12.089,3.0353 11.757,3.0108 11.532,3.0034 Z M 5.89,3.269 C 5.7701,3.2581 5.5658,3.2768 5.5658,3.2768 5.3145,3.3287 4.9995,3.5115 4.3178,4.0073 3.9083,4.3071 3.3464,4.8451 3.2143,5.062 2.9078,5.576 2.9251,6.0126 3.2983,7.0171 3.9383,8.7396 4.8734,10.4 6.1029,12.002 8.456,15.067 11.42,17.296 15.132,18.791 15.605,18.982 15.759,19.014 16.13,18.996 16.579,18.975 16.92,18.839 17.401,18.482 17.933,18.088 18.694,17.163 18.89,16.67 19.075,16.202 19.026,15.778 18.751,15.447 18.595,15.264 17.442,14.344 16.903,13.975 16.494,13.696 15.86,13.312 15.569,13.164 15.186,12.973 14.804,12.94 14.431,13.064 14.137,13.163 14.041,13.247 13.612,13.773 13.39,14.042 12.95,14.422 12.95,14.422 12.604,14.58 12.13,14.485 11.356,14.107 10.753,13.816 10.219,13.447 9.614,12.904 9.099,12.445 8.5794,11.844 8.2884,11.377 7.9131,10.775 7.627,9.9936 7.6243,9.5616 7.6243,9.3756 7.7962,8.9779 7.7962,8.9779 L 8.3196,8.5209 C 8.946,8.0277 9.086,7.8739 9.171,7.5795 9.253,7.3061 9.165,6.9355 8.9035,6.437 8.4462,5.5639 7.0487,3.8171 6.5462,3.4917 6.4641,3.4398 6.3202,3.3684 6.2279,3.3374 6.1326,3.3037 6.0099,3.28 5.89,3.269 Z M 11.778,4.8921 C 11.629,4.915 11.542,4.9752 11.474,5.0796 H 11.472 C 11.345,5.2682 11.36,5.4958 11.511,5.6636 11.608,5.7747 11.751,5.8263 12.011,5.8472 12.728,5.9037 13.513,6.133 14.046,6.4429 14.664,6.8019 15.172,7.3177 15.52,7.9428 15.827,8.4905 16.005,9.1956 16.005,9.8646 16.005,10.299 16.065,10.458 16.269,10.559 16.39,10.621 16.611,10.626 16.714,10.574 16.809,10.525 16.92,10.408 16.954,10.32 16.991,10.227 16.99,9.6656 16.956,9.3586 16.858,8.5194 16.574,7.736 16.116,7.0698 15.302,5.8868 14.059,5.1596 12.454,4.9292 12.138,4.8827 11.927,4.8692 11.778,4.8921 Z M 12.339,6.8237 C 12.288,6.8295 12.253,6.8424 12.202,6.8667 11.935,7.0008 11.861,7.365 12.054,7.5893 12.159,7.7105 12.258,7.7462 12.583,7.7846 13.276,7.8674 13.684,8.1204 13.917,8.6088 14.025,8.8385 14.09,9.0876 14.124,9.4406 14.153,9.7066 14.193,9.8046 14.319,9.8976 14.494,10.03 14.781,10.024 14.937,9.8846 15.103,9.7346 15.133,9.5546 15.061,9.0956 14.956,8.3904 14.716,7.8984 14.276,7.4936 13.935,7.1811 13.535,6.9869 13.015,6.8784 12.907,6.8556 12.705,6.8332 12.567,6.8257 12.567,6.8257 12.389,6.818 12.339,6.8237 Z"/>
</svg>
