<svg xmlns="http://www.w3.org/2000/svg" width="22" height="22" version="1.1">
 <defs>
  <style id="current-color-scheme" type="text/css">
   .ColorScheme-Text { color:#b15155; } .ColorScheme-Highlight { color:#4285f4; } .ColorScheme-NeutralText { color:#ff9800; } .ColorScheme-PositiveText { color:#4caf50; } .ColorScheme-NegativeText { color:#f44336; }
  </style>
 </defs>
 <g transform="translate(3,-3)">
  <rect style="opacity:.35;fill:currentColor" class="ColorScheme-Text" width="14" height="2" x="2" y="19" rx="1" ry="1"/>
  <rect style="opacity:.35;fill:currentColor" class="ColorScheme-Text" width="13" height="2" x="0" y="15" rx="1" ry="1"/>
  <rect style="opacity:.35;fill:currentColor" class="ColorScheme-Text" width="12" height="2" x="4" y="11" rx="1" ry="1"/>
  <rect style="opacity:.35;fill:currentColor" class="ColorScheme-Text" width="8" height="2" x="1" y="7" rx="1" ry="1"/>
 </g>
</svg>
