<svg xmlns="http://www.w3.org/2000/svg" width="22" height="22" version="1.1">
 <defs>
  <style id="current-color-scheme" type="text/css">
   .ColorScheme-Text { color:#b15155; } .ColorScheme-Highlight { color:#4285f4; } .ColorScheme-NeutralText { color:#ff9800; } .ColorScheme-PositiveText { color:#4caf50; } .ColorScheme-NegativeText { color:#f44336; }
  </style>
 </defs>
 <path style="fill:currentColor" class="ColorScheme-Text" d="m 9.9999998,3 a 7,6.5 0 0 0 -6.9999996,6.5 7,6.5 0 0 0 2,4.546875 l 0,2.953125 1.3203125,-1.980469 a 7,6.5 0 0 0 2.2617187,0.833985 C 8.2131046,15.143061 8.0000002,14.348082 8.0000002,13.5 c 0,-2.439883 1.7230416,-4.4546167 4.0488288,-5.1933594 A 1,1 0 0 1 11.999999,8 a 1,1 0 0 1 1,-1 1,1 0 0 1 1,1 c 1.061383,0 2.066598,0.2619524 2.943359,0.7167969 A 7,6.5 0 0 0 9.9999988,3 Z M 7.0000002,7 a 1,1 0 0 1 1,1 1,1 0 0 1 -1,1 1,1 0 0 1 -1,-1 1,1 0 0 1 1,-1 z M 14,9 A 5,4.5 0 0 0 8.9999998,13.5 5,4.5 0 0 0 14,18 5,4.5 0 0 0 16.810547,17.216797 L 18,19 18,16.191406 A 5,4.5 0 0 0 19,13.5 5,4.5 0 0 0 14,9 Z m -2,2 a 1,1 0 0 1 1,1 1,1 0 0 1 -1,1 1,1 0 0 1 -1,-1 1,1 0 0 1 1,-1 z m 4,0 a 1,1 0 0 1 1,1 1,1 0 0 1 -1,1 1,1 0 0 1 -1,-1 1,1 0 0 1 1,-1 z"/>
</svg>
