<svg xmlns="http://www.w3.org/2000/svg" width="22" height="22" version="1.1">
 <defs>
  <style id="current-color-scheme" type="text/css">
   .ColorScheme-Text { color:#b15155; } .ColorScheme-Highlight { color:#4285f4; } .ColorScheme-NeutralText { color:#ff9800; } .ColorScheme-PositiveText { color:#4caf50; } .ColorScheme-NegativeText { color:#f44336; }
  </style>
 </defs>
 <path style="fill:currentColor" class="ColorScheme-Text" d="m 11.00015,3.7210001 -2.1894998,2.2793 -2.8105001,0 0,2.8105 -2.2792999,2.1894999 2.2792999,2.2207 0,2.779 2.8105001,0 2.1894998,2.279 2.221,-2.279 2.779,0 0,-2.779 2.279,-2.2207 -2.279,-1.9999999 0,-3 -2.779,0 z m 0,3.2793 c 2.21,0 4,1.79 4,3.9999999 0,2.2097 -1.79,3.9997 -4,3.9997 -2.2099999,0 -3.9999999,-1.79 -3.9999999,-3.9997 0,-2.2099999 1.79,-3.9999999 3.9999999,-3.9999999 z m 0,1 c -1.6568999,0 -2.9999998,1.3431 -2.9999998,2.9999999 0,1.6569 1.3430999,2.9997 2.9999998,2.9997 z"/>
</svg>
