<svg xmlns="http://www.w3.org/2000/svg" width="16" height="16" version="1.1">
 <path style="fill:#cb8c8e" d="M 8,0 C 4.68,0 2,2.68 2,6 V 10 C 2,10 2,12 4,12 H 6 V 7 H 4 V 6 C 4,3.78 5.78,2 8,2 10.22,2 12,3.78 12,6 V 7 H 10 V 12 H 13 C 13,13.66 11.66,15 10,15 V 14 H 6 V 16 H 10 C 12.22,16 14,14.22 14,12 V 6 C 14,2.68 11.32,0 8,0 Z"/>
</svg>
