<svg xmlns="http://www.w3.org/2000/svg" width="16" height="16" version="1.1">
 <defs>
  <style id="current-color-scheme" type="text/css">
   .ColorScheme-Text { color:#cb8c8e; } .ColorScheme-Highlight { color:#4285f4; } .ColorScheme-NeutralText { color:#ff9800; } .ColorScheme-PositiveText { color:#4caf50; } .ColorScheme-NegativeText { color:#f44336; }
  </style>
 </defs>
 <path style="fill:currentColor" class="ColorScheme-Text" d="M 12.779,1 C 9.8188,1 9.2618,5 10.929,5 12.593,5 15.741,1 12.779,1 Z M 8.2298,2 C 8.1828,2 8.1308,2.005 8.0788,2.01 6.3838,2.214 6.9788,4.949 7.8818,5 8.7548,5.05 9.7108,2.008 8.2308,2 Z M 5.1398,3 C 5.0188,2.995 4.8838,3.011 4.7348,3.049 3.1488,3.45 4.4938,5.106 5.3818,4.994 6.1878,4.893 6.3048,3.047 5.1398,3 Z M 2.9288,5 C 2.7868,4.998 2.6328,5.029 2.4698,5.105 1.1658,5.721 2.9098,7.207 3.6768,6.977 4.3478,6.775 3.9198,5.023 2.9288,5 Z M 9.0108,6 C 6.6768,5.963 3.5988,7.065 3.0728,9.279 2.5048,11.676 5.4158,15 8.4498,15 9.9428,15 11.665,14.329 11.987,12.721 12.232,11.495 8.8958,12.023 9.0088,12.834 9.1438,13.807 8.4458,13.652 7.5708,13.025 5.0008,11 12.181,10.034 11.694,7.307 11.543,6.458 10.411,6.024 9.0108,6.002 Z"/>
</svg>
