<svg xmlns="http://www.w3.org/2000/svg" width="16" height="16" version="1.1">
 <defs>
  <style id="current-color-scheme" type="text/css">
   .ColorScheme-Text { color:#cb8c8e; } .ColorScheme-Highlight { color:#4285f4; } .ColorScheme-NeutralText { color:#ff9800; } .ColorScheme-PositiveText { color:#4caf50; } .ColorScheme-NegativeText { color:#f44336; }
  </style>
 </defs>
 <g>
  <circle style="fill:currentColor" class="ColorScheme-Text" cx="3" cy="8" r="2"/>
  <circle style="fill:currentColor" class="ColorScheme-Text" cx="8" cy="8" r="2"/>
  <circle style="fill:currentColor" class="ColorScheme-Text" cx="13" cy="8" r="2"/>
 </g>
</svg>
