<svg xmlns="http://www.w3.org/2000/svg" width="16" height="16">
 <defs>
  <style id="current-color-scheme" type="text/css">
   .ColorScheme-Text { color:#cb8c8e; } .ColorScheme-Highlight { color:#4285f4; } .ColorScheme-NeutralText { color:#ff9800; } .ColorScheme-PositiveText { color:#4caf50; } .ColorScheme-NegativeText { color:#f44336; }
  </style>
 </defs>
 <g transform="translate(-465,-187)">
  <path style="fill:currentColor" class="ColorScheme-Text" d="m466.5 195h1.5v6h4v-4h3v4h4v-6h1.5l-7-7z"/>
 </g>
</svg>
