<svg xmlns="http://www.w3.org/2000/svg" width="22" height="22" version="1">
 <rect style="opacity:0.2" width="20" height="12" x="1" y="8.5" rx="1" ry="1"/>
 <path style="fill:#0093a1" d="M 1,16 C 1,16.554 1.446,17 2,17 H 20 C 20.554,17 21,16.554 21,16 V 5 C 21,4.446 20.554,4 20,4 H 11 C 9.5,4 9,2 7.5,2 H 2 C 1.446,2 1,2.446 1,3"/>
 <rect style="opacity:0.2" width="20" height="12" x="1" y="7.5" rx="1" ry="1"/>
 <rect style="fill:#e4e4e4" width="16" height="8" x="3" y="6" rx="1" ry="1"/>
 <rect style="fill:#fd4f59" width="20" height="12" x="1" y="8" rx="1" ry="1"/>
 <path style="opacity:0.1;fill:#ffffff" d="M 2,2 C 1.446,2 1,2.446 1,3 V 3.5 C 1,2.946 1.446,2.5 2,2.5 H 7.5 C 9,2.5 9.5,4.5 11,4.5 H 20 C 20.554,4.5 21,4.946 21,5.5 V 5 C 21,4.446 20.554,4 20,4 H 11 C 9.5,4 9,2 7.5,2 Z"/>
 <path style="fill:#ffffff" d="M 11,10 C 8.7909,10 7,11.791 7,14 7,16.209 8.7909,18 11,18 13.209,18 15,16.209 15,14 15,11.791 13.209,10 11,10 Z M 10.714,11.107 C 10.752,11.103 10.801,11.109 10.839,11.107 10.844,11.125 10.811,11.19 10.768,11.286 10.49,11.892 10.474,12.602 10.732,12.982 10.779,13.051 10.821,13.116 10.821,13.125 10.821,13.133 10.771,13.143 10.714,13.143 10.581,13.143 10.454,13.061 10.196,12.857 10.082,12.766 9.9331,12.69 9.8751,12.678 9.7841,12.66 9.7601,12.668 9.6431,12.786 9.5341,12.895 9.5001,12.954 9.5001,13.053 9.5001,13.432 9.9501,13.733 10.786,13.911 11.921,14.151 12.201,14.367 12.232,14.964 12.271,15.713 11.873,16.277 11,16.714 10.896,16.766 10.829,16.786 10.786,16.803 10.766,16.802 10.751,16.805 10.732,16.803 10.725,16.78 10.714,16.727 10.714,16.625 10.714,16.227 10.558,15.818 10.321,15.589 10.258,15.528 10.081,15.397 9.9291,15.303 9.7771,15.209 9.6231,15.1 9.5891,15.053 9.5331,14.976 9.5281,14.928 9.5711,14.786 9.6511,14.524 9.7451,14.379 9.9291,14.214 10.025,14.128 10.122,14.055 10.143,14.053 10.164,14.052 10.02,14.008 9.8041,13.964 9.5871,13.92 9.2711,13.827 9.1071,13.768 8.808,13.659 8.4041,13.432 8.2501,13.268 8.2436,13.261 8.2379,13.256 8.2323,13.25 8.4529,12.371 9.0721,11.651 9.8931,11.303 10.065,11.231 10.242,11.181 10.429,11.143 10.522,11.124 10.618,11.117 10.714,11.107 Z M 13.393,12.446 C 13.46,12.488 13.713,13.036 13.786,13.303 13.879,13.649 13.872,14.246 13.786,14.589 13.753,14.72 13.71,14.842 13.696,14.857 13.682,14.872 13.631,14.785 13.571,14.678 13.511,14.572 13.32,14.346 13.161,14.178 12.701,13.694 12.629,13.44 12.821,13.053 12.918,12.858 13.341,12.414 13.393,12.446 Z"/>
</svg>
