<svg xmlns="http://www.w3.org/2000/svg" width="22" height="22" version="1.1">
 <defs>
  <style id="current-color-scheme" type="text/css">
   .ColorScheme-Text { color:#c9ebf4; } .ColorScheme-Highlight { color:#4285f4; } .ColorScheme-NeutralText { color:#ff9800; } .ColorScheme-PositiveText { color:#4caf50; } .ColorScheme-NegativeText { color:#f44336; }
  </style>
 </defs>
 <g transform="translate(3,3)">
  <path style="fill:currentColor" class="ColorScheme-Text" d="M 2,6 V 10 H 3 V 9 H 4 V 10 H 5 V 6 Z M 3,7 H 4 V 8 H 3 Z M 1,3 V 5 H 5.5 L 6.5,7 7.5,5 6.5,3 Z M 11,9 V 11 H 10.5 L 9.5,9 8.5,11 9.5,13 H 11 V 15 L 15,12 Z M 11,1 V 3 H 9.5 L 5.5,11 H 1 V 13 H 6.5 L 10.5,5 H 11 V 7 L 15,4 Z"/>
 </g>
</svg>
