<?xml version="1.0" encoding="UTF-8" standalone="no"?>
<svg
   xmlns:dc="http://purl.org/dc/elements/1.1/"
   xmlns:cc="http://creativecommons.org/ns#"
   xmlns:rdf="http://www.w3.org/1999/02/22-rdf-syntax-ns#"
   xmlns:svg="http://www.w3.org/2000/svg"
   xmlns="http://www.w3.org/2000/svg"
   xmlns:sodipodi="http://sodipodi.sourceforge.net/DTD/sodipodi-0.dtd"
   xmlns:inkscape="http://www.inkscape.org/namespaces/inkscape"
   width="22"
   height="22"
   version="1.1"
   id="svg7"
   sodipodi:docname="view-financial-account-savings@22x22.svg"
   inkscape:version="0.92.5 (2060ec1f9f, 2020-04-08)">
  <metadata
     id="metadata11">
    <rdf:RDF>
      <cc:Work
         rdf:about="">
        <dc:format>image/svg+xml</dc:format>
        <dc:type
           rdf:resource="http://purl.org/dc/dcmitype/StillImage" />
      </cc:Work>
    </rdf:RDF>
  </metadata>
  <sodipodi:namedview
     pagecolor="#ffffff"
     bordercolor="#666666"
     borderopacity="1"
     objecttolerance="10"
     gridtolerance="10"
     guidetolerance="10"
     inkscape:pageopacity="0"
     inkscape:pageshadow="2"
     inkscape:window-width="622"
     inkscape:window-height="436"
     id="namedview9"
     showgrid="false"
     inkscape:zoom="14.75"
     inkscape:cx="8"
     inkscape:cy="8"
     inkscape:window-x="0"
     inkscape:window-y="0"
     inkscape:window-maximized="0"
     inkscape:current-layer="svg7" />
  <defs
     id="defs3">
    <style
       id="current-color-scheme"
       type="text/css">
   .ColorScheme-Text { color:#c9ebf4; } .ColorScheme-Highlight { color:#4285f4; } .ColorScheme-NeutralText { color:#ff9800; } .ColorScheme-PositiveText { color:#4caf50; } .ColorScheme-NegativeText { color:#f44336; }
  </style>
  </defs>
  <g transform="translate(3,3)"
     id="g14">
    <path
       id="path5"
       d="M 7.5 2 A 2.5 2.5 0 0 0 5 4.5 A 2.5 2.5 0 0 0 5.0546875 5 L 9.9492188 5 A 2.5 2.5 0 0 0 10 4.5 A 2.5 2.5 0 0 0 7.5 2 z M 13 4 A 2 2 0 0 0 11 6 L 7 6 A 4 4 0 0 0 3.1308594 9 L 2.0957031 9 L 2.0917969 9 C 1.2611397 8.9907141 1.0421402 8.6412855 1.0058594 8.4140625 C 0.98767926 8.3002029 1.0163631 8.2049368 1.078125 8.1328125 C 1.1398869 8.0606882 1.239055 7.9940565 1.4589844 7.9921875 A 0.50005 0.50005 0 1 0 1.4511719 6.9921875 C 0.98941513 6.9961117 0.57754584 7.1797493 0.31835938 7.4824219 C 0.05917286 7.7850945 -0.043820365 8.1877329 0.017578125 8.5722656 C 0.1403751 9.3413311 0.92304425 9.9890988 2.0878906 10 A 0.50005 0.50005 0 0 0 2.0917969 10 L 3 10 A 4 4 0 0 0 6 13.869141 L 6 15 L 8 15 L 8 14 L 10 14 L 10 15 L 12 15 L 12 13.867188 A 4 4 0 0 0 14.458984 12 L 16 12 L 16 9 L 14.867188 9 A 4 4 0 0 0 13 6.5410156 L 13 4 z M 12.5 8 A 0.5 0.5 0 0 1 13 8.5 A 0.5 0.5 0 0 1 12.5 9 A 0.5 0.5 0 0 1 12 8.5 A 0.5 0.5 0 0 1 12.5 8 z"
       class="ColorScheme-Text"
       style="fill:currentColor" />
  </g>
</svg>
