<svg xmlns="http://www.w3.org/2000/svg" width="16" height="16" version="1.1">
 <path style="fill:#cb8c8e" d="M 1,11.88 V 15 H 4.12 L 12,7.1195 8.88,4 Z M 14.76,4.3695 C 15.065,4.0647 15.09,3.5195 14.76,3.1895 L 12.81,1.2395 C 12.48,0.90947 11.934,0.93377 11.63,1.2395 L 10,2.8795 13.12,6 Z"/>
</svg>
