<svg xmlns="http://www.w3.org/2000/svg" width="16" height="16" version="1.1">
 <path style="fill:#cb8c8e" d="M 3,3 H 13 V 13 H 3 Z M 8,0 V 2 H 14 V 7 H 16 V 2 C 16,0 14,0 14,0 Z M 0,9 V 14 C 0,16 2,16 2,16 H 8 V 14 H 2 V 9 Z"/>
</svg>
