<svg xmlns="http://www.w3.org/2000/svg" width="16" height="16" version="1.1">
 <path style="fill:#c9ebf4" d="M 2.6660156 0 C 1.1860156 0 -2.9605947e-16 1.1860156 0 2.6660156 L 0 13.333984 C 0 14.813984 1.1860156 16 2.6660156 16 L 13.333984 16 C 14.813984 16 16 14.813984 16 13.333984 L 16 2.6660156 C 16 1.1860156 14.813984 -2.9605947e-16 13.333984 0 L 2.6660156 0 z M 3.1992188 2 L 12.800781 2 C 13.460781 2 14 2.5392187 14 3.1992188 L 14 12.800781 C 14 13.460782 13.460781 14 12.800781 14 L 3.1992188 14 C 2.5392187 14 2 13.460782 2 12.800781 L 2 3.1992188 C 2 2.5392187 2.5392187 2 3.1992188 2 z"/>
</svg>
