<svg xmlns="http://www.w3.org/2000/svg" width="16" height="16" version="1.1">
 <path style="fill:#c9ebf4" d="M 2.6660156 0 C 1.1860156 0 1.1842379e-15 1.1860156 0 2.6660156 L 0 13.333984 C 0 14.813984 1.1860156 16 2.6660156 16 L 13.333984 16 C 14.813984 16 16 14.813984 16 13.333984 L 16 5.828125 L 14 7.828125 L 14 12.800781 C 14 13.460782 13.460781 14 12.800781 14 L 3.1992188 14 C 2.5392187 14 2 13.460782 2 12.800781 L 2 3.1992188 C 2 2.5392187 2.5392187 2 3.1992188 2 L 12.800781 2 C 13.177988 2 13.512235 2.1789787 13.732422 2.453125 C 14.088198 2.1616304 14.536234 2.0000702 15 2 C 15.340466 2.0000515 15.671649 2.0883556 15.964844 2.25 C 15.76637 0.97059885 14.671862 2.9605947e-16 13.333984 0 L 2.6660156 0 z M 15 3 A 1 1 0 0 0 14.292969 3.2929688 L 8.109375 9.4765625 L 5.8007812 6.4003906 A 1 1 0 0 0 4.4003906 6.1992188 A 1 1 0 0 0 4.1992188 7.5996094 L 7.1992188 11.599609 A 1.0001 1.0001 0 0 0 8.7070312 11.707031 L 15.707031 4.7070312 A 1 1 0 0 0 15.707031 3.2929688 A 1 1 0 0 0 15 3 z"/>
</svg>
