<svg xmlns="http://www.w3.org/2000/svg" width="24" height="24" version="1.1">
 <defs>
  <style id="current-color-scheme" type="text/css">
   .ColorScheme-Text { color:#cb8c8e; } .ColorScheme-Highlight { color:#4285f4; } .ColorScheme-NeutralText { color:#ff9800; } .ColorScheme-PositiveText { color:#4caf50; } .ColorScheme-NegativeText { color:#f44336; }
  </style>
 </defs>
 <g transform="matrix(1,0,0,1,4,4)">
  <path style="fill:currentColor" class="ColorScheme-Text" d="M 8,0 C 8.554,0 9,0.446 9,1 9,1.554 8.554,2 8,2 7.446,2 7,1.554 7,1 7,0.446 7.446,0 8,0 Z M 2.5,2 C 1.669,2 1,2.669 1,3.5 V 10.5 C 1,11.331 1.669,12 2.5,12 H 7 V 13 H 4 V 15 H 12 V 13 H 9 V 12 H 13.5 C 14.331,12 15,11.331 15,10.5 V 3.5 C 15,2.669 14.331,2 13.5,2 Z M 4,4 H 12 C 12,4 14,4 14,5 14,6 12,6 12,6 H 4 C 4,6 2,6 2,5 2,4 4,4 4,4 Z"/>
 </g>
</svg>
