<svg xmlns="http://www.w3.org/2000/svg" width="24" height="24" version="1.1">
 <defs>
  <style id="current-color-scheme" type="text/css">
   .ColorScheme-Text { color:#cb8c8e; } .ColorScheme-Highlight { color:#4285f4; } .ColorScheme-NeutralText { color:#ff9800; } .ColorScheme-PositiveText { color:#4caf50; } .ColorScheme-NegativeText { color:#f44336; }
  </style>
 </defs>
 <g transform="matrix(1,0,0,1,4,4)">
  <path style="fill:currentColor" class="ColorScheme-Text" d="M 14,9 10,13 V 15 H 12 L 16,11 Z M 2,2 C 1,2 1,3 1,3 V 13 C 1,14 2,14 2,14 H 9 V 12.582 L 9.582,12 H 3 V 9.5 L 5.5,6.5625 8.8125,10.313 10.938,8.25 12.135,9.4473 14,7.582 15,8.582 V 3 C 15,2 14,2 14,2 Z"/>
 </g>
</svg>
