<svg xmlns="http://www.w3.org/2000/svg" width="24" height="24" version="1.1">
 <defs>
  <style id="current-color-scheme" type="text/css">
   .ColorScheme-Text { color:#cb8c8e; } .ColorScheme-Highlight { color:#4285f4; } .ColorScheme-NeutralText { color:#ff9800; } .ColorScheme-PositiveText { color:#4caf50; } .ColorScheme-NegativeText { color:#f44336; }
  </style>
 </defs>
 <g transform="translate(4,4)">
  <path style="fill:currentColor" class="ColorScheme-Text" d="M 1,1 V 7 H 7 V 1 Z M 9,1 V 7 H 15 V 1 Z M 1,9 V 15 H 7 V 9 Z M 12,9 C 10,9 10,10 10,10 V 12 H 9 V 15 H 15 V 12 H 14 V 10 C 14,10 14,9 12,9 Z M 12,10 C 13,10 13,10.5 13,10.5 V 12 H 11 V 10.5 C 11,10.5 11,10 12,10 Z"/>
 </g>
</svg>
