<svg xmlns="http://www.w3.org/2000/svg" width="24" height="24" version="1.1">
 <defs>
  <style id="current-color-scheme" type="text/css">
   .ColorScheme-Text { color:#cb8c8e; } .ColorScheme-Highlight { color:#4285f4; } .ColorScheme-NeutralText { color:#ff9800; } .ColorScheme-PositiveText { color:#4caf50; } .ColorScheme-NegativeText { color:#f44336; }
  </style>
 </defs>
 <g transform="translate(4,4)">
  <path style="fill:currentColor" class="ColorScheme-Text" d="M 13,1 C 13,1 14,1 14,2 V 6 H 12 V 3 H 4 V 13 H 12 V 10 C 12,10 12,9 11,9 H 10 V 11 L 5.5,8 10,5 V 7 H 11 C 11,7 14,7 14,10 V 14 C 14,15 13,15 13,15 H 3 C 3,15 2,15 2,14 V 2 C 2,1 3,1 3,1 Z"/>
 </g>
</svg>
