<svg xmlns="http://www.w3.org/2000/svg" width="24" height="24" version="1.1">
 <defs>
  <style id="current-color-scheme" type="text/css">
   .ColorScheme-Text { color:#cb8c8e; } .ColorScheme-Highlight { color:#4285f4; } .ColorScheme-NeutralText { color:#ff9800; } .ColorScheme-PositiveText { color:#4caf50; } .ColorScheme-NegativeText { color:#f44336; }
  </style>
 </defs>
 <path style="fill:currentColor" class="ColorScheme-Text" d="M 9,8 C 9,8 8,8 8,9 v 10 c 0,1 1,1 1,1 h 8 c 0,0 1,0 1,-1 V 9 C 18,8 17,8 17,8 Z m 1,2 h 6 v 8 h -6 z"/>
 <path style="opacity:.35;fill:currentColor" class="ColorScheme-Text" d="M 6,5 C 6,5 5,5 5,6 v 9 c 0,0 0,1 1,1 H 7 V 7 h 8 V 6 C 15,5 14,5 14,5 Z"/>
</svg>
