<svg xmlns="http://www.w3.org/2000/svg" width="24" height="24" viewBox="0 0 24 24">
 <defs>
  <style id="current-color-scheme" type="text/css">
   .ColorScheme-Text { color:#cb8c8e; } .ColorScheme-Highlight { color:#4285f4; } .ColorScheme-NeutralText { color:#ff9800; } .ColorScheme-PositiveText { color:#4caf50; } .ColorScheme-NegativeText { color:#f44336; }
  </style>
 </defs>
 <path style="fill:currentColor" class="ColorScheme-Text" d="M 4 1 C 2.3432 1 1 2.567 1 4.5 C 1 9.1667 6 12.6667 8 15 C 10 12.6667 15 9.1667 15 4.5 C 15 2.567 13.6568 1 12 1 C 9 1 8 3 8 3 C 8 3 7 1 4 1 z" transform="translate(4 4)"/>
</svg>
