<svg xmlns="http://www.w3.org/2000/svg" width="24" height="24" viewBox="0 0 24 24">
 <defs>
  <style id="current-color-scheme" type="text/css">
   .ColorScheme-Text { color:#cb8c8e; } .ColorScheme-Highlight { color:#4285f4; } .ColorScheme-NeutralText { color:#ff9800; } .ColorScheme-PositiveText { color:#4caf50; } .ColorScheme-NegativeText { color:#f44336; }
  </style>
 </defs>
 <path style="fill:currentColor" class="ColorScheme-Text" d="M 3 2 L 3 14 L 5 14 L 5 2 L 3 2 z M 7 2 L 7 14 L 9 14 L 9 2 L 7 2 z M 11 2 L 11 14 L 13 14 L 13 2 L 11 2 z" transform="translate(4 4)"/>
</svg>
