<svg xmlns="http://www.w3.org/2000/svg" width="24" height="24" version="1.1">
 <defs>
  <style id="current-color-scheme" type="text/css">
   .ColorScheme-Text { color:#cb8c8e; } .ColorScheme-Highlight { color:#4285f4; } .ColorScheme-NeutralText { color:#ff9800; } .ColorScheme-PositiveText { color:#4caf50; } .ColorScheme-NegativeText { color:#f44336; }
  </style>
 </defs>
 <path style="fill:currentColor" class="ColorScheme-Text" d="M 6.4003906,7 C 5.6247906,7 5,7.6363058 5,8.427734 v 7.144532 C 5,16.363694 5.6247906,17 6.4003906,17 H 11 17.599609 C 18.375209,17 19,16.363694 19,15.572266 V 8.427734 C 19,7.6363058 18.375209,7 17.599609,7 H 11 Z"/>
</svg>
