<svg xmlns="http://www.w3.org/2000/svg" width="24" height="24" version="1.1">
 <defs>
  <style id="current-color-scheme" type="text/css">
   .ColorScheme-Text { color:#cb8c8e; } .ColorScheme-Highlight { color:#4285f4; } .ColorScheme-NeutralText { color:#ff9800; } .ColorScheme-PositiveText { color:#4caf50; } .ColorScheme-NegativeText { color:#f44336; }
  </style>
 </defs>
 <path style="opacity:0.35;fill:currentColor" class="ColorScheme-Text" d="m 6,11 c -0.554,0 -1,0.446 -1,1 v 5 c 0,0.554 0.446,1 1,1 h 8 c 0.554,0 1,-0.446 1,-1 v -5 c 0,-0.554 -0.446,-1 -1,-1 z m 4,2 h 0.666016 L 12,14.333984 13.333984,13 H 14 v 0.666016 L 12.666016,15 14,16.333984 V 17 H 13.333984 L 12,15.666016 10.666016,17 H 10 V 16.333984 L 11.333984,15 10,13.666016 Z"/>
 <path style="fill:currentColor" class="ColorScheme-Text" d="M 10,6 C 9.446,6 9,6.446 9,7 v 3 h 5 c 1.090702,0 2,0.909298 2,2 v 1 h 2 c 0.554,0 1,-0.446 1,-1 V 7 C 19,6.446 18.554,6 18,6 Z"/>
</svg>
