<svg xmlns="http://www.w3.org/2000/svg" width="24" height="24" version="1.1">
 <defs>
  <style id="current-color-scheme" type="text/css">
   .ColorScheme-Text { color:#cb8c8e; } .ColorScheme-Highlight { color:#4285f4; } .ColorScheme-NeutralText { color:#ff9800; } .ColorScheme-PositiveText { color:#4caf50; } .ColorScheme-NegativeText { color:#f44336; }
  </style>
 </defs>
 <g transform="translate(4,4)">
  <path style="fill:currentColor" class="ColorScheme-Text" d="M 5,1 C 4,1 4,2 4,2 V 2.6855 C 4.9368,2.2373 5.9615,2.0031 7,2 10.866,2 14,5.134 14,9 13.996,11.461 12.701,13.739 10.588,15 H 15 C 16,15 16,14 16,14 V 2 C 16,2 16,1 15,1 Z M 7,3 A 6,6 0 0 0 1,9 6,6 0 0 0 7,15 6,6 0 0 0 13,9 6,6 0 0 0 7,3 Z M 7,7 A 2,2 0 0 1 9,9 2,2 0 0 1 7,11 2,2 0 0 1 5,9 2,2 0 0 1 7,7 Z"/>
 </g>
</svg>
