<svg xmlns="http://www.w3.org/2000/svg" width="16" height="16" version="1.1">
 <path style="opacity:.35;fill:#cb8c8e" d="M 8.5,0 C 7.378027,0 6.336832,0.3638673 5.46875,0.9882812 L 8,3.5195312 V 2 h 0.5 c 0.20775,0 0.39305,0.13292 0.46875,0.3125 l 2.875,2.84375 L 12.25,5.53125 11.8125,5.875 11.015625,6.535156 14,9.519531 V 6 C 14,2.676 11.547,0 8.5,0 Z M 3,0.5 1.5,2 3.3652344,3.8652344 C 3.1329301,4.5279779 3,5.2453479 3,6 v 4 c 0,3.324 2.453,6 5.5,6 1.855025,0 3.474814,-1.004688 4.46875,-2.53125 L 14,14.5 15.5,13 13.855469,11.355469 9.933594,7.433594 9.240234,6.740234 9,6.5 8,5.5 4.4472656,1.9472656 Z M 9,3.6875 V 4.5195312 L 10.326172,5.8457031 10.78125,5.46875 Z M 7.613281,8.113281 9,9.5 v 2.8125 l 1.40625,-1.40625 0.683594,0.683594 L 8.96875,13.6875 c -0.0252,0.0599 -0.0798,0.11106 -0.125,0.15625 C 8.75335,13.93415 8.6385,14 8.5,14 H 8 V 9.0625 L 5.84375,10.84375 C 5.75325,10.93425 5.63807,11 5.5,11 H 5 v -0.5 c 0,-0.15322 0.079,-0.28328 0.1875,-0.375 z"/>
</svg>
