<svg xmlns="http://www.w3.org/2000/svg" width="16" height="16" version="1.1">
 <path style="fill:#cb8c8e;opacity:.35" d="M 8 1 C 5.784 1 4 2.784 4 5 L 4 7 L 3 7 C 2.446 7 2 7.446 2 8 L 2 14 C 2 14.554 2.446 15 3 15 L 9 15 L 9 14 A 1.0001 1.0001 0 0 1 9.5859375 13.414062 A 1.0001 1.0001 0 0 1 9.2578125 13.125 L 9.0078125 11.125 A 1.0001 1.0001 0 0 1 9 11 L 9 7 L 6 7 L 6 5 C 6 3.892 6.892 3 8 3 C 9.108 3 10 3.892 10 5 L 10 6 L 12 6 L 12 5 C 12 2.784 10.216 1 8 1 z M 13 7 L 13 11 A 1.0001 1.0001 0 0 1 12.992188 11.125 L 12.742188 13.125 A 1.0001 1.0001 0 0 1 12.414062 13.414062 A 1.0001 1.0001 0 0 1 13 14 L 13 15 C 13.554 15 14 14.554 14 14 L 14 8 C 14 7.446 13.554 7 13 7 z"/>
 <path style="fill:#f44336" class="error" d="m 10,7 v 4 l 0.25,2 h 1.5 L 12,11 V 7 Z m 0,7 v 2 h 2 v -2 z"/>
</svg>
