<svg xmlns="http://www.w3.org/2000/svg" width="16" height="16" version="1.1">
 <path style="opacity:.35;fill:#cb8c8e" d="M 0,4 C 2.0806,2.0732 4.9494,1 8,1 c 3.051,0 5.919,1.0731 8,3 L 8,15 Z"/>
 <path style="fill:#cb8c8e" d="M 8 6 A 7.5 7.5 0 0 0 2.9101562 8.0019531 L 8 15 L 13.087891 8.0039062 A 7.5 7.5 0 0 0 8 6 z"/>
</svg>
