<svg xmlns="http://www.w3.org/2000/svg" width="16" height="16" version="1.1">
 <path style="fill:#cb8c8e" d="M 7,7 H 9 L 11,5 H 5 Z M 7,12 6,13 H 2 V 15 H 14 V 13 H 10 L 9,12 Z M 2,1 V 3 H 14 V 1 Z M 3,13 V 10.793 L 5,8.793 V 8.207 L 3,6.207 V 3 H 4 V 5.793 L 6,7.793 V 9.207 L 4,11.207 V 13 Z M 12,13 V 11.207 L 10,9.207 V 7.793 L 12,5.793 V 3 H 13 V 6.207 L 11,8.207 V 8.793 L 13,10.793 V 13 Z"/>
</svg>
