<svg xmlns="http://www.w3.org/2000/svg" width="16" height="16" version="1.1">
 <path style="fill:#cb8c8e" d="M 6,1 C 4.338,1 3,2.338 3,4 V 6 H 1 L 4,10 7,6 H 5 V 4 C 5,3.446 5.446,3 6,3 H 10 C 10.554,3 11,3.446 11,4 V 12 C 11,12.554 10.554,13 10,13 H 7 V 15 H 10 C 11.662,15 13,13.662 13,12 V 4 C 13,2.338 11.662,1 10,1 Z"/>
</svg>
