<svg xmlns="http://www.w3.org/2000/svg" width="16" height="16" version="1.1">
 <path style="fill:#cb8c8e;opacity:.35" d="m 8,0.390625 -2.1191406,5.5 L 0,6.1992188 4.5703125,9.9199219 3.0605469,15.609375 8,12.410156 12,15 V 14 13 12.068359 L 11.429688,9.9199219 12,9.4550781 V 8 c 5.5e-5,-0.5522619 0.447738,-0.9999448 1,-1 h 2 c 0.0052,-4.07e-5 0.01042,-4.07e-5 0.01563,0 L 16,6.1992188 10.119141,5.890625 Z"/>
 <path style="fill:#f44336" class="error" d="m 13,8 v 5 h 2 V 8 Z m 0,6 v 2 h 2 v -2 z"/>
</svg>
