<svg xmlns="http://www.w3.org/2000/svg" width="22" height="22" version="1.1">
 <defs>
  <style id="current-color-scheme" type="text/css">
   .ColorScheme-Text { color:#cb8c8e; } .ColorScheme-Highlight { color:#4285f4; } .ColorScheme-NeutralText { color:#ff9800; } .ColorScheme-PositiveText { color:#4caf50; } .ColorScheme-NegativeText { color:#f44336; }
  </style>
 </defs>
 <path style="fill:currentColor" class="ColorScheme-Text" d="M 4,3 C 4,3 3,3 3,4 V 17 C 3,17 3,18 4,18 H 14 V 17.25 L 19,12.273 V 6 C 19,5 18,5 18,5 H 12 L 10,3 Z"/>
 <path style="fill:currentColor" class="ColorScheme-Text" d="M 19.806,13 C 19.715,13 19.623,13.035 19.552,13.105 L 18.855,13.809 20.191,15.145 20.894,14.447 C 21.035,14.306 21.035,14.083 20.894,13.942 L 20.058,13.105 C 19.987,13.035 19.897,13 19.806,13 Z M 18.325,14.339 15,17.664 V 19 H 16.336 L 19.661,15.675 Z"/>
</svg>
