<svg xmlns="http://www.w3.org/2000/svg" width="22" height="22" version="1.1">
 <defs>
  <style id="current-color-scheme" type="text/css">
   .ColorScheme-Text { color:#cb8c8e; } .ColorScheme-Highlight { color:#4285f4; } .ColorScheme-NeutralText { color:#ff9800; } .ColorScheme-PositiveText { color:#4caf50; } .ColorScheme-NegativeText { color:#f44336; }
  </style>
 </defs>
 <g transform="translate(3,3)">
  <path style="fill:currentColor" class="ColorScheme-Text" d="M 3,1 V 5 H 1 V 7 H 11 V 5 H 9 V 1 Z M 11,2 13,5 15,2 Z M 1,9 V 11 H 3 V 15 H 9 V 11 H 11 V 9 Z M 13,11 11,14 H 15 Z"/>
 </g>
</svg>
