<svg xmlns="http://www.w3.org/2000/svg" width="22" height="22" version="1.1">
 <defs>
  <style id="current-color-scheme" type="text/css">
   .ColorScheme-Text { color:#cb8c8e; } .ColorScheme-Highlight { color:#4285f4; } .ColorScheme-NeutralText { color:#ff9800; } .ColorScheme-PositiveText { color:#4caf50; } .ColorScheme-NegativeText { color:#f44336; }
  </style>
 </defs>
 <path style="fill:currentColor" class="ColorScheme-Text" d="M 8,7 C 8,7 7,7 7,8 v 10 c 0,1 1,1 1,1 h 8 c 0,0 1,0 1,-1 V 8 C 17,7 16,7 16,7 Z m 1,2 h 6 v 8 H 9 Z"/>
 <path style="opacity:.35;fill:currentColor" class="ColorScheme-Text" d="M 5,4 C 5,4 4,4 4,5 v 9 c 0,0 0,1 1,1 H 6 V 6 h 8 V 5 C 14,4 13,4 13,4 Z"/>
</svg>
