<svg xmlns="http://www.w3.org/2000/svg" width="22" height="22" version="1.1">
 <defs>
  <style id="current-color-scheme" type="text/css">
   .ColorScheme-Text { color:#cb8c8e; } .ColorScheme-Highlight { color:#4285f4; } .ColorScheme-NeutralText { color:#ff9800; } .ColorScheme-PositiveText { color:#4caf50; } .ColorScheme-NegativeText { color:#f44336; }
  </style>
 </defs>
 <g transform="translate(3,3)">
  <path style="fill:currentColor" class="ColorScheme-Text" d="M 8,0 5,4 H 7 V 7 H 4 V 5 L 0,8 4,11 V 9 H 7 V 12 H 5 L 8,16 11,12 H 9 V 9 H 12 V 11 L 16,8 12,5 V 7 H 9 V 4 H 11 Z"/>
 </g>
</svg>
