<svg xmlns="http://www.w3.org/2000/svg" width="22" height="22" viewBox="0 0 22 22">
 <defs>
  <style id="current-color-scheme" type="text/css">
   .ColorScheme-Text { color:#cb8c8e; } .ColorScheme-Highlight { color:#4285f4; } .ColorScheme-NeutralText { color:#ff9800; } .ColorScheme-PositiveText { color:#4caf50; } .ColorScheme-NegativeText { color:#f44336; }
  </style>
 </defs>
 <path style="fill:currentColor" class="ColorScheme-Text" d="M 0 0 L 0 3.8886719 L 0 5.0097656 L 0 8 L 0 10.990234 L 0 12 L 0 12.111328 L 0 16 L 16 16 L 16 12.107422 L 16 12 L 16 10.990234 L 16 8 L 16 5.0097656 L 16 3.8925781 L 16 0 L 0 0 z M 1 1 L 15 1 L 15 3.3867188 A 11 6 0 0 0 8 2 A 11 6 0 0 0 1 3.3808594 L 1 1 z M 8 3 A 10 5 0 0 1 15 4.4414062 L 15 6.5488281 A 8 3 0 0 0 8 5 A 8 3 0 0 0 1 6.5546875 L 1 4.4453125 A 10 5 0 0 1 8 3 z M 8 6 A 7 2 0 0 1 15 8 A 7 2 0 0 1 8 10 A 7 2 0 0 1 1 8 A 7 2 0 0 1 8 6 z M 15 9.4453125 L 15 11.558594 A 10 5 0 0 1 8 13 A 10 5 0 0 1 1 11.554688 L 1 9.4511719 A 8 3 0 0 0 8 11 A 8 3 0 0 0 15 9.4453125 z M 15 12.613281 L 15 15 L 1 15 L 1 12.619141 A 11 6 0 0 0 8 14 A 11 6 0 0 0 15 12.613281 z" transform="translate(3 3)"/>
</svg>
