<svg xmlns="http://www.w3.org/2000/svg" width="22" height="22" viewBox="0 0 22 22">
 <defs>
  <style id="current-color-scheme" type="text/css">
   .ColorScheme-Text { color:#cb8c8e; } .ColorScheme-Highlight { color:#4285f4; } .ColorScheme-NeutralText { color:#ff9800; } .ColorScheme-PositiveText { color:#4caf50; } .ColorScheme-NegativeText { color:#f44336; }
  </style>
 </defs>
 <path style="fill:currentColor" class="ColorScheme-Text" d="M 1 1 L 1 15 L 7 15 L 7 13 L 4 13 L 4 3 L 15 3 L 15 1 L 1 1 z M 12 5 L 12 10.5 C 11.5818 10.1852 11.066 10 10.5 10 C 9.115 10 8 11.115 8 12.5 C 8 13.885 9.115 15 10.5 15 C 11.885 15 13 13.885 13 12.5 L 13 7 L 15 7 C 15 5.892 14.108 5 13 5 L 12 5 z" transform="translate(3 3)"/>
</svg>
