<svg xmlns="http://www.w3.org/2000/svg" width="22" height="22" version="1.1">
 <defs>
  <style id="current-color-scheme" type="text/css">
   .ColorScheme-Text { color:#cb8c8e; } .ColorScheme-Highlight { color:#4285f4; } .ColorScheme-NeutralText { color:#ff9800; } .ColorScheme-PositiveText { color:#4caf50; } .ColorScheme-NegativeText { color:#f44336; }
  </style>
 </defs>
 <path style="fill:currentColor" class="ColorScheme-Text" transform="translate(3,3)" d="m 1,2 v 5.9960938 1 V 15 H 14 V 13 H 3 v -1 h 3.005859 v -0.0078 l 0.0078,0.0078 2,-2 h 1.591797 l 2,2 h 2.40039 v -1 h -1.986328 l -2,-2 H 8.605456 7.599596 l -2,2 H 3 V 8.9960938 h 2 v -0.00781 L 5.0078,8.9960938 6.003906,8 H 7 8 V 7 H 7 V 6 H 6 V 7.9960938 L 5.296875,7.2929688 4.59375,7.9960938 H 3 V 2 Z M 6,2 V 3 4 H 7 V 3 H 8 V 2 Z m 4,0 v 1 h 1 v 1 h 1 V 2 H 11 Z M 9,3.5898438 7.296875,5.2929688 8.003906,6 9,5.0039062 9.996094,6 10.703125,5.2929688 Z M 11,6 v 1 h -1 v 1 h 2 V 7 6 Z m 3,0 -1,1 h 1 z"/>
 <path style="fill:currentColor;opacity:0.5" class="ColorScheme-Text" transform="translate(3 3)" d="M 9 5 L 7.0039062 7 L 8 7 L 8 8 L 6.0058594 8 L 5.0078125 9 L 1.9980469 9 L 1.9980469 13 L 6.9980469 13 L 8.9980469 12.992188 L 13.998047 13 L 13.998047 7 L 11.998047 7 L 11.998047 8 L 9.9980469 8 L 9.9980469 7 L 10.998047 7 L 9 5 z"/>
</svg>
