<svg xmlns="http://www.w3.org/2000/svg" width="22" height="22" version="1.1">
 <defs>
  <style id="current-color-scheme" type="text/css">
   .ColorScheme-Text { color:#cb8c8e; } .ColorScheme-Highlight { color:#4285f4; } .ColorScheme-NeutralText { color:#ff9800; } .ColorScheme-PositiveText { color:#4caf50; } .ColorScheme-NegativeText { color:#f44336; }
  </style>
 </defs>
 <path style="fill:currentColor" class="ColorScheme-Text" d="m 4,5 v 11 2 H 6 17 V 16 H 6 V 15 H 6.0078125 7 9 V 14.9922 L 9.00781,15 l 2,-2 h 1.591797 l 2,2 H 17 v -1 h -1.986328 l -2,-2 H 13 12.007813 11.599609 10.59375 l -2,2 H 7 6.0078125 6 V 12 H 7.8730469 7.875 l 2,-2 H 8.4609375 l -1,1 H 6 V 5 Z M 7,5 V 6 H 8 V 9 H 9 V 5 H 8 Z m 4.5,0 C 10.669,5 10,5.669 10,6.5 v 1 C 10,8.331 10.669,9 11.5,9 12.331,9 13,8.331 13,7.5 v -1 C 13,5.669 12.331,5 11.5,5 Z m 4,0 C 14.669,5 14,5.669 14,6.5 v 1 C 14,8.331 14.669,9 15.5,9 16.331,9 17,8.331 17,7.5 v -1 C 17,5.669 16.331,5 15.5,5 Z m -4,1 C 11.777,6 12,6.223 12,6.5 v 1 C 12,7.777 11.777,8 11.5,8 11.223,8 11,7.777 11,7.5 v -1 C 11,6.223 11.223,6 11.5,6 Z m 4,0 C 15.777,6 16,6.223 16,6.5 v 1 C 16,7.777 15.777,8 15.5,8 15.223,8 15,7.777 15,7.5 v -1 C 15,6.223 15.223,6 15.5,6 Z"/>
</svg>
