<svg xmlns="http://www.w3.org/2000/svg" width="22" height="22" version="1.1">
 <defs>
  <style id="current-color-scheme" type="text/css">
   .ColorScheme-Text { color:#cb8c8e; } .ColorScheme-Highlight { color:#4285f4; } .ColorScheme-NeutralText { color:#ff9800; } .ColorScheme-PositiveText { color:#4caf50; } .ColorScheme-NegativeText { color:#f44336; }
  </style>
 </defs>
 <path style="fill:currentColor" class="ColorScheme-Text" d="m 5,10 c -0.554,0 -1,0.446 -1,1 v 5 c 0,0.554 0.446,1 1,1 h 8 c 0.554,0 1,-0.446 1,-1 v -5 c 0,-0.554 -0.446,-1 -1,-1 z m 7.576172,1.734375 0.847656,0.53125 -2.259765,3.615234 -2.4218755,-1.451171 0.515625,-0.859376 1.5781255,0.949219 z"/>
 <path style="opacity:0.35;fill:currentColor" class="ColorScheme-Text" d="M 9,5 C 8.446,5 8,5.446 8,6 v 3 h 5 c 1.090702,0 2,0.9092983 2,2 v 1 h 2 c 0.554,0 1,-0.446 1,-1 V 6 C 18,5.446 17.554,5 17,5 Z"/>
</svg>
