<svg xmlns="http://www.w3.org/2000/svg" width="22" height="22" version="1.1">
 <defs>
  <style id="current-color-scheme" type="text/css">
   .ColorScheme-Text { color:#cb8c8e; } .ColorScheme-Highlight { color:#4285f4; } .ColorScheme-NeutralText { color:#ff9800; } .ColorScheme-PositiveText { color:#4caf50; } .ColorScheme-NegativeText { color:#f44336; }
  </style>
 </defs>
 <path style="opacity:0.35;fill:currentColor" class="ColorScheme-Text" d="m 13,6 v 10 h 3.599609 C 17.375209,16 18,15.363694 18,14.572266 V 7.427734 C 18,6.6363058 17.375209,6 16.599609,6 Z"/>
 <path style="fill:currentColor" class="ColorScheme-Text" d="M 5.4003906,6 C 4.6247906,6 4,6.6363058 4,7.427734 v 7.144532 C 4,15.363694 4.6247906,16 5.4003906,16 H 9 V 6 Z"/>
 <path style="fill:currentColor" class="ColorScheme-Text" d="m 10,4 v 14 h 2 V 4 Z"/>
</svg>
