<svg xmlns="http://www.w3.org/2000/svg" width="22" height="22" version="1.1">
 <defs>
  <style id="current-color-scheme" type="text/css">
   .ColorScheme-Text { color:#cb8c8e; } .ColorScheme-Highlight { color:#4285f4; } .ColorScheme-NeutralText { color:#ff9800; } .ColorScheme-PositiveText { color:#4caf50; } .ColorScheme-NegativeText { color:#f44336; }
  </style>
 </defs>
 <path style="fill:currentColor" class="ColorScheme-Text" d="M 5,4 C 5,4 4,4 4,5 v 12 c 0,1 1,1 1,1 h 12 c 0,0 1,0 1,-1 V 5 C 18,4 17,4 17,4 Z m 1,3 h 10 v 9 H 6 Z m 1,1 v 3 h 3 V 8 Z m 4,2 v 1 h 4 v -1 z m -4,2 v 1 h 8 v -1 z m 0,2 v 1 h 8 v -1 z"/>
</svg>
