<svg xmlns="http://www.w3.org/2000/svg" width="22" height="22" version="1.1">
 <defs>
  <style id="current-color-scheme" type="text/css">
   .ColorScheme-Text { color:#cb8c8e; } .ColorScheme-Highlight { color:#4285f4; } .ColorScheme-NeutralText { color:#ff9800; } .ColorScheme-PositiveText { color:#4caf50; } .ColorScheme-NegativeText { color:#f44336; }
  </style>
 </defs>
 <path style="fill:currentColor" class="ColorScheme-Text" d="m 4,5 v 5 h 6 V 5 Z m 8,0 v 5 h 6 V 5 Z M 5,6 H 7 V 7 H 5 Z m -1,6 v 5 h 6 v -5 z m 8,0 v 5 h 6 v -5 z m 3,3 h 2 v 1 h -2 z"/>
</svg>
